﻿Domain Code,Domain,Area Code (M49),Area,Element Code,Element,Item Code,Item,Year Code,Year,Unit,Value,Flag,Flag Description,Note
"OA","Annual population","004","Afghanistan","511","Total Population - Both sexes","3010","Population - Est. & Proj.","2019","2019","1000 persons","37769.499","X","Figure from international organizations",""
"OA","Annual population","008","Albania","511","Total Population - Both sexes","3010","Population - Est. & Proj.","2019","2019","1000 persons","2873.883","X","Figure from international organizations",""
"OA","Annual population","012","Algeria","511","Total Population - Both sexes","3010","Population - Est. & Proj.","2019","2019","1000 persons","42705.368","X","Figure from international organizations",""
"OA","Annual population","016","American Samoa","511","Total Population - Both sexes","3010","Population - Est. & Proj.","2019","2019","1000 persons","47.321","X","Figure from international organizations",""
"OA","Annual population","020","Andorra","511","Total Population - Both sexes","3010","Population - Est. & Proj.","2019","2019","1000 persons","76.343","X","Figure from international organizations",""
"OA","Annual population","024","Angola","511","Total Population - Both sexes","3010","Population - Est. & Proj.","2019","2019","1000 persons","32353.588","X","Figure from international organizations",""
"OA","Annual population","660","Anguilla","511","Total Population - Both sexes","3010","Population - Est. & Proj.","2019","2019","1000 persons","15.38","X","Figure from international organizations",""
"OA","Annual population","028","Antigua and Barbuda","511","Total Population - Both sexes","3010","Population - Est. & Proj.","2019","2019","1000 persons","92.117","X","Figure from international organizations",""
"OA","Annual population","032","Argentina","511","Total Population - Both sexes","3010","Population - Est. & Proj.","2019","2019","1000 persons","44745.52","X","Figure from international organizations",""
"OA","Annual population","051","Armenia","511","Total Population - Both sexes","3010","Population - Est. & Proj.","2019","2019","1000 persons","2820.602","X","Figure from international organizations",""
"OA","Annual population","533","Aruba","511","Total Population - Both sexes","3010","Population - Est. & Proj.","2019","2019","1000 persons","106.442","X","Figure from international organizations",""
"OA","Annual population","036","Australia","511","Total Population - Both sexes","3010","Population - Est. & Proj.","2019","2019","1000 persons","25357.17","X","Figure from international organizations",""
"OA","Annual population","040","Austria","511","Total Population - Both sexes","3010","Population - Est. & Proj.","2019","2019","1000 persons","8879.94","X","Figure from international organizations",""
"OA","Annual population","031","Azerbaijan","511","Total Population - Both sexes","3010","Population - Est. & Proj.","2019","2019","1000 persons","10232.753","X","Figure from international organizations",""
"OA","Annual population","044","Bahamas","511","Total Population - Both sexes","3010","Population - Est. & Proj.","2019","2019","1000 persons","404.557","X","Figure from international organizations",""
"OA","Annual population","048","Bahrain","511","Total Population - Both sexes","3010","Population - Est. & Proj.","2019","2019","1000 persons","1494.188","X","Figure from international organizations",""
"OA","Annual population","050","Bangladesh","511","Total Population - Both sexes","3010","Population - Est. & Proj.","2019","2019","1000 persons","165516.222","X","Figure from international organizations",""
"OA","Annual population","052","Barbados","511","Total Population - Both sexes","3010","Population - Est. & Proj.","2019","2019","1000 persons","280.18","X","Figure from international organizations",""
"OA","Annual population","112","Belarus","511","Total Population - Both sexes","3010","Population - Est. & Proj.","2019","2019","1000 persons","9673.971","X","Figure from international organizations",""
"OA","Annual population","056","Belgium","511","Total Population - Both sexes","3010","Population - Est. & Proj.","2019","2019","1000 persons","11510.568","X","Figure from international organizations",""
"OA","Annual population","084","Belize","511","Total Population - Both sexes","3010","Population - Est. & Proj.","2019","2019","1000 persons","389.095","X","Figure from international organizations",""
"OA","Annual population","204","Benin","511","Total Population - Both sexes","3010","Population - Est. & Proj.","2019","2019","1000 persons","12290.444","X","Figure from international organizations",""
"OA","Annual population","060","Bermuda","511","Total Population - Both sexes","3010","Population - Est. & Proj.","2019","2019","1000 persons","63.812","X","Figure from international organizations",""
"OA","Annual population","064","Bhutan","511","Total Population - Both sexes","3010","Population - Est. & Proj.","2019","2019","1000 persons","767.459","X","Figure from international organizations",""
"OA","Annual population","068","Bolivia (Plurinational State of)","511","Total Population - Both sexes","3010","Population - Est. & Proj.","2019","2019","1000 persons","11777.315","X","Figure from international organizations",""
"OA","Annual population","535","Bonaire, Sint Eustatius and Saba","511","Total Population - Both sexes","3010","Population - Est. & Proj.","2019","2019","1000 persons","25.57","X","Figure from international organizations",""
"OA","Annual population","070","Bosnia and Herzegovina","511","Total Population - Both sexes","3010","Population - Est. & Proj.","2019","2019","1000 persons","3360.711","X","Figure from international organizations",""
"OA","Annual population","072","Botswana","511","Total Population - Both sexes","3010","Population - Est. & Proj.","2019","2019","1000 persons","2499.702","X","Figure from international organizations",""
"OA","Annual population","076","Brazil","511","Total Population - Both sexes","3010","Population - Est. & Proj.","2019","2019","1000 persons","211782.878","X","Figure from international organizations",""
"OA","Annual population","092","British Virgin Islands","511","Total Population - Both sexes","3010","Population - Est. & Proj.","2019","2019","1000 persons","30.61","X","Figure from international organizations",""
"OA","Annual population","096","Brunei Darussalam","511","Total Population - Both sexes","3010","Population - Est. & Proj.","2019","2019","1000 persons","438.048","X","Figure from international organizations",""
"OA","Annual population","100","Bulgaria","511","Total Population - Both sexes","3010","Population - Est. & Proj.","2019","2019","1000 persons","7052.532","X","Figure from international organizations",""
"OA","Annual population","854","Burkina Faso","511","Total Population - Both sexes","3010","Population - Est. & Proj.","2019","2019","1000 persons","20951.639","X","Figure from international organizations",""
"OA","Annual population","108","Burundi","511","Total Population - Both sexes","3010","Population - Est. & Proj.","2019","2019","1000 persons","11874.838","X","Figure from international organizations",""
"OA","Annual population","132","Cabo Verde","511","Total Population - Both sexes","3010","Population - Est. & Proj.","2019","2019","1000 persons","577.03","X","Figure from international organizations",""
"OA","Annual population","116","Cambodia","511","Total Population - Both sexes","3010","Population - Est. & Proj.","2019","2019","1000 persons","16207.746","X","Figure from international organizations",""
"OA","Annual population","120","Cameroon","511","Total Population - Both sexes","3010","Population - Est. & Proj.","2019","2019","1000 persons","25782.341","X","Figure from international organizations",""
"OA","Annual population","124","Canada","511","Total Population - Both sexes","3010","Population - Est. & Proj.","2019","2019","1000 persons","37522.584","X","Figure from international organizations",""
"OA","Annual population","136","Cayman Islands","511","Total Population - Both sexes","3010","Population - Est. & Proj.","2019","2019","1000 persons","66.134","X","Figure from international organizations",""
"OA","Annual population","140","Central African Republic","511","Total Population - Both sexes","3010","Population - Est. & Proj.","2019","2019","1000 persons","5209.324","X","Figure from international organizations",""
"OA","Annual population","148","Chad","511","Total Population - Both sexes","3010","Population - Est. & Proj.","2019","2019","1000 persons","16126.866","X","Figure from international organizations",""
"OA","Annual population","152","Chile","511","Total Population - Both sexes","3010","Population - Est. & Proj.","2019","2019","1000 persons","19039.485","X","Figure from international organizations",""
"OA","Annual population","159","China","511","Total Population - Both sexes","3010","Population - Est. & Proj.","2019","2019","1000 persons","1453801.543","X","Figure from international organizations",""
"OA","Annual population","344","China, Hong Kong SAR","511","Total Population - Both sexes","3010","Population - Est. & Proj.","2019","2019","1000 persons","7496.122","X","Figure from international organizations",""
"OA","Annual population","446","China, Macao SAR","511","Total Population - Both sexes","3010","Population - Est. & Proj.","2019","2019","1000 persons","663.653","X","Figure from international organizations",""
"OA","Annual population","156","China, mainland","511","Total Population - Both sexes","3010","Population - Est. & Proj.","2019","2019","1000 persons","1421864.031","X","Figure from international organizations",""
"OA","Annual population","158","China, Taiwan Province of","511","Total Population - Both sexes","3010","Population - Est. & Proj.","2019","2019","1000 persons","23777.737","X","Figure from international organizations",""
"OA","Annual population","170","Colombia","511","Total Population - Both sexes","3010","Population - Est. & Proj.","2019","2019","1000 persons","50187.406","X","Figure from international organizations",""
"OA","Annual population","174","Comoros","511","Total Population - Both sexes","3010","Population - Est. & Proj.","2019","2019","1000 persons","790.986","X","Figure from international organizations",""
"OA","Annual population","178","Congo","511","Total Population - Both sexes","3010","Population - Est. & Proj.","2019","2019","1000 persons","5570.733","X","Figure from international organizations",""
"OA","Annual population","184","Cook Islands","511","Total Population - Both sexes","3010","Population - Est. & Proj.","2019","2019","1000 persons","17.11","X","Figure from international organizations",""
"OA","Annual population","188","Costa Rica","511","Total Population - Both sexes","3010","Population - Est. & Proj.","2019","2019","1000 persons","5084.532","X","Figure from international organizations",""
"OA","Annual population","384","Côte d'Ivoire","511","Total Population - Both sexes","3010","Population - Est. & Proj.","2019","2019","1000 persons","26147.551","X","Figure from international organizations",""
"OA","Annual population","191","Croatia","511","Total Population - Both sexes","3010","Population - Est. & Proj.","2019","2019","1000 persons","4129.752","X","Figure from international organizations",""
"OA","Annual population","192","Cuba","511","Total Population - Both sexes","3010","Population - Est. & Proj.","2019","2019","1000 persons","11316.697","X","Figure from international organizations",""
"OA","Annual population","531","Curaçao","511","Total Population - Both sexes","3010","Population - Est. & Proj.","2019","2019","1000 persons","193.107","X","Figure from international organizations",""
"OA","Annual population","196","Cyprus","511","Total Population - Both sexes","3010","Population - Est. & Proj.","2019","2019","1000 persons","1228.836","X","Figure from international organizations",""
"OA","Annual population","203","Czechia","511","Total Population - Both sexes","3010","Population - Est. & Proj.","2019","2019","1000 persons","10536.871","X","Figure from international organizations",""
"OA","Annual population","408","Democratic People's Republic of Korea","511","Total Population - Both sexes","3010","Population - Est. & Proj.","2019","2019","1000 persons","25755.441","X","Figure from international organizations",""
"OA","Annual population","180","Democratic Republic of the Congo","511","Total Population - Both sexes","3010","Population - Est. & Proj.","2019","2019","1000 persons","89906.89","X","Figure from international organizations",""
"OA","Annual population","208","Denmark","511","Total Population - Both sexes","3010","Population - Est. & Proj.","2019","2019","1000 persons","5795.878","X","Figure from international organizations",""
"OA","Annual population","262","Djibouti","511","Total Population - Both sexes","3010","Population - Est. & Proj.","2019","2019","1000 persons","1073.994","X","Figure from international organizations",""
"OA","Annual population","212","Dominica","511","Total Population - Both sexes","3010","Population - Est. & Proj.","2019","2019","1000 persons","71.428","X","Figure from international organizations",""
"OA","Annual population","214","Dominican Republic","511","Total Population - Both sexes","3010","Population - Est. & Proj.","2019","2019","1000 persons","10881.882","X","Figure from international organizations",""
"OA","Annual population","218","Ecuador","511","Total Population - Both sexes","3010","Population - Est. & Proj.","2019","2019","1000 persons","17343.74","X","Figure from international organizations",""
"OA","Annual population","818","Egypt","511","Total Population - Both sexes","3010","Population - Est. & Proj.","2019","2019","1000 persons","105618.671","X","Figure from international organizations",""
"OA","Annual population","222","El Salvador","511","Total Population - Both sexes","3010","Population - Est. & Proj.","2019","2019","1000 persons","6280.217","X","Figure from international organizations",""
"OA","Annual population","226","Equatorial Guinea","511","Total Population - Both sexes","3010","Population - Est. & Proj.","2019","2019","1000 persons","1553.031","X","Figure from international organizations",""
"OA","Annual population","232","Eritrea","511","Total Population - Both sexes","3010","Population - Est. & Proj.","2019","2019","1000 persons","3498.818","X","Figure from international organizations",""
"OA","Annual population","233","Estonia","511","Total Population - Both sexes","3010","Population - Est. & Proj.","2019","2019","1000 persons","1327.039","X","Figure from international organizations",""
"OA","Annual population","748","Eswatini","511","Total Population - Both sexes","3010","Population - Est. & Proj.","2019","2019","1000 persons","1169.613","X","Figure from international organizations",""
"OA","Annual population","231","Ethiopia","511","Total Population - Both sexes","3010","Population - Est. & Proj.","2019","2019","1000 persons","114120.594","X","Figure from international organizations",""
"OA","Annual population","238","Falkland Islands (Malvinas)","511","Total Population - Both sexes","3010","Population - Est. & Proj.","2019","2019","1000 persons","3.71","X","Figure from international organizations",""
"OA","Annual population","234","Faroe Islands","511","Total Population - Both sexes","3010","Population - Est. & Proj.","2019","2019","1000 persons","51.681","X","Figure from international organizations",""
"OA","Annual population","242","Fiji","511","Total Population - Both sexes","3010","Population - Est. & Proj.","2019","2019","1000 persons","918.465","X","Figure from international organizations",""
"OA","Annual population","246","Finland","511","Total Population - Both sexes","3010","Population - Est. & Proj.","2019","2019","1000 persons","5521.537","X","Figure from international organizations",""
"OA","Annual population","250","France","511","Total Population - Both sexes","3010","Population - Est. & Proj.","2019","2019","1000 persons","64399.759","X","Figure from international organizations",""
"OA","Annual population","254","French Guyana","511","Total Population - Both sexes","3010","Population - Est. & Proj.","2019","2019","1000 persons","284.072","X","Figure from international organizations",""
"OA","Annual population","258","French Polynesia","511","Total Population - Both sexes","3010","Population - Est. & Proj.","2019","2019","1000 persons","299.717","X","Figure from international organizations",""
"OA","Annual population","266","Gabon","511","Total Population - Both sexes","3010","Population - Est. & Proj.","2019","2019","1000 persons","2242.785","X","Figure from international organizations",""
"OA","Annual population","270","Gambia","511","Total Population - Both sexes","3010","Population - Est. & Proj.","2019","2019","1000 persons","2508.883","X","Figure from international organizations",""
"OA","Annual population","268","Georgia","511","Total Population - Both sexes","3010","Population - Est. & Proj.","2019","2019","1000 persons","3770.811","X","Figure from international organizations",""
"OA","Annual population","276","Germany","511","Total Population - Both sexes","3010","Population - Est. & Proj.","2019","2019","1000 persons","83148.141","X","Figure from international organizations",""
"OA","Annual population","288","Ghana","511","Total Population - Both sexes","3010","Population - Est. & Proj.","2019","2019","1000 persons","31522.29","X","Figure from international organizations",""
"OA","Annual population","292","Gibraltar","511","Total Population - Both sexes","3010","Population - Est. & Proj.","2019","2019","1000 persons","32.685","X","Figure from international organizations",""
"OA","Annual population","300","Greece","511","Total Population - Both sexes","3010","Population - Est. & Proj.","2019","2019","1000 persons","10574.024","X","Figure from international organizations",""
"OA","Annual population","304","Greenland","511","Total Population - Both sexes","3010","Population - Est. & Proj.","2019","2019","1000 persons","55.931","X","Figure from international organizations",""
"OA","Annual population","308","Grenada","511","Total Population - Both sexes","3010","Population - Est. & Proj.","2019","2019","1000 persons","122.724","X","Figure from international organizations",""
"OA","Annual population","312","Guadeloupe","511","Total Population - Both sexes","3010","Population - Est. & Proj.","2019","2019","1000 persons","395.485","X","Figure from international organizations",""
"OA","Annual population","316","Guam","511","Total Population - Both sexes","3010","Population - Est. & Proj.","2019","2019","1000 persons","168.624","X","Figure from international organizations",""
"OA","Annual population","320","Guatemala","511","Total Population - Both sexes","3010","Population - Est. & Proj.","2019","2019","1000 persons","17106.338","X","Figure from international organizations",""
"OA","Annual population","324","Guinea","511","Total Population - Both sexes","3010","Population - Est. & Proj.","2019","2019","1000 persons","12877.539","X","Figure from international organizations",""
"OA","Annual population","624","Guinea-Bissau","511","Total Population - Both sexes","3010","Population - Est. & Proj.","2019","2019","1000 persons","1970.457","X","Figure from international organizations",""
"OA","Annual population","328","Guyana","511","Total Population - Both sexes","3010","Population - Est. & Proj.","2019","2019","1000 persons","798.753","X","Figure from international organizations",""
"OA","Annual population","332","Haiti","511","Total Population - Both sexes","3010","Population - Est. & Proj.","2019","2019","1000 persons","11160.438","X","Figure from international organizations",""
"OA","Annual population","336","Holy See","511","Total Population - Both sexes","3010","Population - Est. & Proj.","2019","2019","1000 persons","0.528","X","Figure from international organizations",""
"OA","Annual population","340","Honduras","511","Total Population - Both sexes","3010","Population - Est. & Proj.","2019","2019","1000 persons","9958.829","X","Figure from international organizations",""
"OA","Annual population","348","Hungary","511","Total Population - Both sexes","3010","Population - Est. & Proj.","2019","2019","1000 persons","9771.796","X","Figure from international organizations",""
"OA","Annual population","352","Iceland","511","Total Population - Both sexes","3010","Population - Est. & Proj.","2019","2019","1000 persons","360.774","X","Figure from international organizations",""
"OA","Annual population","356","India","511","Total Population - Both sexes","3010","Population - Est. & Proj.","2019","2019","1000 persons","1383112.05","X","Figure from international organizations",""
"OA","Annual population","360","Indonesia","511","Total Population - Both sexes","3010","Population - Est. & Proj.","2019","2019","1000 persons","269582.878","X","Figure from international organizations",""
"OA","Annual population","364","Iran (Islamic Republic of)","511","Total Population - Both sexes","3010","Population - Est. & Proj.","2019","2019","1000 persons","86564.202","X","Figure from international organizations",""
"OA","Annual population","368","Iraq","511","Total Population - Both sexes","3010","Population - Est. & Proj.","2019","2019","1000 persons","41563.52","X","Figure from international organizations",""
"OA","Annual population","372","Ireland","511","Total Population - Both sexes","3010","Population - Est. & Proj.","2019","2019","1000 persons","4896.019","X","Figure from international organizations",""
"OA","Annual population","833","Isle of Man","511","Total Population - Both sexes","3010","Population - Est. & Proj.","2019","2019","1000 persons","83.933","X","Figure from international organizations",""
"OA","Annual population","376","Israel","511","Total Population - Both sexes","3010","Population - Est. & Proj.","2019","2019","1000 persons","8607.919","X","Figure from international organizations",""
"OA","Annual population","380","Italy","511","Total Population - Both sexes","3010","Population - Est. & Proj.","2019","2019","1000 persons","59727.932","X","Figure from international organizations",""
"OA","Annual population","388","Jamaica","511","Total Population - Both sexes","3010","Population - Est. & Proj.","2019","2019","1000 persons","2813.773","X","Figure from international organizations",""
"OA","Annual population","392","Japan","511","Total Population - Both sexes","3010","Population - Est. & Proj.","2019","2019","1000 persons","125791.677","X","Figure from international organizations",""
"OA","Annual population","400","Jordan","511","Total Population - Both sexes","3010","Population - Est. & Proj.","2019","2019","1000 persons","10698.683","X","Figure from international organizations",""
"OA","Annual population","398","Kazakhstan","511","Total Population - Both sexes","3010","Population - Est. & Proj.","2019","2019","1000 persons","18754.258","X","Figure from international organizations",""
"OA","Annual population","404","Kenya","511","Total Population - Both sexes","3010","Population - Est. & Proj.","2019","2019","1000 persons","50951.45","X","Figure from international organizations",""
"OA","Annual population","296","Kiribati","511","Total Population - Both sexes","3010","Population - Est. & Proj.","2019","2019","1000 persons","124.241","X","Figure from international organizations",""
"OA","Annual population","414","Kuwait","511","Total Population - Both sexes","3010","Population - Est. & Proj.","2019","2019","1000 persons","4441.1","X","Figure from international organizations",""
"OA","Annual population","417","Kyrgyzstan","511","Total Population - Both sexes","3010","Population - Est. & Proj.","2019","2019","1000 persons","6323.643","X","Figure from international organizations",""
"OA","Annual population","418","Lao People's Democratic Republic","511","Total Population - Both sexes","3010","Population - Est. & Proj.","2019","2019","1000 persons","7212.053","X","Figure from international organizations",""
"OA","Annual population","428","Latvia","511","Total Population - Both sexes","3010","Population - Est. & Proj.","2019","2019","1000 persons","1916.555","X","Figure from international organizations",""
"OA","Annual population","422","Lebanon","511","Total Population - Both sexes","3010","Population - Est. & Proj.","2019","2019","1000 persons","5781.907","X","Figure from international organizations",""
"OA","Annual population","426","Lesotho","511","Total Population - Both sexes","3010","Population - Est. & Proj.","2019","2019","1000 persons","2225.702","X","Figure from international organizations",""
"OA","Annual population","430","Liberia","511","Total Population - Both sexes","3010","Population - Est. & Proj.","2019","2019","1000 persons","4985.289","X","Figure from international organizations",""
"OA","Annual population","434","Libya","511","Total Population - Both sexes","3010","Population - Est. & Proj.","2019","2019","1000 persons","6569.088","X","Figure from international organizations",""
"OA","Annual population","438","Liechtenstein","511","Total Population - Both sexes","3010","Population - Est. & Proj.","2019","2019","1000 persons","38.482","X","Figure from international organizations",""
"OA","Annual population","440","Lithuania","511","Total Population - Both sexes","3010","Population - Est. & Proj.","2019","2019","1000 persons","2849.083","X","Figure from international organizations",""
"OA","Annual population","442","Luxembourg","511","Total Population - Both sexes","3010","Population - Est. & Proj.","2019","2019","1000 persons","619.973","X","Figure from international organizations",""
"OA","Annual population","450","Madagascar","511","Total Population - Both sexes","3010","Population - Est. & Proj.","2019","2019","1000 persons","27533.134","X","Figure from international organizations",""
"OA","Annual population","454","Malawi","511","Total Population - Both sexes","3010","Population - Est. & Proj.","2019","2019","1000 persons","18867.337","X","Figure from international organizations",""
"OA","Annual population","458","Malaysia","511","Total Population - Both sexes","3010","Population - Est. & Proj.","2019","2019","1000 persons","32804.02","X","Figure from international organizations",""
"OA","Annual population","462","Maldives","511","Total Population - Both sexes","3010","Population - Est. & Proj.","2019","2019","1000 persons","504.508","X","Figure from international organizations",""
"OA","Annual population","466","Mali","511","Total Population - Both sexes","3010","Population - Est. & Proj.","2019","2019","1000 persons","20567.424","X","Figure from international organizations",""
"OA","Annual population","470","Malta","511","Total Population - Both sexes","3010","Population - Est. & Proj.","2019","2019","1000 persons","503.635","X","Figure from international organizations",""
"OA","Annual population","584","Marshall Islands","511","Total Population - Both sexes","3010","Population - Est. & Proj.","2019","2019","1000 persons","44.728","X","Figure from international organizations",""
"OA","Annual population","474","Martinique","511","Total Population - Both sexes","3010","Population - Est. & Proj.","2019","2019","1000 persons","372.245","X","Figure from international organizations",""
"OA","Annual population","478","Mauritania","511","Total Population - Both sexes","3010","Population - Est. & Proj.","2019","2019","1000 persons","4383.849","X","Figure from international organizations",""
"OA","Annual population","480","Mauritius","511","Total Population - Both sexes","3010","Population - Est. & Proj.","2019","2019","1000 persons","1296.279","X","Figure from international organizations",""
"OA","Annual population","175","Mayotte","511","Total Population - Both sexes","3010","Population - Est. & Proj.","2019","2019","1000 persons","294.489","X","Figure from international organizations",""
"OA","Annual population","484","Mexico","511","Total Population - Both sexes","3010","Population - Est. & Proj.","2019","2019","1000 persons","125085.311","X","Figure from international organizations",""
"OA","Annual population","583","Micronesia (Federated States of)","511","Total Population - Both sexes","3010","Population - Est. & Proj.","2019","2019","1000 persons","111.379","X","Figure from international organizations",""
"OA","Annual population","492","Monaco","511","Total Population - Both sexes","3010","Population - Est. & Proj.","2019","2019","1000 persons","37.034","X","Figure from international organizations",""
"OA","Annual population","496","Mongolia","511","Total Population - Both sexes","3010","Population - Est. & Proj.","2019","2019","1000 persons","3232.43","X","Figure from international organizations",""
"OA","Annual population","499","Montenegro","511","Total Population - Both sexes","3010","Population - Est. & Proj.","2019","2019","1000 persons","630.396","X","Figure from international organizations",""
"OA","Annual population","500","Montserrat","511","Total Population - Both sexes","3010","Population - Est. & Proj.","2019","2019","1000 persons","4.505","X","Figure from international organizations",""
"OA","Annual population","504","Morocco","511","Total Population - Both sexes","3010","Population - Est. & Proj.","2019","2019","1000 persons","36304.408","X","Figure from international organizations",""
"OA","Annual population","508","Mozambique","511","Total Population - Both sexes","3010","Population - Est. & Proj.","2019","2019","1000 persons","30285.595","X","Figure from international organizations",""
"OA","Annual population","104","Myanmar","511","Total Population - Both sexes","3010","Population - Est. & Proj.","2019","2019","1000 persons","53040.212","X","Figure from international organizations",""
"OA","Annual population","516","Namibia","511","Total Population - Both sexes","3010","Population - Est. & Proj.","2019","2019","1000 persons","2446.644","X","Figure from international organizations",""
"OA","Annual population","520","Nauru","511","Total Population - Both sexes","3010","Population - Est. & Proj.","2019","2019","1000 persons","12.132","X","Figure from international organizations",""
"OA","Annual population","524","Nepal","511","Total Population - Both sexes","3010","Population - Est. & Proj.","2019","2019","1000 persons","28832.496","X","Figure from international organizations",""
"OA","Annual population","528","Netherlands","511","Total Population - Both sexes","3010","Population - Est. & Proj.","2019","2019","1000 persons","17363.262","X","Figure from international organizations",""
"OA","Annual population","540","New Caledonia","511","Total Population - Both sexes","3010","Population - Est. & Proj.","2019","2019","1000 persons","285.374","X","Figure from international organizations",""
"OA","Annual population","554","New Zealand","511","Total Population - Both sexes","3010","Population - Est. & Proj.","2019","2019","1000 persons","4959.034","X","Figure from international organizations",""
"OA","Annual population","558","Nicaragua","511","Total Population - Both sexes","3010","Population - Est. & Proj.","2019","2019","1000 persons","6663.924","X","Figure from international organizations",""
"OA","Annual population","562","Niger","511","Total Population - Both sexes","3010","Population - Est. & Proj.","2019","2019","1000 persons","23443.393","X","Figure from international organizations",""
"OA","Annual population","566","Nigeria","511","Total Population - Both sexes","3010","Population - Est. & Proj.","2019","2019","1000 persons","203304.492","X","Figure from international organizations",""
"OA","Annual population","570","Niue","511","Total Population - Both sexes","3010","Population - Est. & Proj.","2019","2019","1000 persons","1.921","X","Figure from international organizations",""
"OA","Annual population","807","North Macedonia","511","Total Population - Both sexes","3010","Population - Est. & Proj.","2019","2019","1000 persons","2114.176","X","Figure from international organizations",""
"OA","Annual population","580","Northern Mariana Islands","511","Total Population - Both sexes","3010","Population - Est. & Proj.","2019","2019","1000 persons","49.858","X","Figure from international organizations",""
"OA","Annual population","578","Norway","511","Total Population - Both sexes","3010","Population - Est. & Proj.","2019","2019","1000 persons","5348.279","X","Figure from international organizations",""
"OA","Annual population","512","Oman","511","Total Population - Both sexes","3010","Population - Est. & Proj.","2019","2019","1000 persons","4602.768","X","Figure from international organizations",""
"OA","Annual population","586","Pakistan","511","Total Population - Both sexes","3010","Population - Est. & Proj.","2019","2019","1000 persons","223293.28","X","Figure from international organizations",""
"OA","Annual population","585","Palau","511","Total Population - Both sexes","3010","Population - Est. & Proj.","2019","2019","1000 persons","17.916","X","Figure from international organizations",""
"OA","Annual population","275","Palestine","511","Total Population - Both sexes","3010","Population - Est. & Proj.","2019","2019","1000 persons","4909.775","X","Figure from international organizations",""
"OA","Annual population","591","Panama","511","Total Population - Both sexes","3010","Population - Est. & Proj.","2019","2019","1000 persons","4232.532","X","Figure from international organizations",""
"OA","Annual population","598","Papua New Guinea","511","Total Population - Both sexes","3010","Population - Est. & Proj.","2019","2019","1000 persons","9542.486","X","Figure from international organizations",""
"OA","Annual population","600","Paraguay","511","Total Population - Both sexes","3010","Population - Est. & Proj.","2019","2019","1000 persons","6530.026","X","Figure from international organizations",""
"OA","Annual population","604","Peru","511","Total Population - Both sexes","3010","Population - Est. & Proj.","2019","2019","1000 persons","32824.861","X","Figure from international organizations",""
"OA","Annual population","608","Philippines","511","Total Population - Both sexes","3010","Population - Est. & Proj.","2019","2019","1000 persons","110380.804","X","Figure from international organizations",""
"OA","Annual population","616","Poland","511","Total Population - Both sexes","3010","Population - Est. & Proj.","2019","2019","1000 persons","38493.601","X","Figure from international organizations",""
"OA","Annual population","620","Portugal","511","Total Population - Both sexes","3010","Population - Est. & Proj.","2019","2019","1000 persons","10289.923","X","Figure from international organizations",""
"OA","Annual population","630","Puerto Rico","511","Total Population - Both sexes","3010","Population - Est. & Proj.","2019","2019","1000 persons","3292.887","X","Figure from international organizations",""
"OA","Annual population","634","Qatar","511","Total Population - Both sexes","3010","Population - Est. & Proj.","2019","2019","1000 persons","2807.235","X","Figure from international organizations",""
"OA","Annual population","410","Republic of Korea","511","Total Population - Both sexes","3010","Population - Est. & Proj.","2019","2019","1000 persons","51803.829","X","Figure from international organizations",""
"OA","Annual population","498","Republic of Moldova","511","Total Population - Both sexes","3010","Population - Est. & Proj.","2019","2019","1000 persons","3109.491","X","Figure from international organizations",""
"OA","Annual population","638","Réunion","511","Total Population - Both sexes","3010","Population - Est. & Proj.","2019","2019","1000 persons","949.419","X","Figure from international organizations",""
"OA","Annual population","642","Romania","511","Total Population - Both sexes","3010","Population - Est. & Proj.","2019","2019","1000 persons","19524.211","X","Figure from international organizations",""
"OA","Annual population","643","Russian Federation","511","Total Population - Both sexes","3010","Population - Est. & Proj.","2019","2019","1000 persons","145742.286","X","Figure from international organizations",""
"OA","Annual population","646","Rwanda","511","Total Population - Both sexes","3010","Population - Est. & Proj.","2019","2019","1000 persons","12835.028","X","Figure from international organizations",""
"OA","Annual population","652","Saint Barthélemy","511","Total Population - Both sexes","3010","Population - Est. & Proj.","2019","2019","1000 persons","10.48","X","Figure from international organizations",""
"OA","Annual population","654","Saint Helena, Ascension and Tristan da Cunha","511","Total Population - Both sexes","3010","Population - Est. & Proj.","2019","2019","1000 persons","5.447","X","Figure from international organizations",""
"OA","Annual population","659","Saint Kitts and Nevis","511","Total Population - Both sexes","3010","Population - Est. & Proj.","2019","2019","1000 persons","47.712","X","Figure from international organizations",""
"OA","Annual population","662","Saint Lucia","511","Total Population - Both sexes","3010","Population - Est. & Proj.","2019","2019","1000 persons","178.583","X","Figure from international organizations",""
"OA","Annual population","666","Saint Pierre and Miquelon","511","Total Population - Both sexes","3010","Population - Est. & Proj.","2019","2019","1000 persons","5.925","X","Figure from international organizations",""
"OA","Annual population","670","Saint Vincent and the Grenadines","511","Total Population - Both sexes","3010","Population - Est. & Proj.","2019","2019","1000 persons","104.924","X","Figure from international organizations",""
"OA","Annual population","663","Saint-Martin (French part)","511","Total Population - Both sexes","3010","Population - Est. & Proj.","2019","2019","1000 persons","33.121","X","Figure from international organizations",""
"OA","Annual population","882","Samoa","511","Total Population - Both sexes","3010","Population - Est. & Proj.","2019","2019","1000 persons","211.905","X","Figure from international organizations",""
"OA","Annual population","674","San Marino","511","Total Population - Both sexes","3010","Population - Est. & Proj.","2019","2019","1000 persons","34.178","X","Figure from international organizations",""
"OA","Annual population","678","Sao Tome and Principe","511","Total Population - Both sexes","3010","Population - Est. & Proj.","2019","2019","1000 persons","214.599","X","Figure from international organizations",""
"OA","Annual population","682","Saudi Arabia","511","Total Population - Both sexes","3010","Population - Est. & Proj.","2019","2019","1000 persons","35827.362","X","Figure from international organizations",""
"OA","Annual population","686","Senegal","511","Total Population - Both sexes","3010","Population - Est. & Proj.","2019","2019","1000 persons","16000.781","X","Figure from international organizations",""
"OA","Annual population","688","Serbia","511","Total Population - Both sexes","3010","Population - Est. & Proj.","2019","2019","1000 persons","7401.056","X","Figure from international organizations",""
"OA","Annual population","690","Seychelles","511","Total Population - Both sexes","3010","Population - Est. & Proj.","2019","2019","1000 persons","104.373","X","Figure from international organizations",""
"OA","Annual population","694","Sierra Leone","511","Total Population - Both sexes","3010","Population - Est. & Proj.","2019","2019","1000 persons","8046.828","X","Figure from international organizations",""
"OA","Annual population","702","Singapore","511","Total Population - Both sexes","3010","Population - Est. & Proj.","2019","2019","1000 persons","5866.405","X","Figure from international organizations",""
"OA","Annual population","534","Sint Maarten (Dutch part)","511","Total Population - Both sexes","3010","Population - Est. & Proj.","2019","2019","1000 persons","42.98","X","Figure from international organizations",""
"OA","Annual population","703","Slovakia","511","Total Population - Both sexes","3010","Population - Est. & Proj.","2019","2019","1000 persons","5453.924","X","Figure from international organizations",""
"OA","Annual population","705","Slovenia","511","Total Population - Both sexes","3010","Population - Est. & Proj.","2019","2019","1000 persons","2112.901","X","Figure from international organizations",""
"OA","Annual population","090","Solomon Islands","511","Total Population - Both sexes","3010","Population - Est. & Proj.","2019","2019","1000 persons","674.993","X","Figure from international organizations",""
"OA","Annual population","706","Somalia","511","Total Population - Both sexes","3010","Population - Est. & Proj.","2019","2019","1000 persons","15981.3","X","Figure from international organizations",""
"OA","Annual population","710","South Africa","511","Total Population - Both sexes","3010","Population - Est. & Proj.","2019","2019","1000 persons","58087.055","X","Figure from international organizations",""
"OA","Annual population","728","South Sudan","511","Total Population - Both sexes","3010","Population - Est. & Proj.","2019","2019","1000 persons","10447.666","X","Figure from international organizations",""
"OA","Annual population","724","Spain","511","Total Population - Both sexes","3010","Population - Est. & Proj.","2019","2019","1000 persons","47131.372","X","Figure from international organizations",""
"OA","Annual population","144","Sri Lanka","511","Total Population - Both sexes","3010","Population - Est. & Proj.","2019","2019","1000 persons","21649.664","X","Figure from international organizations",""
"OA","Annual population","729","Sudan","511","Total Population - Both sexes","3010","Population - Est. & Proj.","2019","2019","1000 persons","43232.093","X","Figure from international organizations",""
"OA","Annual population","740","Suriname","511","Total Population - Both sexes","3010","Population - Est. & Proj.","2019","2019","1000 persons","600.301","X","Figure from international organizations",""
"OA","Annual population","752","Sweden","511","Total Population - Both sexes","3010","Population - Est. & Proj.","2019","2019","1000 persons","10267.922","X","Figure from international organizations",""
"OA","Annual population","756","Switzerland","511","Total Population - Both sexes","3010","Population - Est. & Proj.","2019","2019","1000 persons","8575.588","X","Figure from international organizations",""
"OA","Annual population","760","Syrian Arab Republic","511","Total Population - Both sexes","3010","Population - Est. & Proj.","2019","2019","1000 persons","20098.251","X","Figure from international organizations",""
"OA","Annual population","762","Tajikistan","511","Total Population - Both sexes","3010","Population - Est. & Proj.","2019","2019","1000 persons","9337.003","X","Figure from international organizations",""
"OA","Annual population","764","Thailand","511","Total Population - Both sexes","3010","Population - Est. & Proj.","2019","2019","1000 persons","71307.763","X","Figure from international organizations",""
"OA","Annual population","626","Timor-Leste","511","Total Population - Both sexes","3010","Population - Est. & Proj.","2019","2019","1000 persons","1280.438","X","Figure from international organizations",""
"OA","Annual population","768","Togo","511","Total Population - Both sexes","3010","Population - Est. & Proj.","2019","2019","1000 persons","8243.094","X","Figure from international organizations",""
"OA","Annual population","772","Tokelau","511","Total Population - Both sexes","3010","Population - Est. & Proj.","2019","2019","1000 persons","1.752","X","Figure from international organizations",""
"OA","Annual population","776","Tonga","511","Total Population - Both sexes","3010","Population - Est. & Proj.","2019","2019","1000 persons","104.951","X","Figure from international organizations",""
"OA","Annual population","780","Trinidad and Tobago","511","Total Population - Both sexes","3010","Population - Est. & Proj.","2019","2019","1000 persons","1519.955","X","Figure from international organizations",""
"OA","Annual population","788","Tunisia","511","Total Population - Both sexes","3010","Population - Est. & Proj.","2019","2019","1000 persons","12049.314","X","Figure from international organizations",""
"OA","Annual population","792","Türkiye","511","Total Population - Both sexes","3010","Population - Est. & Proj.","2019","2019","1000 persons","83481.684","X","Figure from international organizations",""
"OA","Annual population","795","Turkmenistan","511","Total Population - Both sexes","3010","Population - Est. & Proj.","2019","2019","1000 persons","6158.42","X","Figure from international organizations",""
"OA","Annual population","796","Turks and Caicos Islands","511","Total Population - Both sexes","3010","Population - Est. & Proj.","2019","2019","1000 persons","43.08","X","Figure from international organizations",""
"OA","Annual population","798","Tuvalu","511","Total Population - Both sexes","3010","Population - Est. & Proj.","2019","2019","1000 persons","10.956","X","Figure from international organizations",""
"OA","Annual population","800","Uganda","511","Total Population - Both sexes","3010","Population - Est. & Proj.","2019","2019","1000 persons","42949.08","X","Figure from international organizations",""
"OA","Annual population","804","Ukraine","511","Total Population - Both sexes","3010","Population - Est. & Proj.","2019","2019","1000 persons","44211.094","X","Figure from international organizations",""
"OA","Annual population","784","United Arab Emirates","511","Total Population - Both sexes","3010","Population - Est. & Proj.","2019","2019","1000 persons","9211.657","X","Figure from international organizations",""
"OA","Annual population","826","United Kingdom of Great Britain and Northern Ireland","511","Total Population - Both sexes","3010","Population - Est. & Proj.","2019","2019","1000 persons","66778.659","X","Figure from international organizations",""
"OA","Annual population","834","United Republic of Tanzania","511","Total Population - Both sexes","3010","Population - Est. & Proj.","2019","2019","1000 persons","59872.579","X","Figure from international organizations",""
"OA","Annual population","840","United States of America","511","Total Population - Both sexes","3010","Population - Est. & Proj.","2019","2019","1000 persons","334319.671","X","Figure from international organizations",""
"OA","Annual population","850","United States Virgin Islands","511","Total Population - Both sexes","3010","Population - Est. & Proj.","2019","2019","1000 persons","100.826","X","Figure from international organizations",""
"OA","Annual population","858","Uruguay","511","Total Population - Both sexes","3010","Population - Est. & Proj.","2019","2019","1000 persons","3428.409","X","Figure from international organizations",""
"OA","Annual population","860","Uzbekistan","511","Total Population - Both sexes","3010","Population - Est. & Proj.","2019","2019","1000 persons","32976.948","X","Figure from international organizations",""
"OA","Annual population","548","Vanuatu","511","Total Population - Both sexes","3010","Population - Est. & Proj.","2019","2019","1000 persons","304.404","X","Figure from international organizations",""
"OA","Annual population","862","Venezuela (Bolivarian Republic of)","511","Total Population - Both sexes","3010","Population - Est. & Proj.","2019","2019","1000 persons","28971.683","X","Figure from international organizations",""
"OA","Annual population","704","Viet Nam","511","Total Population - Both sexes","3010","Population - Est. & Proj.","2019","2019","1000 persons","95776.716","X","Figure from international organizations",""
"OA","Annual population","876","Wallis and Futuna Islands","511","Total Population - Both sexes","3010","Population - Est. & Proj.","2019","2019","1000 persons","11.714","X","Figure from international organizations",""
"OA","Annual population","732","Western Sahara","511","Total Population - Both sexes","3010","Population - Est. & Proj.","2019","2019","1000 persons","544.876","X","Figure from international organizations",""
"OA","Annual population","887","Yemen","511","Total Population - Both sexes","3010","Population - Est. & Proj.","2019","2019","1000 persons","31546.691","X","Figure from international organizations",""
"OA","Annual population","894","Zambia","511","Total Population - Both sexes","3010","Population - Est. & Proj.","2019","2019","1000 persons","18380.477","X","Figure from international organizations",""
"OA","Annual population","716","Zimbabwe","511","Total Population - Both sexes","3010","Population - Est. & Proj.","2019","2019","1000 persons","15354.608","X","Figure from international organizations",""
