Item,Calories,Protein,Calcium,Iron ,Magnesium ,Phosphorus,Potassium ,Sodium,Zinc,Copper,Vitamin A ,Retinol ,VitaminD ,VitaminE,Thiamin,Riboflavin,NiacinEquiv,NiacinPreformed ,NiacinFromTryptophan ,VitaminB6 ,Folate ,VitaminB12
Wheat,,,,,,,,,,,,,,,,,,,,,,0
Barley,,,,,,,,,,,,,,,,,,,,,,0
Maize,,,52.20666667,4.9,150.97,306,284,16.39,3.02,0.53,0.416666667,0,0,0.72,0.49,0.17,6.2,3.8,2.4,0.407,29,0
Rye,,,26,5.45,133,264,452,4,2.77,0.498,1.083333333,0,0,0.9,0.47,0.2,7.8,5.2,2.6,0.318,34,0
Oats,,,7,2.38,93,272,315,5,1.73,0.23,0,0,0,0.42,0.246,0.08,2.633,1.9,0.733,0.37,25,0
Millet,,,42,8,137,296,307,10.9,3.1,1.06,0,0,0,0.05,0.33,0.16,2.3,2.3,0,0.384,85,0
Sorghum,,,52.20666667,4.9,150.97,306,284,16.39,3.02,0.53,0.416666667,0,0,0.72,0.49,0.17,6.2,3.8,2.4,0.407,29,0
"Cereals, Other",,,42,8,137,296,307,10.9,3.1,1.06,0,0,0,0.05,0.33,0.16,2.3,2.3,0,0.384,85,0
Potatoes,,,25,5.8,290,222,350,6,1.6,0.46,0,0,0,1.1,0.21,0.13,2.9,2.927,0,0.25,20,0
Cassava,,,52.20666667,4.9,150.97,306,284,16.39,3.02,0.53,0.416666667,0,0,0.72,0.49,0.17,6.2,3.8,2.4,0.407,29,0
"Roots, Other",,,11.463,0.506625,20.556,40,286.28,16.306,0.79,0.430024246,2.2625,0,0,0.02,0.081,0.093,0.8,0.4,0.4,0.277292,18,0
Yams,,,25.14833333,1.04,27,44.1,218.8,22.425,0.14,0.105,3.25,0,0,0.26,0.06,0.02,0.8,0.5,0.3,0.209,11,0
Sugar cane,,,11.463,0.506625,20.556,40,286.28,16.306,0.79,0.430024246,2.2625,0,0,0.02,0.081,0.093,0.8,0.4,0.4,0.277292,18,0
Sugar beet,,,21.0426009,0.932735426,18.61547085,36.41367713,316.4394619,10.38565022,0.343455157,0.180313901,2.662556054,0,0,0.515695067,0.1,0.031569507,0.632286996,0.464125561,0.168161435,0.246356502,16,0
Sugar non-centrifugal,,,92,1.6,120,72,290,79,0.1,0.75,0,0,0,0,0,0.04,0,0,0,0,0,0
Sugar (Raw Equivalent),,,92,1.6,120,72,290,79,0.1,0.75,0,0,0,0,0,0.04,0,0,0,0,0,0
"Sweeteners, Other",,,12,0.16,2,1,5,5,0.1,0.12,0,0,0,0,0,0,0,0,0,0,0,0
Beans,,,12,0.16,2,1,5,5,0.1,0.12,0,0,0,0,0,0,0,0,0,0,0,0
Peas,,,12,0.16,2,1,5,5,0.1,0.12,0,0,0,0,0,0,0,0,0,0,0,0
"Pulses, Other",,,50,1.4,38,95,250,50,0.58,0.074,8.475,0,0,0.276,0.08,0.11,2.43,1.5,0.93,0.038,96,0
Nuts,,,75,4.8,101.94,298,709,21.2,3.489,1.29,3.213541667,0,0,1.04,0.47,0.13,5.5,2.5,3,0.075,33,0
Soyabeans,,,23,5.1,71.533,261,635,37,3.886052966,0.794318171,2.832,0,0,0.37,0.767,0.13,6.288597333,2,4.288597333,0.335727,36,0
Groundnuts (Shelled Eq),,,50,5,292,593,660,12,5.78,2.195,0.738938053,0.238938053,0,0.85,0.63,0.19,5.7,1.2,4.5,0.417,25,0
Sunflower seed,,,240.565,11.34,207,691.13,1530,5,5.7,1.25,1.083333333,0,0,2.9,0.73,0.5,7.9,2.2,5.7,0.417,100,0
Rape and Mustardseed,,,75.5,2.87,189,403,687.5,10,3.385,1.082,0,0,0,10.09,0.77,0.121666667,18.433,12.933,5.5,0.348,175,0
Coconuts - Incl Copra,,,78,5.25,325,660,645,9,5,1.8,1.95002591,0,0,35.22867021,1.48,0.355,9.1,4.1,5,1.345,227,0
Sesame seed,,,256.9302227,8.895967487,357.3841444,799.767761,712.8364826,12.55674021,5.872690805,0.623007495,1.44885464,0,0,5.07,0.65,0.26,8.170801343,4.571619339,3.599182004,0.383463528,156.4763011,0
Palm kernels,,,31.5,4.7,90,185,660,28,0.9,0.775,0,0,0,1.26,0.063333333,0.023333333,2.9,0.9,1.1,0.09,12.75,0
Olives (including preserved),,,969,10.5,348.7535411,624.9742944,465.0047214,10.92959815,7.700398699,4.055874515,0,0,0,2,0.79,0.34,12.15743243,4.44952183,7.707910603,0.78,97,0
"Oilcrops, Other",,,43,0.5,0,20,0,0,0,0,0,0,0,0,0.01,0.01,0.2,0.2,0,0,0,0
Soyabean Oil,,,0,0,0,0,0,0,0,0,0,0,0,1.4,0,0,0,0,0,0,0,0
Groundnut Oil,,,0,0,0,0,0,0,0,0,0,0,0,1.4,0,0,0,0,0,0,0,0
Sunflowerseed Oil,,,0,0.05,0,0,0,0,0.01,0,0,0,0,16.06,0,0,0,0,0,0,0,0
Rape and Mustard Oil,,,0,0.03,0,0,0,0,0.01,0,0,0,0,15.16,0,0,0,0,0,0,0,0
Cottonseed Oil,,,0,0,0,0,0,0,0,0,0,0,0,1.4,0,0,0,0,0,0,0,0
Palmkernel Oil,,,0,0,0,0,0,0,0,0,0,0,0,0,0,0,0,0,0,0,0,0
Palm Oil,,,0,0,0,0,0,0,0,0,0,0,0,42.77,0,0,0,0,0,0,0,0
Coconut Oil,,,0,0.01,0,0,0,0,0,0,0,0,0,33.12,0,0,0,0,0,0,0,0
Sesameseed Oil,,,0,0.01,0,0,0,0,0,0,0,0,0,33.12,0,0,0,0,0,0,0,0
Olive Oil,,,0,0,0,0,0,0,0,0,0,0,0,1.4,0,0,0,0,0,0,0,0
Maize Germ Oil,,,0,0,0,0,0,0,0,0,0,0,0,1.4,0,0,0,0,0,0,0,0
"Oilcrops Oil, Other",,,0,0,0,0,0,0,0,0,0,0,0,1.4,0,0,0,0,0,0,0,0
Tomatoes,,,0,0,0,0,0,0,0,0,0,0,0,1.4,0,0,0,0,0,0,0,0
Onions,,,0,0,0,0,0,0,0,0,0,0,0,1.4,0,0,0,0,0,0,0,0
"Vegetables, Other",,,12.952,0.197210789,7.418,24,156.31,6.797,0.41,0.971791012,8.654416667,0,0,0.54,0.038,0.043,0.6,0.5,0.1,0.0485,15,0
"Oranges, Mandarines",,,23.969,0.941617526,24.121,29,209.749,11.119,0.41,0.363210525,1.898,0,0,0.02,0.045,0.136,0.346,0.116,0.23,0.168068,19,0
"Lemons, Limes",,,111.17,2.200276667,179,31,186.955,69.37,0.349776667,0.063096667,169.5,0,0,0,0.02,0.36,0.5,0.5,0,0.24,140,0
Grapefruit,,,23.415,0.2435,17,25,131.95,4.5,0.066,0.034,18.68055556,0,0,0.24,0.04,0.01,0.5,0.4,0.1,0.082,30,0
"Citrus, Other",,,65,0.3,11,10,377,2,0.07,0.06,3.75,0,0,0.8,0.02,0.03,0.1815,0.14,0.0415,0.0515,17,0
Bananas,,,23.415,0.2435,17,25,131.95,4.5,0.066,0.034,18.68055556,0,0,0.24,0.04,0.01,0.5,0.4,0.1,0.082,30,0
Plantains,,,23.415,0.2435,17,25,131.95,4.5,0.066,0.034,18.68055556,0,0,0.24,0.04,0.01,0.5,0.4,0.1,0.082,30,0
Apples,,,11.341,0.285784177,22.957,36,410.681,9.869,0.235235714,0.094584975,1.786833333,0,0,0.7542,0.05,0.08,0.9,0.7,0.2,0.1048,20,0
Pineapples,,,22,0.6,28.45222222,20.50666667,241.5888889,4,0.14,0.081,56.33333333,0,0,0.14,0.09,0.06,0.9,0.7,0.2,0.299,22,0
Dates,,,6,0.12,5,11,107,1,0.04,0.027,2.708333333,0,0,0.18,0.085666667,0.028666667,0.1,0.1,0,0.041,3,0
Grapes,,,17.88333333,0.6674,31.53333333,9.1,175.4,12.98333333,0.2215,0.124,5.091666667,0,0,0.1,0.2,0.12,0.4,0.3,0.1,0.09,12.1,0
"Fruits, Other",,,22,0.96,12,38,410,7,0.2,0.12,1.5,0,0,0.05,0.06,0.07,1.4,0.7,0.7,0,25,0
Coffee,,,22,0.5,82,30,191,2,0.07,0.127,2.75,0,0,0.4,0.1,0.06,0.28250625,0.2315625,0.05094375,0.06175,7.71875,0
Cocoa Beans,,,14,0.5,15,20.35,205,1.4,0.87,0.173,292.0508333,0,0,1.12,0.028,0.038,0.6,0.5,0.133,0.134,71,0
Tea (including mate),,,141,4.41,327,303,3540,37,0.35,0.139,0,0,0,0,0.008,0.074,28.2,28.173,0,0.029,0,0
Pepper,,,141,4.41,327,303,3540,37,0.35,0.139,0,0,0,0,0.008,0.074,28.2,28.173,0,0.029,0,0
Pimento,,,118,2.26,272,239,6040,72,1.69,0.55,0,0,0,0,0,0.985,10.8,10.8,0,0.356,103,0
Cloves,,,442.5,16.6525,185,167,1280,36,1.336666667,1.196666667,27.375,0,0,0.72,0.109,0.2,1.1,1.127666667,0,0.34,13.5,0
"Spices, Other",,,740,4.9,214.9472983,86.31088428,846.5105958,229.8857206,1.925396649,0.305407744,5.505448718,0,0,6.04,0.08,0.13,1.3,1.294663264,0,0.324495728,20.74780872,0
Wine,,,740,4.9,214.9472983,86.31088428,846.5105958,229.8857206,1.925396649,0.305407744,5.505448718,0,0,6.04,0.08,0.13,1.3,1.294663264,0,0.324495728,20.74780872,0
Beer,,,740,4.9,214.9472983,86.31088428,846.5105958,229.8857206,1.925396649,0.305407744,5.505448718,0,0,6.04,0.08,0.13,1.3,1.294663264,0,0.324495728,20.74780872,0
"Beverages, Fermented",,,0,0,0,0,0,0,0,0,0,0,0,0,0,0,0,0,0,0,0,0
"Beverages, Alcoholic",,,0,0,0,0,0,0,0,0,0,0,0,0,0,0,0,0,0,0,0,0
Infant food,,,0,0,0,0,0,0,0,0,0,0,0,0,0,0,0,0,0,0,0,0
Bovine Meat,,,0,0,0,0,0,0,0,0,0,0,0,0,0,0,0,0,0,0,0,1.41
Mutton & Goat Meat,,,0,0,0,0,0,0,0,0,0,0,0,0,0,0,0,0,0,0,0,1.19
Pigmeat,,,5,2.2,22,170,309,69,4.6,0.071,15,15,0.6,0.35,0.054,0.196,9.27,5.6,3.67,0.32,9.037313433,0.52
Poultry Meat,,,12.5,2.165,18.59,150,136.25,41.25,3.92,0.07625,9,9,0.2,0.309836066,0.18,0.14,4.14375,2.6875,1.45625,0.125,5.8,0.31
"Meat, Other",,,30,2.2,17.82334385,200,260.9337539,59.88643533,2.566561514,0.071293375,0,0,0.04,0,0.534700315,0.163974763,5.204416404,2.709148265,2.495268139,0.310839117,1.069400631,0.52
"Offals, Edible",,,14.784,0.480208333,31.905,173,315.27,36.894,1.703162184,0.058615322,25.152,25.152,0.059253247,0.12,0.122,0.073,11.4,6.5,4.9,0.314843,7,0.52
"Fats, Animals, Raw",,,12,1.61,32,189,297,53,1.93,0.151,0,0,0.08028169,0.046830986,0.04,0.2,6,5.97,0,0.53,8,0
"Butter, Ghee",,,83,0.754,36.6,133.9466667,146,62.60079153,0.27,0.053,0.961012312,0.961012312,0,0,0.063687772,0.073187603,3.9,1,2.9,0.215100943,0,0.17
Cream,,,10,0.06,1.9,10,52,504,0.05,0.01,810,780,0,0,0,0,0,0,0,0,0,0.21
Eggs,,,1,0.201,0,0,0.95,2,0.011,0.005,641.6666667,600,1.9,3.31,0,0,0,0,0,0,0,0.89
Honey,,,205.8,0.16,18.25,245.75,178,52,0.22,0.046,46.5,44,0,0,0.046,0.2175,0.1,0.091,0,0.023,6,0
Freshwater Fish,,,29,1.54,20.88,220,110.427,115.956,2.355250176,0.301144772,165.246,165.246,1.892744479,0.83,0.184,0.4,3.770546667,0.1,3.670546667,0.149231,50,1.58
Demersal Fish,,,5.333333333,0.53,2.3,9.4,51.33333333,8.666666667,0.49,0.039,0,0,0,0,0,0.057,0.157333333,0.140333333,0.017,0.16,1,0.91
Pelagic Fish,,,380,0.7,36,180,271.315,84,0.230666667,0.06,0,0,0,0,0.072502259,0.083316881,0.5,0.5,0,0.244871249,0,1.9
"Marine Fish, Other",,,19.3,0.494353613,35.879,350,340.51,55.065,1.4,0.113781256,2.033,2.033,5.516176471,0.71,0.97,0.088,8.026843833,3.1,4.926843833,0.110702,24,1.53
Crustaceans,,,16,1.278571429,33,311.5128571,427.3042857,47,0.268571429,0.15,30.91371994,30.91371994,3.122608696,0,0.19,0.13,19.31412704,14.65370496,4.660422078,0.85,8.643303875,1.11
Cephalopods,,,38.17769558,0.902920524,40.86666667,164.3992376,267.4908475,50.19438373,0.273333333,0.020913333,5.951194698,5.951194698,2.123105983,0.690506549,0.07,0.087135138,4.9,0.702191254,4.2,0.196,15.99080993,1.3
"Molluscs, Other",,,30.95694577,1.285903901,15.08158896,157.1660324,36.51332065,477.0544719,0.404821598,0.042069696,144.84375,144.84375,0,1.09,0.011906518,0.031750714,5.8312357,1.397696335,4.172033333,0.007937678,3.968839201,1.11
"Aquatic Animals, Others",,,303.6,0.547306379,40.7,922,544.5,196.1,2.25,0.519,0,0,0,0,0,0,0,0,0,0,0,1.11
Aquatic Plants,,,30.95694577,1.285903901,15.08158896,157.1660324,36.51332065,477.0544719,0.404821598,0.042069696,144.84375,144.84375,0,1.09,0.011906518,0.031750714,5.8312357,1.397696335,4.172033333,0.007937678,3.968839201,0
"Fish, Body Oil",,,303.6,0.547306379,40.7,922,544.5,196.1,2.25,0.519,0,0,0,0,0,0,0,0,0,0,0,0
"Fish, Liver Oil",,,31,1.899,26.68,52,230,49,0.5181,0.0186,530,0,0,1.46,0.04,0.16,0.967,0.6,0.367,0.129,45,0
Rice (Milled Equivalent),,,1.15,0.074,0.08,0,0,0.02,0.06,0.007,2500,30000,250,30,0,0,0,0,0,0,0,0
Milk - Excluding Butter,,,1.15,0.074,0.08,0,0,0.02,0.06,0.007,2500,30000,250,30,0,0,0,0,0,0,0,0.45
"Alcohol, Non-Food",,,8.687,0.650884308,43,126,145.601,1.967,1.317741864,0.198540202,0,0,0,0.11,0.21,0.05,4.6296425,3.8,0.8296425,0.167879,11,0
Cottonseed,,,103,0.089156288,13,90,131.164,51.155,0.451893443,0.05354514,31.53942857,30.177,0,0.076717949,0.062,0.276,0.7544,0.2,0.5544,0.053,8.5,0
Ricebran Oil,,,0,0,0,0,0,0,0,0,0,0,0,0,0,0,0,0,0,0,0,0
"Meat, Aquatic Mammals",,,0,0,0,0,0,0,0,0,0,0,0,0,0,0,0,0,0,0,0,0
Starchy Roots,,,0,0,0,0,0,0,0,0,0,0,0,0,0,0,0,0,0,0,0,0
Sugar Crops,,,52.20666667,4.9,150.97,306,284,16.39,3.02,0.53,0.416666667,0,0,0.72,0.49,0.17,6.2,3.8,2.4,0.407,29,0
Sugar & Sweeteners,,,11.463,0.506625,20.556,40,286.28,16.306,0.79,0.430024246,2.2625,0,0,0.02,0.081,0.093,0.8,0.4,0.4,0.277292,18,0
Pulses,,,11.463,0.506625,20.556,40,286.28,16.306,0.79,0.430024246,2.2625,0,0,0.02,0.081,0.093,0.8,0.4,0.4,0.277292,18,0
Treenuts,,,12,0.16,2,1,5,5,0.1,0.12,0,0,0,0,0,0,0,0,0,0,0,0
Oilcrops,,,23,5.1,71.533,261,635,37,3.886052966,0.794318171,2.832,0,0,0.37,0.767,0.13,6.288597333,2,4.288597333,0.335727,36,0
Vegetable Oils,,,50,5,292,593,660,12,5.78,2.195,0.738938053,0.238938053,0,0.85,0.63,0.19,5.7,1.2,4.5,0.417,25,0
Vegetables,,,78,5.25,325,660,645,9,5,1.8,1.95002591,0,0,35.22867021,1.48,0.355,9.1,4.1,5,1.345,227,0
Stimulants,,,111.17,2.200276667,179,31,186.955,69.37,0.349776667,0.063096667,169.5,0,0,0,0.02,0.36,0.5,0.5,0,0.24,140,0
Spices,,,14,0.5,15,20.35,205,1.4,0.87,0.173,292.0508333,0,0,1.12,0.028,0.038,0.6,0.5,0.133,0.134,71,0
Alcoholic Beverages,,,0,0,0,0,0,0,0,0,0,0,0,0,0,0,0,0,0,0,0,0
Meat,,,740,4.9,214.9472983,86.31088428,846.5105958,229.8857206,1.925396649,0.305407744,5.505448718,0,0,6.04,0.08,0.13,1.3,1.294663264,0,0.324495728,20.74780872,0
Offals,,,0,0,0,0,0,0,0,0,0,0,0,0,0,0,0,0,0,0,0,0
Animal fats,,,14.784,0.480208333,31.905,173,315.27,36.894,1.703162184,0.058615322,25.152,25.152,0.059253247,0.12,0.122,0.073,11.4,6.5,4.9,0.314843,7,0
"Fish, Seafood",,,83,0.754,36.6,133.9466667,146,62.60079153,0.27,0.053,0.961012312,0.961012312,0,0,0.063687772,0.073187603,3.9,1,2.9,0.215100943,0,1.11
"Aquatic Products, Other",,,10,0.06,1.9,10,52,504,0.05,0.01,810,780,0,0,0,0,0,0,0,0,0,0
Molasses,,,16,1.278571429,33,311.5128571,427.3042857,47,0.268571429,0.15,30.91371994,30.91371994,3.122608696,0,0.19,0.13,19.31412704,14.65370496,4.660422078,0.85,8.643303875,0
Brans,,,30.95694577,1.285903901,15.08158896,157.1660324,36.51332065,477.0544719,0.404821598,0.042069696,144.84375,144.84375,0,1.09,0.011906518,0.031750714,5.8312357,1.397696335,4.172033333,0.007937678,3.968839201,0
Cotton lint,,,92,1.6,120,72,290,79,0.1,0.75,0,0,0,0,0,0.04,0,0,0,0,0,0
Jute,,,58.5,18.52,994.2,1379,1155,5,6.04,0.728,0,0,0,4.92,2.264333333,0.218666667,41.796,38.626,3.17,4.07,63,0
Jute-Like Fibres,,,0,0,0,0,0,0,0,0,0,0,0,0,0,0,0,0,0,0,0,0
"Hard Fibres, Other",,,0,0,0,0,0,0,0,0,0,0,0,0,0,0,0,0,0,0,0,0
Tobacco,,,0,0,0,0,0,0,0,0,0,0,0,0,0,0,0,0,0,0,0,0
Rubber,,,0,0,0,0,0,0,0,0,0,0,0,0,0,0,0,0,0,0,0,0
Rice (Paddy Equivalent),,,0,0,0,0,0,0,0,0,0,0,0,0,0,0,0,0,0,0,0,0
Roots & Tuber Dry Equiv,,,0,0,0,0,0,0,0,0,0,0,0,0,0,0,0,0,0,0,0,0
"Sugar, Refined Equiv",,,8.687,0.650884308,43,126,145.601,1.967,1.317741864,0.198540202,0,0,0,0.11,0.21,0.05,4.6296425,3.8,0.8296425,0.167879,11,0
Groundnuts (in Shell Eq),,,11.463,0.506625,20.556,40,286.28,16.306,0.79,0.430024246,2.2625,0,0,0.02,0.081,0.093,0.8,0.4,0.4,0.277292,18,0
"Sugar, Raw Equivalent",,,12,0.16,2,1,5,5,0.1,0.12,0,0,0,0,0,0,0,0,0,0,0,0