﻿Reporter Name,Partner Name,Trade Flow,Product Group,Indicator,1988,1989,1990,1991,1992,1993,1994,1995,1996,1997,1998,1999,2000,2001,2002,2003,2004,2005,2006,2007,2008,2009,2010,2011,2012,2013,2014,2015,2016,2017,2018,2019,2020
Afghanistan, World,Import,Vegetable,AHS Weighted Average (%),,,,,,,,,,,,,,,,,,,,,3.094563898,,,,4.545316955,4.545316955,,,,,4.588596881,,
Albania, World,Import,Vegetable,AHS Weighted Average (%),,,,,,,,,,11.45396273,,,8.714215191,8.554074202,7.067464438,6.413992427,5.500952381,5.630908498,5.457560646,5.074465253,3.702099251,5.346798193,5.35088386,2.595679476,2.774090127,3.148522751,2.443930616,1.690104032,2.032208932,2.570065714,1.975090585,1.975090585,2.158324047
Algeria, World,Import,Vegetable,AHS Weighted Average (%),,,,,,11.79544246,,,,12.61470963,14.93637292,,,8.505640224,10.76513355,8.453163107,,8.180955185,8.924599295,8.687908185,7.206057031,8.275288243,,,,,9.770696721,10.48161258,10.73375486,9.703165539,,,
Angola, World,Import,Vegetable,AHS Weighted Average (%),,,,,,,,,,,,,,,,,,,,,,8.05554223,8.015319579,8.196817644,8.187178021,8.382605573,14.76616849,14.13666173,14.13666173,,2.692583587,2.765448055,
Antigua and Barbuda, World,Import,Vegetable,AHS Weighted Average (%),,,,,,,,,,,,30.78701151,21.44134873,,,,,24.07266661,17.75124048,17.40377404,,23.15447624,27.80017972,27.80017972,20.38860863,18.45852644,18.08377057,19.06061589,18.09535315,10.17448584,21.55865918,20.01886403,
Argentina, World,Import,Vegetable,AHS Weighted Average (%),,,,,,4.595162283,,4.754585014,7.688386734,6.672739958,9.411707745,6.059695769,7.010853599,6.404118241,8.137575053,6.880408377,2.449074872,2.059321092,1.70160017,1.032557686,0.730289447,1.422955468,2.354185219,2.480749825,2.449410713,2.402164207,3.506220692,3.758938578,2.564343084,1.964291955,2.278865899,2.037434189,0.946337003
Armenia, World,Import,Vegetable,AHS Weighted Average (%),,,,,,,,,,,,,,4.841394542,,4.222837223,3.926046074,5.1062028,3.376499804,4.633515926,3.643111938,5.381173983,5.651190837,5.90579788,2.920390699,2.833872956,2.955786551,1.442994665,0.7763867,1.346695281,,1.810119901,1.722496751
Aruba, World,Import,Vegetable,AHS Weighted Average (%),,,,,,,,,,,,,,,,,,,,,,,,0.822510296,0.853309105,0.853309105,,0.790853214,0.880497731,0.782949354,0.774513092,0.774513092,
Australia, World,Import,Vegetable,AHS Weighted Average (%),,,,12.05751104,,1.4430878,,,0.761890232,0.730133699,0.708391336,0.681815828,0.687107359,0.768753657,0.733148612,0.729949177,0.739699075,0.711102055,0.424778686,0.551268503,0.653143977,0.824025867,0.427098573,0.427370642,0.406043641,0.424661915,0.460861458,0.493762356,0.319430556,0.361754879,0.36791893,0.355804384,0.382497744
Austria, World,Import,Vegetable,AHS Weighted Average (%),,,,,,,,,,,,,12.07035719,14.39425076,13.19755739,13.34323201,4.123374525,14.17812396,7.018131334,4.930226134,4.71493272,4.996959363,4.306920063,4.768219435,5.046587806,4.460037671,4.397520388,4.378521909,4.515595008,4.201157549,3.590002782,2.82699106,1.604669093
Azerbaijan, World,Import,Vegetable,AHS Weighted Average (%),,,,,,,,,,,,,,,7.12347399,,,2.856834529,,1.330248629,1.34652527,1.723637323,,2.512380598,2.121003559,2.12002121,1.471371066,1.468953564,,,,3.796841401,4.079346564
"Bahamas, The", World,Import,Vegetable,AHS Weighted Average (%),,,,,,,,,,,,16.43458528,,,14.91988444,,,,15.44016247,,,,10.89244428,9.114413646,,7.285211934,7.281041279,5.821798245,5.216532851,,6.116355311,,
Bahrain, World,Import,Vegetable,AHS Weighted Average (%),,,,,,,,,,,,,6.59626785,5.476517333,1.183026101,1.267478006,1.433173554,0.855535592,0.80507806,0.758734747,0.672873376,0.772012845,1.189474595,0.787245596,0.787245596,1.018463178,0.819582196,0.744025989,0.824746491,1.092923625,0.839457986,0.882999073,
Bangladesh, World,Import,Vegetable,AHS Weighted Average (%),,47.84911451,,,,,,,,,14.14052481,,12.3059278,13.57607402,12.48917297,17.7627327,9.467487084,6.644597602,6.113139513,5.702751457,3.96318492,2.661367042,2.550857746,2.731561402,7.323662767,6.882902024,,4.850190809,,,,,
Barbados, World,Import,Vegetable,AHS Weighted Average (%),,,,,,,,,,,,24.79263131,24.11775268,33.65551109,35.91844133,38.04230278,21.35509955,,24.11806721,24.13336484,,,19.89525096,18.60858364,14.65294248,17.72824253,,,,,,,23.13125375
Belarus, World,Import,Vegetable,AHS Weighted Average (%),,,,,,,,,,,,,7.074299783,9.120604466,8.748381337,,,,,,3.677292489,3.915544178,3.800947292,4.123009952,3.423452564,4.351237852,4.70346243,3.984845597,3.433660218,3.608447366,2.906172451,2.914757893,2.974846625
Belgium, World,Import,Vegetable,AHS Weighted Average (%),,,,,,,,,,,,,15.62077197,19.04553835,15.83342275,17.65412849,5.710354519,15.59699732,7.417133943,6.479464459,5.500180187,4.779640171,4.009946164,3.702309294,4.389783953,3.907785576,3.770586846,3.644539773,3.262734446,2.931081176,2.861717452,2.491085379,1.588039999
Belize, World,Import,Vegetable,AHS Weighted Average (%),,,,,,,,,15.3582036,,,27.07410275,,8.328373798,8.59270064,8.303741244,,,8.837554725,8.559882006,6.31847693,8.097486449,8.123818752,4.986778844,4.94878872,4.698790965,4.698790965,4.627847261,3.985447465,3.936924289,4.194251962,4.184438372,4.150665468
Benin, World,Import,Vegetable,AHS Weighted Average (%),,,,,,,,,,,,,,13.07087774,12.43295933,12.98280751,12.98280751,12.98280751,10.68733349,10.82971417,10.82971417,10.82971417,10.82971417,10.82971417,10.82971417,10.82971417,10.42114252,11.87971682,11.4771761,18.84466334,14.48673615,11.26254121,11.26254121
Bermuda, World,Import,Vegetable,AHS Weighted Average (%),,,,,,,,,,,,,,,,,,,,5.662144874,5.662144874,5.662144874,5.662144874,5.411107367,5.245327034,5.222840156,5.202137723,5.212802084,5.150825666,5.223003246,4.704363247,4.704363247,4.460443791
Bhutan, World,Import,Vegetable,AHS Weighted Average (%),,,,,,,,,,,,,,,,,,50.34116643,,51.75589509,,,,,,,,,,,,,
Bolivia, World,Import,Vegetable,AHS Weighted Average (%),,,,,,10,10,10,10,10,10,10,9.990748563,9.987861426,10.02188283,10,5.830522829,5.06060047,4.507765907,4.871429616,4.43414915,3.212001518,2.294351013,0.732792766,0.715250656,3.064291416,3.057025971,0.85471184,0.853835052,1.848235881,1.015548721,1.015548721,1.046464514
Bosnia and Herzegovina, World,Import,Vegetable,AHS Weighted Average (%),,,,,,,,,,,,,,,,,,,7.795790904,6.107905675,6.175908321,3.948177587,3.770033155,3.94379181,3.565025519,3.625167148,3.434240218,1.248064771,1.195415073,3.739652896,3.689568925,3.567098175,3.396617586
Botswana, World,Import,Vegetable,AHS Weighted Average (%),,,,,,,,,,,,,,2.060203424,0.335274838,,0.204684977,0.263223722,0.20478901,0.063426042,0.154524948,0.201088781,0.263866301,0.299283654,0.16993881,0.033960866,0.073336517,0.026659095,0.021627853,0.437940903,0.002074129,0.003388421,0.044760451
Brazil, World,Import,Vegetable,AHS Weighted Average (%),,24.55005246,22.67426488,19.86359762,14.02568029,8.566038075,7.7080013,3.439917965,7.774520571,7.738426685,10.36749115,2.808285408,9.434099297,8.876299029,8.142231112,7.79770767,2.729898687,2.596898472,2.48951436,2.788318973,2.786388007,2.778506561,3.071975051,3.004725636,2.918704629,9.775043055,4.783584043,4.099479197,3.810902836,3.950945093,3.695898895,3.546265325,3.754836342
Brunei, World,Import,Vegetable,AHS Weighted Average (%),,,,,0.072684433,,,,,0.096108182,0.090651402,,,0.068628974,0.068900791,0.070944996,0.021157769,,0.041453915,0.011812856,0.012007822,0.064293045,0.06265664,0.009011669,,,0.007941539,,0.010585843,0.015501,0.00936485,0.010284899,0.012686147
Bulgaria, World,Import,Vegetable,AHS Weighted Average (%),,,,,,,,,,,12.5214531,11.11422638,13.58942572,13.86044149,12.2793954,16.57620216,17.5011426,16.28567514,8.015934403,6.442370276,4.945870216,4.320726977,3.500566528,2.890110813,3.426593041,3.191212849,3.691966947,3.736720525,2.583106865,3.112917325,3.433921373,2.908674459,
Burkina Faso, World,Import,Vegetable,AHS Weighted Average (%),,,,,,,,,,,,,,11.93990192,12.20699409,12.27041016,12.27041016,12.83910059,8.681620428,7.913416531,7.913416531,7.913416531,7.258520846,6.723934737,7.938754421,7.938754421,5.899367679,7.4335834,6.510997004,11.51359007,7.8976612,3.872333261,7.338106861
Burundi, World,Import,Vegetable,AHS Weighted Average (%),,,,,,,,,,,,,,,8.079672268,8.378747504,,15.55177295,5.823839518,3.264519899,3.521715025,23.69912872,21.75378147,10.16034639,12.49162202,1.487016919,9.829885863,15.28274799,10.89917435,,19.26575009,27.04734147,29.90244937
Cambodia, World,Import,Vegetable,AHS Weighted Average (%),,,,,,,,,,,,,,9.263184205,9.770041166,11.21493455,,7.919640166,8.684096304,7.24806309,7.657195811,,7.385589954,7.435258761,7.176828592,,5.209629078,,7.252309513,,,,5.204929892
Cameroon, World,Import,Vegetable,AHS Weighted Average (%),,,,,,,,15.15369064,,,,,,14.9993332,15.48433759,16.48037633,16.48037633,16.47167896,16.63417718,7.913789602,7.913789602,4.718527322,7.913789602,4.032071709,5.101187674,8.058511258,11.05654843,,,,,,
Canada, World,Import,Vegetable,AHS Weighted Average (%),,3.064278023,,,,1.963120736,,3.042639271,3.224612124,0.900702679,0.782873044,0.480908801,0.638605681,2.121327075,0.827488759,3.256828768,0.666550596,0.666479894,0.657991359,0.705313307,0.728545495,0.87363786,0.842026895,0.866024259,0.733817128,0.781676962,0.806121353,0.82570205,0.810348892,0.559984843,0.562474579,0.483876723,0.512039643
Cape Verde, World,Import,Vegetable,AHS Weighted Average (%),,,,,,,,,,,,,,,,,,7.433567656,7.287387349,7.006702365,7.006702365,6.196939579,7.005940812,6.596394529,6.627547172,6.150082456,,6.094390387,,,,6.452659472,6.312864853
Central African Republic, World,Import,Vegetable,AHS Weighted Average (%),,,,,,,,17.35965615,,19.4829689,,,,25.49148021,25.90692045,24.94807745,24.94807745,25.63225981,25.63225981,21.25862941,21.25862941,21.25862941,21.25862941,19.72064017,19.21630352,19.05879859,,16.43557979,16.43557979,16.43557979,,,
Chad, World,Import,Vegetable,AHS Weighted Average (%),,,,,,,,23.17508824,,,,,,,,,,,,,,,,,,,,,,,,,
Chile, World,Import,Vegetable,AHS Weighted Average (%),,,,,11,11,11,10.94677616,11,11,11,10,9,8,7,6,1.945216102,1.73551601,1.33792016,2.050957145,1.953037918,1.7999079,1.651719485,1.687924137,1.5607544,6,,0.37619311,6,0.365037815,0.33477654,0.275236891,0.272021411
China, World,Import,Vegetable,AHS Weighted Average (%),,,,,9.437109242,12.41079599,13.25244564,,91.7902628,81.56940407,73.65243201,66.2596025,75.40282489,79.61534567,16.64754195,13.50897265,19.95461439,7.322314217,6.143775228,5.33238343,4.393549706,4.878144737,5.14127638,5.431673965,,,5.382093772,4.77972631,4.884926231,4.960811087,4.708662781,4.785015949,5.754194585
Colombia, World,Import,Vegetable,AHS Weighted Average (%),,,,13.85647372,11.33976256,,13.80044759,12.86784721,13.56713762,13.60543446,13.73400046,14.11133423,13.85977989,13.76855648,13.51920451,13.60949391,13.02379087,12.44053039,11.20597664,12.42916055,11.29086379,8.95125818,9.524915976,7.424952998,6.789766689,7.892644258,6.886169662,17.62649339,12.79554322,5.009825602,4.019024754,3.450239074,2.425804431
Comoros, World,Import,Vegetable,AHS Weighted Average (%),,,,,,,,,,,,,,,,,,,,,3.760141811,,3.780551932,3.780551932,9.580283295,7.012575851,0.320641988,6.133590552,,0.074313015,0.219940224,0.264531705,5.581304945
"Congo, Dem. Rep.", World,Import,Vegetable,AHS Weighted Average (%),,,,,,,,,,,,,,,,,,,,,,,,,,,,,,,,10.16495113,7.904434137
"Congo, Rep.", World,Import,Vegetable,AHS Weighted Average (%),,,,,,,24.33128586,,,,,,,,,,,,,16.06304539,16.06304539,16.06304539,16.06304539,16.06304539,,20.02496122,20.02329138,11.46300272,,,,,
Cook Islands, World,Import,Vegetable,AHS Weighted Average (%),,,,,,,,,,,,,,,,,,,,,,,1.491053154,,,,,,,,,,
Costa Rica, World,Import,Vegetable,AHS Weighted Average (%),,,,,,,,9.749525634,7.917930861,7.931199362,5.778619054,5.674801135,5.560688866,7.108066644,7.117131212,5.478507029,6.110904417,8.109902711,6.388285628,6.751115438,5.921295367,3.948929833,3.797154269,3.263014341,3.091111692,3.598699204,2.918631404,,3.076712652,,2.980226865,2.7641244,2.917856471
Cote d'Ivoire, World,Import,Vegetable,AHS Weighted Average (%),,,,,,,,,5,,,,,9.664929096,9.899338543,9.899265053,10.08086428,10.15368822,10.15634298,9.914653515,9.914653515,9.84154417,9.447817539,9.31918252,9.071638564,9.071638564,9.320497283,10.32748144,9.980453899,12.01821313,12.36804721,9.905537379,
Croatia, World,Import,Vegetable,AHS Weighted Average (%),,,,,,,,,,,,,,7.506996133,8.475971123,7.964652512,7.234582927,6.100948603,6.193962673,5.897258314,5.706898255,6.295535577,5.7947915,5.702773936,6.080114825,6.136983517,6.351367345,6.335998499,8.090616814,8.410582331,7.051339938,2.061261477,3.225392419
Cuba, World,Import,Vegetable,AHS Weighted Average (%),,,,,,,,,,,,7.415629909,7.286073085,7.13882033,7.539787596,7.575006968,8.01560571,9.497747355,8.16128257,,,,,,,,,,,,,,
Cyprus, World,Import,Vegetable,AHS Weighted Average (%),,,,,,,,,5.872149395,8.59086591,10.48261501,11.04821283,4.812371516,9.117277404,13.63047164,,54.18012899,24.00802494,20.71207591,8.060692915,15.41545442,9.997722418,6.325748682,5.099925869,3.195901719,7.230339283,7.311798006,5.761351268,5.610717588,8.232883023,5.424400647,5.635086309,0.550203872
Czech Republic, World,Import,Vegetable,AHS Weighted Average (%),,,,,,,,,6.685469425,7.190291817,7.322814004,6.660175896,6.354370221,6.016070681,6.908188476,6.492180023,5.813181943,20.80735118,10.76758649,7.096387515,6.139045251,4.467719834,4.265278274,5.492851625,5.137147178,4.876879617,4.576039158,4.406656801,4.260642226,4.302695347,4.693951232,4.050277541,1.542935771
Denmark, World,Import,Vegetable,AHS Weighted Average (%),,,,,,,,,,,,,2.566847233,6.173766413,3.726779006,3.405211508,2.763327619,3.414430456,3.60798709,3.413180241,3.052497421,2.82014795,3.782852232,3.237151014,2.329450529,2.873686828,3.635310557,3.65597355,3.228325748,3.739605041,3.17072742,3.300119148,3.026657945
Djibouti, World,Import,Vegetable,AHS Weighted Average (%),,,,,,,,,,,,,,,,,,,,,,8.171879031,,,,,,,,,,,
Dominica, World,Import,Vegetable,AHS Weighted Average (%),,,,,,,,,31.97155459,21.65352712,,26.16415912,27.35397633,24.89434265,28.00881562,24.07255436,,,3.848590049,3.826107134,,,14.79994749,,6.147099549,,,,,,,,
Dominican Republic, World,Import,Vegetable,AHS Weighted Average (%),,,,,,,,,,,,,,4.556415495,3.794264955,3.081987534,4.609112862,4.521605134,3.557489297,1.685375548,2.023908909,,2.140329333,2.876327565,2.795946731,3.209558557,,4.73164097,3.06145362,2.790881095,2.790881095,,1.799254631
East Timor, World,Import,Vegetable,AHS Weighted Average (%),,,,,,,,,,,,,,,,,,,,,,,,,,2.5,,,,,,,
Ecuador, World,Import,Vegetable,AHS Weighted Average (%),,,,,,5.567113656,10.28956586,8.759665524,8.458463954,8.652315541,11.45576149,12.40359927,11.64767422,11.68599899,12.58297532,12.82624281,9.573719984,9.339505079,9.224470551,9.338179921,8.566180922,7.635185778,9.738900893,6.337342226,5.233334071,,5.164553503,5.522538234,5.342135646,4.677366462,4.63257675,4.63257675,5.119728463
"Egypt, Arab Rep.", World,Import,Vegetable,AHS Weighted Average (%),,,,,,,,6.24966416,,,6.084285403,5.420975094,5.420975094,5.418352123,5.431687614,5.159710604,3.24785753,2.499700192,3.076508098,1.192463925,0.97519465,0.874567824,0.260637404,0.199236145,0.283308699,0.38474502,0.33819938,0.33819938,0.517177746,0.296556475,0.383571431,0.437757428,
El Salvador, World,Import,Vegetable,AHS Weighted Average (%),,,,,,,,10.33965675,7.490590507,7.591689696,11.03361957,8.208757197,12.27821369,9.694168005,3.205639483,9.915194054,4.63907302,10.03012813,3.134974847,5.98863838,4.627312792,5.108910632,11.07330676,10.75802841,3.742790056,3.52357171,3.225362791,3.299376734,,2.299494071,1.635337241,2.420273798,2.808152656
Estonia, World,Import,Vegetable,AHS Weighted Average (%),,,,,,,,0,0,0,0,0,12.28641364,11.32246066,9.939505179,8.924469461,10.05999025,13.35670374,9.009258104,5.402939026,5.531293257,3.314778823,3.844419156,6.328344271,5.90500452,4.994821891,5.941031915,5.937200757,5.318119574,5.207038659,5.206517062,6.471069053,6.111702598
Eswatini, World,Import,Vegetable,AHS Weighted Average (%),,,,,,,,,,,,,,0.06592616,6.675806015,,2.531538135,3.898094958,2.213358499,3.704693672,3.148812443,1.821145413,2.566515211,2.490163632,1.716670282,0.132571207,0.134253234,0.421810475,0.217494081,0.331122453,0.200906268,1.406280528,2.133724935
Ethiopia(excludes Eritrea), World,Import,Vegetable,AHS Weighted Average (%),,,,,,,,30.44269378,,,,,,9.597397695,9.485345848,,,,17.22173699,,13.91593009,9.54536323,9.551108118,9.34031051,9.358376735,,,14.60525168,,,14.56134325,,
European Union, World,Import,Vegetable,AHS Weighted Average (%),,,,,,,,,,,,,8.301059474,16.02432584,8.388611343,8.618226005,7.284453628,8.52531379,6.733868572,5.241806598,4.384157836,3.424194801,3.22651184,3.122659894,3.183296396,2.975327307,3.013348004,3.097146013,3.28555642,2.919832763,2.792293331,2.690986431,1.370111158
Fiji, World,Import,Vegetable,AHS Weighted Average (%),,,,,,,,,,,,,,,,3.655969605,3.741727503,,3.527321156,3.922531904,5.127343747,6.078205998,6.290969279,6.280394238,6.403049671,6.303586371,,5.052846933,,6.125693651,6.059362422,5.489486437,4.831244267
Finland, World,Import,Vegetable,AHS Weighted Average (%),14.43650147,,16.33371043,,,,,,,,,,10.58775019,14.29341578,13.65769293,14.10735783,3.406054913,11.58436579,5.908886446,5.162027394,4.255423187,3.974039318,3.000774851,1.633234179,3.487068055,3.816945547,3.578812107,3.553698418,3.394617416,2.989475164,3.156307412,3.066628013,1.472710753
Fm Sudan, World,Import,Vegetable,AHS Weighted Average (%),,,,,,,,,3.011875114,,,,,,15.45912699,,,,5.486267655,,2.891395765,6.648575315,12.57971733,6.988418677,,,,,,,,,
France, World,Import,Vegetable,AHS Weighted Average (%),,,,,,,,,,,,,5.647002922,10.78764736,5.9821719,5.948256811,6.759365871,6.152561329,6.263378527,5.587675864,4.396290671,3.373009172,3.383283247,3.499252399,3.507360975,3.086793785,3.150071454,3.229521063,2.811107679,2.819661472,2.730120958,2.895747813,0.927454477
French Polynesia, World,Import,Vegetable,AHS Weighted Average (%),,,,,,,,,,,,,,,,,,,,,3.474766976,4.533899162,,4.38706499,3.891679996,3.72070764,3.720703701,4.648039341,4.647017402,4.647017402,4.647017402,4.604487903,4.429008468
Gabon, World,Import,Vegetable,AHS Weighted Average (%),,,,,,,,,,,18.24553702,,17.25827431,18.92798567,14.97711027,19.39408797,19.39408797,20.06740899,,13.03063041,10.25400661,12.65312453,,,,,,,,,,,
"Gambia, The", World,Import,Vegetable,AHS Weighted Average (%),,,,,,,,,,,,,,,,5.906608017,,,,4.819909966,5.253119753,4.566585034,3.813087907,4.208907786,4.208907786,5.536267705,,,,,17.98868215,,16.49570583
Georgia, World,Import,Vegetable,AHS Weighted Average (%),,,,,,,,,,,,12,,9.34724744,8.568588487,12.05707261,13.71517725,13.09850896,3.105597098,1.551198852,1.247853507,0.986453958,1.091454782,2.346970278,1.010105489,1.119096969,,1.187768919,1.647464877,,,,1.459862643
Germany, World,Import,Vegetable,AHS Weighted Average (%),,,,,,,,,,,,,7.451241601,9.852102405,8.728410627,8.541710873,3.355896689,7.321006956,4.24942524,3.840024113,3.195833621,2.703331741,2.576560378,2.247456939,2.392615312,2.423298209,2.651009609,2.605412868,2.54933329,2.382228188,2.111918048,2.055325885,1.319173579
Ghana, World,Import,Vegetable,AHS Weighted Average (%),,,,,,,,,,,,,19.58702941,17.11292034,17.11292034,17.11292034,,,,16.16647331,15.76111598,16.13579585,16.65891982,,,17.45913493,,,14.03816849,12.68858267,14.26794224,15.0349182,
Greece, World,Import,Vegetable,AHS Weighted Average (%),,,,,,,,,,,,,4.344027578,46.48453555,7.817628563,6.760727048,10.51398475,9.302074252,9.077400218,6.056516467,5.131990882,3.78075965,4.201370844,4.602386061,4.567782181,4.452884307,4.670625858,5.115171843,5.088555561,4.159808462,4.860074463,4.206189436,1.452082334
Grenada, World,Import,Vegetable,AHS Weighted Average (%),,,,,,,,,13.81434105,,,18.13718691,16.58945743,14.91359771,15.07746468,17.3015389,,,9.465274442,9.589204106,8.705247348,,5.807129809,6.784769265,6.901608211,5.828455417,,6.751065556,8.867125958,,,11.91020944,
Guatemala, World,Import,Vegetable,AHS Weighted Average (%),,,,,,,,8.390843989,,8.262638789,7.861534873,5.860256262,,10.54774175,6.318833529,7.931628365,8.061676231,8.589737125,10.56855104,7.723083477,4.218606439,4.7829373,4.066612978,4.211493157,3.959062484,3.790983407,3.18020921,2.846716279,,,,,3.245961369
Guinea, World,Import,Vegetable,AHS Weighted Average (%),,,,,,,,,,,4.509709162,,,,,,5.02630066,12.46135869,,,13.16507982,,,,,,,,,,,,
Guinea-Bissau, World,Import,Vegetable,AHS Weighted Average (%),,,,,,,,,,,,,,,,14.65552614,12.35199695,12.53825017,,,,,,,,,,,,,,,
Guyana, World,Import,Vegetable,AHS Weighted Average (%),,,,,,,,,,,,14.25063894,13.51799517,11.63961006,13.03534202,12.06523449,,,11.98996547,15.74075324,9.760833233,15.03771452,10.49738702,12.79076488,10.35058934,9.26578772,,10.24304378,12.59748089,13.4363208,14.3347354,19.40973465,13.51055662
Honduras, World,Import,Vegetable,AHS Weighted Average (%),,,,,,,,9.035003159,11.09731277,12.2482455,10.5350609,10.68696782,9.263946245,11.80477796,8.399894491,7.922884437,6.279053603,8.457958983,8.315417869,8.054222534,,11.90379087,11.13085152,10.87516389,11.06383107,,,6.76756543,,,4.966793608,,
"Hong Kong, China", World,Import,Vegetable,AHS Weighted Average (%),,,,,,,,,0,0,0,0,0,0,0,0,0,0,0,0,0,0,0,0,0,0,0,0,0,0,0,0,0
Hungary, World,Import,Vegetable,AHS Weighted Average (%),,,,,,9.722100524,,,17.36556349,19.06642251,,,,,20.6645775,,3.552060779,8.711026305,4.456764469,4.28914275,2.948734535,2.941044035,2.683679295,3.538098793,2.332001281,2.461368736,1.711535924,1.719701396,1.802336809,2.439300786,2.258538777,1.195912344,1.883253126
Iceland, World,Import,Vegetable,AHS Weighted Average (%),,,,,,4.839154913,,,10.0067011,,54.91736846,27.56950934,58.32448122,25.75187572,,46.98473849,54.88672183,58.741752,11.17912798,14.09700211,7.902030065,8.45809358,6.924360307,7.690825684,5.553215313,6.217288021,5.655915644,5.683333934,6.689715739,5.776523464,,1.025738693,
India, World,Import,Vegetable,AHS Weighted Average (%),,,55.04398561,,20.21608629,,,,33.06611171,22.34635386,,28.28237246,36.82553382,62.15877055,69.55969949,69.21586547,68.97063041,57.02467991,47.73207614,68.03901644,8.418920165,43.53452943,34.92454655,45.54170428,49.4122664,49.59823916,,41.12025246,19.24578074,18.47946435,14.11087031,37.35708388,18.35239699
Indonesia, World,Import,Vegetable,AHS Weighted Average (%),,6.307749108,7.497982301,,,8.733151539,,4.109655085,3.467140197,9.388228676,1.301248664,2.900022421,1.738368383,3.20562544,3.01986579,3.729737253,2.638480407,2.342774055,2.290201937,3.746334832,4.347071251,2.18400566,3.366097203,3.858860663,2.606465941,2.511688586,,,3.325762995,1.687740722,2.132249202,2.159012456,1.96238465
"Iran, Islamic Rep.", World,Import,Vegetable,AHS Weighted Average (%),,,,,,,,,,,,,4.624409102,,,15.19454,18.43919872,,,,,,,14.25738009,,,,,,,,,
Ireland, World,Import,Vegetable,AHS Weighted Average (%),,,,,,,,,,,,,14.06224786,39.71422439,15.85929129,14.77206988,8.18587414,10.80615906,9.846638051,7.818677312,5.95780784,5.251488713,9.014426837,7.629912974,8.221775034,6.024732816,5.32754401,5.369867925,5.777302192,5.411382049,2.618665014,2.533327463,1.365489408
Israel, World,Import,Vegetable,AHS Weighted Average (%),,,,,,,,,,,,19.33160104,20.30102042,21.89652119,20.04831435,19.57740419,11.31932599,11.26346939,12.68473519,13.29236544,12.7956578,15.08129201,,24.99554192,16.87218553,21.25501603,21.11188345,22.0940828,21.45285288,21.25748594,,,
Italy, World,Import,Vegetable,AHS Weighted Average (%),,,,,,,,,,,,,7.883382774,25.39759937,10.10813525,11.60931859,14.19645497,12.11345551,9.840656376,6.542963179,5.832062535,4.472911134,3.94029144,3.760467974,3.645959355,3.629356466,3.390477819,3.556183285,4.235082561,3.460596846,3.258485413,3.105275409,1.555800596
Jamaica, World,Import,Vegetable,AHS Weighted Average (%),,,,,,,,,16.46291147,,,19.00737673,14.18378461,13.8803653,15.65230442,13.50946767,14.93091648,,12.49782672,13.2592148,,,8.586824235,9.053377369,9.117735437,8.39874186,,17.81519285,14.93074079,,,,9.461050573
Japan, World,Import,Vegetable,AHS Weighted Average (%),10.15974356,9.889869602,8.270608051,8.048461759,8.302783677,8.434226333,7.546183436,25.66938067,23.30620281,19.77914899,18.01380318,26.78000017,32.4136342,53.47071765,52.7138245,54.06601637,29.26198121,27.33596187,26.4046978,24.26852061,22.82696508,20.7750099,8.48787058,13.97652758,9.141017085,2.579524107,20.24685734,8.992566611,17.94609214,17.41781947,17.75216609,13.42462676,13.97340562
Jordan, World,Import,Vegetable,AHS Weighted Average (%),,,,,,,,,,,,,9.6750087,10.50227896,10.66718552,10.23681949,8.644754508,6.229806154,5.834640549,3.696884103,3.799329977,1.716314191,7.275723748,7.736674778,6.264911909,5.882950638,1.97121,1.781226562,2.384104704,3.739088646,,,4.917781708
Kazakhstan, World,Import,Vegetable,AHS Weighted Average (%),,,,,,,,,,,,,,,,,2.363904072,,,,2.806143457,,3.397780401,2.07636838,2.41076428,2.143691995,1.79683367,2.246388704,1.477984994,1.533674918,1.451918371,1.20444988,1.35801148
Kenya, World,Import,Vegetable,AHS Weighted Average (%),,,,,,,,,,,,15.78689792,26.61019828,25.44523944,9.181390315,,20.29651556,11.6426711,6.403961212,8.395308673,17.03515081,28.34427965,16.59939231,,,14.88111301,,20.00927951,22.06376063,,18.94098443,26.03481813,15.67713723
Kiribati, World,Import,Vegetable,AHS Weighted Average (%),,,,,,,,,,,,,,,,,,,,,,,,,,,,,,,,,0
"Korea, Rep.", World,Import,Vegetable,AHS Weighted Average (%),10.07523511,5.80688112,6.463888271,,7.809883668,,,7.101316487,279.7008412,266.9283845,246.4094223,8.229655417,231.6816039,239.1439025,217.9014467,224.227852,223.8841919,195.9918595,185.9492778,195.1007788,223.4965113,191.9752311,182.0228586,170.6858999,176.6198768,181.2752966,161.2907808,150.8593682,171.9741246,117.5417392,112.3550489,,136.8740147
Kuwait, World,Import,Vegetable,AHS Weighted Average (%),,,,,,,,,,,,,,,0.102968908,1.022228417,1.022228417,,0.678041419,0.702199777,1.161910744,,1.04092127,1.04092127,,1.04014958,0.744758865,0.685745511,0.685745511,0.87896551,0.853211164,0.853400895,0.753947973
Kyrgyz Republic, World,Import,Vegetable,AHS Weighted Average (%),,,,,,,,0,,,,,2.397074391,5.549725351,6.083221254,6.428759195,,,3.113062677,1.809641844,1.350504163,1.984343352,1.61476388,0.896211758,0.70454593,0.70454593,0.827939662,0.791246455,1.033821002,0.390846104,0.587558806,0.845315341,0.664369699
Lao PDR, World,Import,Vegetable,AHS Weighted Average (%),,,,,,,,,,,,,,,,,,,,,,,,,,,4.840468713,2.233084579,3.738562015,3.990860619,3.6850684,2.071443084,1.807106497
Latvia, World,Import,Vegetable,AHS Weighted Average (%),,,,,,,,,1.793978976,7.677206975,,,,5.055495693,,,8.608232801,6.779629102,4.760840894,3.39606055,4.195022051,2.243493646,3.094408643,3.859426291,2.063615009,2.396140148,3.30356253,3.108484815,3.174418424,3.351250158,7.909655703,2.741633905,2.254580068
Lebanon, World,Import,Vegetable,AHS Weighted Average (%),,,,,,,,,,,,8.126892519,18.49056728,12.59591729,12.83956293,,10.28770945,16.02480313,4.44335568,3.849691816,,,,,,,6.252462785,6.071059508,6.200183716,2.891620509,0.157186331,4.642522678,4.573868101
Lesotho, World,Import,Vegetable,AHS Weighted Average (%),,,,,,,,,,,,,,6.7168E-06,,,4.602313864,,,,0.744024377,2.622609326,1.041265343,0.952043222,0.631969585,0.002992742,0.003204138,0.007579744,0.073509132,0.134705971,0.131240005,0.131224853,0.13120672
Lithuania, World,Import,Vegetable,AHS Weighted Average (%),,,,,,,,3.846168997,,3.575887305,,,,,3.807974717,3.363989334,5.874398175,7.652299981,5.003622725,4.72825754,4.330031577,3.366214104,3.942305453,4.077959915,5.09691178,4.330707812,5.382336808,5.433497713,4.959561469,3.97481559,4.372930907,3.778374441,3.435594949
Luxembourg, World,Import,Vegetable,AHS Weighted Average (%),,,,,,,,,,,,,1.033478302,2.173249701,0.933311113,1.119646904,1.277892589,1.128525425,1.268755512,1.441412482,3.205442517,2.601035035,2.661408031,3.666032175,2.933205242,2.390203515,2.133519139,2.123807536,2.210387723,1.903581619,2.068567093,,1.493221441
Macao, World,Import,Vegetable,AHS Weighted Average (%),,,,,,,,,0,0,0,0,0,0,0,0,0,0,0,0,0,0,0,0,0,,0,0,0,,0,0,0
Madagascar, World,Import,Vegetable,AHS Weighted Average (%),,,,,,,,5.115285104,6.014193584,5.362554498,4.119200864,,2.576408892,3.163250399,4.731537937,3.576983547,3.650440086,12.29981603,4.405825994,3.226836241,3.069786259,6.685482634,3.864561807,3.992208574,3.197190758,5.282976344,3.394625657,7.182786651,6.403350168,3.278095054,3.63377475,4.318435795,4.237564644
Malawi, World,Import,Vegetable,AHS Weighted Average (%),,,,,,,7.410217484,,,,,,8.389241731,6.663438891,,9.448116481,,,4.98640355,,4.062631156,5.120725182,3.834668282,5.910353834,4.224181742,3.179689424,2.94133094,2.94133094,2.47927841,,,3.628889332,6.6238209
Malaysia, World,Import,Vegetable,AHS Weighted Average (%),,,,3.696691627,,3.649968582,,,1.251681881,1.38817409,1.127866408,1.137416925,0.997400977,1.03755493,0.848563392,0.863736119,14.90623828,3.705969215,4.402521742,3.629822773,6.476543215,5.028203284,2.245396295,3.819990897,4.6865708,4.409984794,2.340745028,,4.031947725,,,,4.907823713
Maldives, World,Import,Vegetable,AHS Weighted Average (%),,,,,,,,,,,,,11.56128049,11.60130056,11.94982153,12.37383714,11.73763638,12.44947916,12.75375253,,11.36183266,11.53545047,12.11793901,12.08909797,1.085276553,0.929886264,0.972335134,0.907800427,1.034789382,1.248230472,1.431805223,1.431805223,
Mali, World,Import,Vegetable,AHS Weighted Average (%),,,,,,,,,14.08585564,14.08585564,14.08585564,5.071608654,,11.84705573,11.5711137,12.77479636,12.77479636,10.64720229,7.275181547,7.333884102,7.333884102,,6.755200201,6.505046775,6.148291453,,,,7.79255264,9.31438297,10.46305314,4.207954063,
Malta, World,Import,Vegetable,AHS Weighted Average (%),,,,,,,,,,2.075496209,,,2.133933658,,2.272224496,2.339934908,15.66779956,17.97740535,13.97132319,8.220427302,6.820245194,7.670579581,13.59125358,9.318900737,5.237715224,9.271295856,3.613377196,3.761622157,19.2749081,4.751990549,4.937294654,6.502998017,
Mauritania, World,Import,Vegetable,AHS Weighted Average (%),,,,,,,,,,,,,,6.684952313,,,,,2.777670882,5.582743914,11.12857491,11.65479151,9.81494282,9.078500221,,,5.45258919,5.45258919,,,6.705871154,6.705871154,7.597034587
Mauritius, World,Import,Vegetable,AHS Weighted Average (%),,,,,,,,11.76655566,7.415868638,12.44533191,12.1812163,5.684267392,3.960313632,4.540061664,4.007840417,,4.523225777,1.370573859,1.167427332,1.008963126,1.107787869,0.429284542,0.446161317,0.948460991,0.439244244,0.451516052,0.331265975,0.2362791,0.265294057,0.40817027,0.418216063,0.476043401,0.649350798
Mayotte, World,Import,Vegetable,AHS Weighted Average (%),,,,,,,,,,,,,,,,,,,,3.779441972,3.653149929,4.05046745,,,,,,,,,,,
Mexico, World,Import,Vegetable,AHS Weighted Average (%),,,,7.063591716,,,,5.424988647,34.12679036,18.92490381,27.83649033,18.15564517,26.56518068,28.00520085,11.63740112,33.81921677,0.913352311,2.53706184,4.170779414,2.855802494,0.519781756,0.76180415,14.65293726,13.42878228,14.97062207,13.01337334,1.171523119,9.671778543,7.995618595,0.811731952,0.801675269,,
Moldova, World,Import,Vegetable,AHS Weighted Average (%),,,,,,,,,2.708177498,,,,5.758892328,5.985277921,,8.678882922,5.730562658,7.029383657,5.705477982,6.615446085,5.021219578,8.085690346,6.597138249,8.573105878,6.283788271,6.501839503,6.219149925,7.592142936,6.81667206,,,,2.782839337
Mongolia, World,Import,Vegetable,AHS Weighted Average (%),,,,,,,,,,,,1.760200154,6.804066649,8.388101426,,6.778829085,6.27104344,5.699390302,5.725819149,6.700748839,,,,,,5.525038189,,5.555207388,,5.785018176,5.354331891,5.458697533,5.672414492
Montenegro, World,Import,Vegetable,AHS Weighted Average (%),,,,,,,,,,,,,,,,,,,,4.733241798,7.335509302,6.569758105,6.470135532,6.290869411,5.645382938,5.455866163,4.163240942,5.403668841,5.279338157,5.520560958,5.486466527,2.729833685,4.766971121
Montserrat, World,Import,Vegetable,AHS Weighted Average (%),,,,,,,,,,,,28.14463834,,,,,,,,,,,,,8.402514302,13.51102138,,10.93476112,10.93476112,10.93476112,10.93476112,10.93476112,10.93476112
Morocco, World,Import,Vegetable,AHS Weighted Average (%),,,,,,26.88265019,,,,25.82603248,,,29.22260076,24.13394701,23.64740893,42.20096714,,27.01832309,25.55792773,23.17637237,23.96240286,23.697076,29.4131744,34.45648336,16.23910987,,11.54478646,15.63233263,14.74188518,15.02009995,,13.72340692,13.8867193
Mozambique, World,Import,Vegetable,AHS Weighted Average (%),,,,,,,,,,,,,,7.446737046,6.05015184,6.315795298,,7.005285299,6.360610238,6.627621759,5.890277599,4.554842941,4.435322759,5.890132397,4.435290558,,4.277965575,,3.98644199,,3.91683839,,3.91683839
Myanmar, World,Import,Vegetable,AHS Weighted Average (%),,,,,,,,,,,,,,2.753972864,,,,,,,,,2.179605809,2.174249966,5.288919489,4.9013498,,1.448257676,,,,2.136787644,
Namibia, World,Import,Vegetable,AHS Weighted Average (%),,,,,,,,,,,,,,3.734694858,0.51559954,,0.194937005,0.12944702,0.223556664,0.332218261,0.363923511,0.280988192,0.441466244,0.186400467,0.109106399,0.089616005,0.087861088,0.541751515,2.878475885,3.836548415,2.302740159,1.270668971,2.813057282
Nepal, World,Import,Vegetable,AHS Weighted Average (%),,,,,,,,,,,17.01971353,6.689971005,9.045469588,,,8.420345072,,,,,,9.403567682,8.593021999,8.578219023,8.51947003,10.37373866,7.321562802,8.457253469,8.426274542,,9.032063074,9.096232655,
Netherlands, World,Import,Vegetable,AHS Weighted Average (%),,,,,,,,,,,,,5.474534637,6.44582961,4.050455809,3.678870498,4.520360179,3.023371862,5.123817377,4.478983991,3.142290129,1.793696549,2.43323738,2.265469679,2.15076778,1.828116555,2.130211069,2.228241219,2.314657017,2.256786494,1.99821888,2.294193233,1.236140376
New Zealand, World,Import,Vegetable,AHS Weighted Average (%),,,,,1.24330475,0.987464384,,,0.351074615,0.292753067,0.25670514,0.248711356,0.205748406,0.233351892,0.2470778,0.226848192,0.233802332,0.238096821,0.225844337,0.229802342,0.188655933,0.188854369,0.158494705,0.534169353,0.522410961,0.202400365,0.160929477,0.180102325,0.182573229,0.185953497,,0.198720429,0.233415059
Nicaragua, World,Import,Vegetable,AHS Weighted Average (%),,,,,,,,8.67004652,10.96546507,13.19338746,7.03337249,11.59880623,7.661488286,6.598206358,4.39213607,4.061192764,2.809939736,7.589951604,10.41280692,9.228409901,11.57292459,7.185901245,6.591997243,7.356411344,7.257007057,4.913013043,5.806513238,5.098949517,6.898879048,7.11243706,2.650438768,5.069770664,4.765449921
Niger, World,Import,Vegetable,AHS Weighted Average (%),,,,,,,,,,,,,,13.4722536,13.86968006,14.4974324,11.77864086,12.09616969,9.511286843,11.5450112,11.5450112,11.5450112,10.67339954,10.950196,9.349553829,9.874154867,10.5137082,10.23072427,12.19693398,12.87027166,8.305115004,6.341149168,10.26203448
Nigeria, World,Import,Vegetable,AHS Weighted Average (%),,,,,,,,,27.30918671,27.30918671,27.30918671,31.13818002,40.06933309,44.60692464,32.23654317,40.22544619,,,15.19659075,,6.285522637,7.531358572,9.086629503,8.391084221,,8.778733668,9.855359794,8.039861361,8.039861361,,,,10.07445488
North Macedonia, World,Import,Vegetable,AHS Weighted Average (%),,,,,,,,,,,,,,11.83323629,4.776197119,,5.115341815,4.950296962,4.617169261,4.52245874,4.132367678,4.336901182,3.980508276,3.555438792,4.643331434,5.530275682,5.195394887,2.18710534,2.663205096,5.554871404,5.706956791,5.894337562,4.070896437
Norway, World,Import,Vegetable,AHS Weighted Average (%),,,,,,2.244446527,,33.16181462,34.32155656,35.06144701,41.08994419,35.44448103,42.24963279,40.37599056,42.05399435,39.35801471,37.66744154,33.80660989,35.62051901,36.48260625,32.74031161,27.97424262,30.92812112,33.1580803,30.64375078,30.98780948,29.67294216,25.52263135,22.83440461,21.44952082,22.60518943,18.87596682,17.13104517
Occ.Pal.Terr, World,Import,Vegetable,AHS Weighted Average (%),,,,,,,,,,,,,,,,,,,,,,,,,,6.763088193,5.439644815,4.970817007,1.406301725,4.674049762,,,
Oman, World,Import,Vegetable,AHS Weighted Average (%),,,,,0.912700515,,,,,0.756158131,,,,0.997149177,3.488207113,3.490680627,1.41369416,1.082132657,0.956989022,0.990112678,1.117894523,0.998543516,,,1.060930363,0.975835521,0.97493504,0.820403368,0.706729238,0.809013831,0.809013831,0.79240119,0.792029088
Pakistan, World,Import,Vegetable,AHS Weighted Average (%),,,,,,,,,,,,,,,,28.37314041,8.116422789,19.93329815,18.82996007,18.54922197,12.76750924,10.87631195,9.099393073,7.782817772,7.120732067,8.341168548,7.077294252,7.789120161,8.616548499,,8.029014511,7.893799869,6.691198901
Palau, World,Import,Vegetable,AHS Weighted Average (%),,,,,,,,,,,,,,,,,,,,,,,0.06337299,0.06337299,0.06337299,,,0.092097909,0.108488043,0.104645713,0.104645713,,
Panama, World,Import,Vegetable,AHS Weighted Average (%),,,,,,,,,,13.61568842,9.458679832,10.60145021,10.97957205,8.260853521,11.02319111,14.99970704,17.2834939,15.3738408,14.13386665,13.6051704,15.27186516,12.74521399,16.63569599,13.25717081,15.37634853,15.43500835,,10.96099438,,,,,16.12173844
Papua New Guinea, World,Import,Vegetable,AHS Weighted Average (%),,,,,,,,,,,,,2.484217566,2.484217566,2.484217566,2.136986522,1.44875102,,,,,,,,2.649632264,,,,,,,,
Paraguay, World,Import,Vegetable,AHS Weighted Average (%),,,,8.717000926,,,5.164271412,1.68493157,7.93837253,7.694321717,7.661071853,1.219751397,10.20008163,10.39008422,9.654839389,9.297329282,0.959296874,0.530802653,0.446759976,0.395968716,0.766246451,0.43946406,0.434550995,0.419679099,0.355613658,0.338208374,0.579743631,0.722168669,0.675272197,0.563325471,0.677739319,0.677737593,0.670927574
Peru, World,Import,Vegetable,AHS Weighted Average (%),,,,,,,,15.36688045,,15.09114173,14.94385582,14.90984087,17.01142443,13.29902474,12.54422284,11.07181775,9.48663,6.30520479,5.18106876,6.172460224,3.563227026,2.930309408,3.375771728,1.96624364,,1.116939791,1.098337125,0.7877688,,0.095994711,0.113633925,0.096672588,0.093247737
Philippines, World,Import,Vegetable,AHS Weighted Average (%),,,,,,,,,23.04731856,27.31633722,25.27247775,23.49245482,15.50114892,14.34471076,15.83058688,13.28884166,21.89618271,21.89618271,21.79758818,21.59437893,7.806679925,7.656497026,7.736931402,5.594978039,5.565349105,5.63734863,,5.269860938,9.793409249,5.186814418,6.907127264,9.35682461,9.344923576
Poland, World,Import,Vegetable,AHS Weighted Average (%),,,,,,,,4.305978382,13.72649204,24.85659774,21.13131109,18.31892417,12.57738548,23.32511607,22.86535932,15.74860537,7.08627156,12.2092019,6.352636054,5.951089559,4.50853957,3.759019784,3.553271952,3.234489967,2.838013088,3.300113195,3.348712498,3.288547317,3.169294382,2.888861661,2.970426012,2.545756931,1.14454947
Portugal, World,Import,Vegetable,AHS Weighted Average (%),,,,,,,,,,,,,15.34619748,32.21526968,9.455703779,9.258108156,11.22915311,12.84725493,9.147734895,3.867526804,2.971528278,2.288017375,1.819357669,2.348220453,2.055003526,2.373798901,1.188677711,1.394840408,1.980940499,1.429742568,1.744106908,2.014012041,0.818010715
Qatar, World,Import,Vegetable,AHS Weighted Average (%),,,,,,,,,,,,,,,4,1.537667604,1.527812215,0.872430283,0.886632684,0.609893565,0.450615965,,1.407483747,,0.556346986,0.897171543,0.604623971,0.583876329,0.583876329,1.083642423,1.281102899,1.176891892,0.997859236
Romania, World,Import,Vegetable,AHS Weighted Average (%),,,,24.40442715,,,,,,,,13.57541404,,19.04137502,,,15.5449947,13.30602571,,7.488785545,5.391298018,3.452731162,3.835809487,6.054187028,2.965208649,2.492505638,3.112475302,2.828232853,2.282707708,3.222514143,2.927185814,2.828865392,0.981577365
Russian Federation, World,Import,Vegetable,AHS Weighted Average (%),,,,,,,,,7.209022456,8.67297142,,,,9.153962209,9.130374675,,,8.33764962,,6.297883487,5.859548143,5.879224187,4.468973989,6.133030894,5.933756296,5.506640023,4.67494297,2.312169567,3.092777664,3.068577536,2.947032237,2.995216418,3.387897024
Rwanda, World,Import,Vegetable,AHS Weighted Average (%),,,,,,,,,,,,,,8.108913166,15.6052331,6.032297494,,9.610852789,10.43994798,,8.821710588,10.94247127,12.41578427,5.244434121,15.5692373,7.23517003,10.09642018,13.58582921,8.460948025,,4.962903473,12.18640804,
Samoa, World,Import,Vegetable,AHS Weighted Average (%),,,,,,,,,,,,,,,,,,,,,,,,5.89903272,5.490742778,5.696899297,5.696899297,6.430680933,14.31896697,7.115439442,6.083281752,,
Sao Tome and Principe, World,Import,Vegetable,AHS Weighted Average (%),,,,,,,,,,,,,,,,,,,,,,,,,,4.815687978,5.30427155,4.965364025,5.169978362,,5.382167078,5.587508385,
Saudi Arabia, World,Import,Vegetable,AHS Weighted Average (%),,,,,,,5.338029962,,,,,5.216507392,4.164895048,5.103951709,3.002950782,1.382887029,1.773906364,0.659853549,0.718729876,0.592264658,0.204111029,0.277845927,,1.089902772,0.774800179,0.774800179,0.682209453,1.141516477,,1.174223203,,,3.218613684
Senegal, World,Import,Vegetable,AHS Weighted Average (%),,,,,,,,,,,,,,10.98157743,10.51416416,10.77279408,10.80775488,10.9572613,9.716772487,9.133443957,9.133443957,9.406491569,9.280315003,8.685813932,8.651607073,8.651607073,9.157205006,10.57235855,9.413691225,13.25309508,13.50198484,10.10136687,9.820932565
"Serbia, FR(Serbia/Montenegro)", World,Import,Vegetable,AHS Weighted Average (%),,,,,,,,,,,,,,12.52726363,12.82227156,,,,,8.580477932,8.484154317,5.877149219,5.641726138,5.831010196,,5.204112351,,3.156823378,3.518038819,3.167352955,3.705199447,,
Seychelles, World,Import,Vegetable,AHS Weighted Average (%),,,,,,,,,,,,,8.106774095,11.68481499,,,,1.835903977,1.337778126,2.840689979,,,,,,,,1.170292009,2.505286871,2.483608483,1.848865525,2.244580604,2.244580604
Singapore, World,Import,Vegetable,AHS Weighted Average (%),,0,,,,,,0,0,0,0,0,0,0,0,0,0,0,0,0,0,0,0,0,0,0,0,0,0,0,0,0,0
Slovak Republic, World,Import,Vegetable,AHS Weighted Average (%),,,,,,,,,,,,,,,7.254909342,,7.867372041,14.17990653,12.09803037,11.07798517,9.42922729,9.781767847,8.243783016,7.875030463,6.463325786,6.451644269,5.915663159,5.824752489,6.603549171,5.959150663,5.760559371,7.039671969,2.958799805
Slovenia, World,Import,Vegetable,AHS Weighted Average (%),,,,,,,,,,,,9.417142788,,10.10787365,6.837990032,7.251813554,11.55601626,18.95660945,11.16992664,8.20623156,6.400712514,7.289853316,4.095768173,4.754929865,6.261851981,5.923028628,6.086615753,6.0961958,5.425009479,3.812253688,3.643162805,2.691901815,1.811734553
Solomon Islands, World,Import,Vegetable,AHS Weighted Average (%),,,,,,,,,,,,,,,,,,,,,5.505759413,,,,,,,1.763392447,2.069384724,2.334375095,2.334375095,,
South Africa, World,Import,Vegetable,AHS Weighted Average (%),,,,,,5.839004973,,,4.147353901,3.300762544,,4.655536377,7.904606374,5.793296354,7.134065474,6.750215988,3.74831059,3.837525867,4.206631371,4.340939341,4.027592157,3.918557255,4.272269351,2.871273832,2.929619112,2.494438312,2.457556279,2.952051181,5.426745892,6.880188967,5.305178087,4.174757969,6.108409872
Spain, World,Import,Vegetable,AHS Weighted Average (%),,,,,,,,,,,,,10.04902147,24.14827724,6.603777326,6.83126386,11.15795683,8.631899571,9.346958359,4.993588148,4.863032251,3.616741786,2.819158146,3.2191922,3.281388531,2.856927668,2.574871791,2.876161814,3.891768241,3.274979211,3.449040048,2.807698435,1.255644202
Sri Lanka, World,Import,Vegetable,AHS Weighted Average (%),,,30.682575,,,42.37057781,33.02155609,,,,,,14.7539142,13.9593698,,11.30669262,13.32374436,17.50080118,16.43960585,15.7559604,14.60899235,15.24451489,21.93706902,22.72314273,19.29513735,,19.43538642,9.105207043,,29.85217041,,25.89138802,15.61004823
St. Kitts and Nevis, World,Import,Vegetable,AHS Weighted Average (%),,,,,,,,,29.67066124,,,27.49611775,16.08019127,15.74296273,16.25269428,15.96774673,,,13.56701292,10.54158088,10.21579783,14.65649577,10.65200761,10.8667839,17.67692661,17.67692661,9.626621069,9.626621069,9.626621069,11.52054426,,,
St. Lucia, World,Import,Vegetable,AHS Weighted Average (%),,,,,,,,,28.54049314,,,24.3017841,24.32964886,16.72730684,15.91418643,17.21924809,,20.1743404,11.70492997,10.2521099,,,18.57598079,19.0562241,8.696576404,16.28148093,10.46848907,9.607096367,10.84647847,,,11.97482571,
St. Vincent and the Grenadines, World,Import,Vegetable,AHS Weighted Average (%),,,,,,,,,,,,19.61527938,16.63229649,15.84802248,12.79370344,13.69821874,,,8.919557247,10.11673984,,,15.17075262,15.22315615,10.54975922,10.54975922,,7.93506827,6.715942473,6.509046144,7.336502321,7.304175291,
Sudan, World,Import,Vegetable,AHS Weighted Average (%),,,,,,,,,,,,,,,,,,,,,,,,,10.25172777,10.20749174,,,,7.681923684,,,
Suriname, World,Import,Vegetable,AHS Weighted Average (%),,,,,,,,,15.75132333,,,24.20893855,24.30979313,,,,,,,21.76926321,,20.16672371,20.16672371,19.0322858,18.20226684,18.20226684,,,,,24.08875936,23.17928798,23.17928798
Sweden, World,Import,Vegetable,AHS Weighted Average (%),,,,,,,,,,,,,17.71091115,18.48171201,15.9410156,14.41957224,5.096863308,9.310392261,5.910838795,5.759784117,4.655957889,4.093126345,4.400358849,3.134136005,3.729379637,3.832631605,4.048042806,4.022711237,3.869710817,3.624820518,3.936968275,3.843785293,2.241296139
Switzerland, World,Import,Vegetable,AHS Weighted Average (%),,,16.40921182,,,17.23042408,,44.50511284,41.76047558,36.46945166,33.58263664,36.00459787,35.03289288,39.48498636,32.75902242,39.51284508,29.31113537,32.68225044,33.13501986,28.088757,24.1268539,19.4981648,14.92030191,22.65543223,21.9495937,22.15036623,20.95990592,18.13791922,21.0368379,19.53125195,17.17484163,17.19719469,19.09298137
Syrian Arab Republic, World,Import,Vegetable,AHS Weighted Average (%),,,,,,,,,,,,,,,10.96277298,,,,,,,3.915549457,3.990938937,,,,,,,,,,
Tajikistan, World,Import,Vegetable,AHS Weighted Average (%),,,,,,,,,,,,,,,,,,,,,,,,,,,,,0.320529399,0.332233704,,,0.394573492
Tanzania, World,Import,Vegetable,AHS Weighted Average (%),,,,,,,,,,26.42297893,23.45107832,,18.46882468,,,12.78012292,,9.379956123,11.95706887,7.098938199,17.61081364,18.6316653,17.74875591,10.89658152,23.76063856,12.42561663,12.42704201,19.48473398,10.90224504,,17.8147309,20.34685987,20.60750053
Thailand, World,Import,Vegetable,AHS Weighted Average (%),,73.46568822,,67.32771056,,93.23073497,,42.5524084,,,,54.55989596,26.39604138,20.0640282,,26.27947316,16.14944491,16.07804708,16.24261024,12.9038962,12.47332294,13.30494261,11.99400191,11.23036448,,30.20117426,26.09203614,21.62511856,,,,,
Togo, World,Import,Vegetable,AHS Weighted Average (%),,,,,,,,,7.306800378,7.638501593,,9.824327113,9.065020486,8.290998384,8.238936869,8.85559667,8.85559667,9.086834178,,8.040121543,8.040121543,8.4495129,8.859634751,9.250639965,9.260051569,9.864782315,9.864782315,14.16396862,10.6341295,20.50143148,17.28963334,14.25699057,14.25699057
Tonga, World,Import,Vegetable,AHS Weighted Average (%),,,,,,,,,,,,,,,,,,,,,,7.61310212,7.321016357,7.740229806,7.542515629,6.377028084,,,,,,,
Trinidad and Tobago, World,Import,Vegetable,AHS Weighted Average (%),,,,15.90346873,21.91341532,,,,10.49419814,,,19.53264623,,12.03025852,11.40964194,13.25970686,13.07328775,15.71762851,12.02567493,11.2498073,11.80627283,,16.43764878,16.43764878,13.10676345,13.10676345,,,,,,,
Tunisia, World,Import,Vegetable,AHS Weighted Average (%),,,,,18.82800478,,,19.1715908,,,20.4045847,,50.78434117,,60.45312983,46.64605683,40.01517554,36.7703446,39.83545348,,32.21248806,28.49881361,17.69281838,27.90966581,27.3255588,17.28097744,,17.1747951,14.03438439,,,,
Turkey, World,Import,Vegetable,AHS Weighted Average (%),,,,,,7.216158392,,6.723040751,10.67531415,18.93841029,21.00071778,25.7580495,25.20095472,21.55785523,14.56229323,18.26352666,26.33486066,22.46437808,21.47736604,35.13414579,17.61917097,29.91307716,25.97629774,34.92435924,,50.96816713,,42.95050334,37.26187625,45.00815772,22.02385472,28.29926601,27.75672699
Turkmenistan, World,Import,Vegetable,AHS Weighted Average (%),,,,,,,,,,,0,,,,,,,,,,,,,,,,,,,,,,
Uganda, World,Import,Vegetable,AHS Weighted Average (%),,,,,,,20.22863356,,,,,,5.771701772,6.871092139,7.494567428,6.277684368,7.656221518,15.02129439,7.642555524,8.05989806,17.1855035,18.83174725,16.44237898,7.805271888,18.72927193,17.8673217,17.824188,19.52263478,12.53784176,,11.88993351,11.84850191,7.356417337
Ukraine, World,Import,Vegetable,AHS Weighted Average (%),,,,,,,,,,12.74324963,,,,,9.68913321,,,,4.643362964,5.072958755,3.901817116,3.124828076,3.845324783,3.425171221,3.593805021,3.947931043,3.161942645,3.134289234,3.641187498,3.211624399,2.84381714,2.657916344,2.697248451
United Arab Emirates, World,Import,Vegetable,AHS Weighted Average (%),,,,,,,,,,,,,,,,,,1.601042129,,1.386743801,1.467826557,1.467826557,,1.599433007,1.865936533,1.86899334,1.813659194,1.589707393,1.565009746,2.009400884,1.792834741,1.786498821,1.786580604
United Kingdom, World,Import,Vegetable,AHS Weighted Average (%),,,,,,,,,,,,,7.564993693,21.04941293,8.533391848,8.800005081,8.184253772,7.509799875,7.092405323,5.830583667,5.052684835,3.837008068,3.393448484,3.404483214,3.70098659,3.545502363,3.511850209,3.750947605,4.222574451,3.342277031,3.185719799,3.254303946,1.434443245
United States, World,Import,Vegetable,AHS Weighted Average (%),,,,1.97410454,1.811055272,1.852658537,,1.136926371,1.202528776,1.163976062,2.174159365,1.030831587,1.116683123,1.083674718,1.019245307,0.71561492,0.672520159,0.54688126,0.546895576,0.548614386,0.357401049,0.362985154,0.332331324,0.398974191,0.430733827,0.37461565,0.421773396,0.348096712,0.342725135,0.427345999,0.341328391,0.481945916,0.517671129
Uruguay, World,Import,Vegetable,AHS Weighted Average (%),,,,,,,,8.673987816,9.28318413,9.043065661,10.9523467,11.17904726,2.552635322,2.485321129,8.326236904,,1.225258405,1.041883592,0.728193787,1.16635482,1.061968609,1.36589878,1.744266505,1.333661307,1.373423192,2.345180942,2.351689055,1.840915415,2.247843577,2.516802845,2.137549538,2.127692569,2.51560073
Uzbekistan, World,Import,Vegetable,AHS Weighted Average (%),,,,,,,,,,,,,,,,,,,,,,,,,,,,,,,,,1.083290511
Vanuatu, World,Import,Vegetable,AHS Weighted Average (%),,,,,,,,,,,,,,,,,,,8.136855968,10.49578251,,10.97381555,,,,,,,,,,,
Venezuela, World,Import,Vegetable,AHS Weighted Average (%),,,,,,,,12.25566783,,13.89137989,14.15238403,14.40086467,14.2798607,13.93167802,14.36838569,15.12786743,12.21638351,11.73955895,8.378063713,11.87954397,12.51388811,13.00851186,11.82255306,11.21635921,10.90730917,10.55316,,,,,,,
Vietnam, World,Import,Vegetable,AHS Weighted Average (%),,,,,,,,,,,,,,10.02936871,9.874150981,10.34382255,10.0717372,9.508117528,9.271179136,7.078921793,6.494003334,6.944282504,4.908691642,,4.213335199,3.178129962,3.821578768,5.275498833,6.135752214,5.812393721,7.505447512,6.286856332,6.469008371
Yemen, World,Import,Vegetable,AHS Weighted Average (%),,,,,,,,,,,,,,,,,,,2.518521742,,,1.708491361,,1.82259302,1.970063071,1.909513543,,2.476296959,,,,,
Zambia, World,Import,Vegetable,AHS Weighted Average (%),,,,,,,,,,11.39019478,,,,28.84152404,13.9981683,6.757061942,28.02230331,10.09933291,18.6350891,14.26884211,2.1516982,1.843546828,3.556116153,2.377060979,3.013147806,4.146197217,,2.191209957,6.275058445,,1.662628993,,1.497402078
Zimbabwe, World,Import,Vegetable,AHS Weighted Average (%),,,,,,,,,,,,,13.31603645,11.88855887,18.32714593,17.52199035,,,,5.704469536,,,14.27390158,2.175858087,9.057953746,,,1.501732943,1.171178566,,,,