﻿Year,Afghanistan,Albania,Algeria,American Samoa,Angola,Antigua and Barbuda,Argentina,Armenia,Azerbaijan,Bangladesh,Barbados,Belarus,Belize,Benin,Bhutan,Bolivia,Bosnia and Herzegovina,Botswana,Brazil,Bulgaria,Burkina Faso,Burundi,C?te d'Ivoire,Cambodia,Cameroon,Cape Verde,Central African Republic ,Chad,Chile,China,Colombia,Comoros,Congo,Costa Rica,Croatia,Cuba,Cyprus,Côte d'Ivoire,Democratic People's Republic of Korea (DPRK),Democratic Republic of the Congo (DRC),Djibouti,Dominica,Dominican Republic,Ecuador,Egypt,El Salvador,Equatorial Guinea,Eritrea,Estonia,Ethiopia,Fiji,French Guiana,Gabon,Gambia,Georgia,Ghana,Grenada,Guatemala,Guinea,Guinea-Bissau,Guyana,Haiti,Honduras,Hong Kong,India,Indonesia,"Iran, Islamic Republic of",Iraq,Israel,Jamaica,Jordan,Kazakhstan,Kenya,Kyrgyzstan,Lao People's Democratic Republic,Latvia,Lebanon,Lesotho,Liberia,Libya,Lithuania,Madagascar,Malawi,Malaysia,Maldives,Mali,Mauritania,Mauritius,Mexico,Mongolia,Morocco,Mozambique,Myanmar,Namibia,Nepal,Nicaragua,Niger,Nigeria,Occupied Palestinian Territory,Pakistan,Panama,Papua New Guinea,Paraguay,Peru,"Philippines, the",Poland,"Republic of Moldova, the",Romania,"Russian Federation, the",Rwanda,S?o Tom? and Principe,Saint Kitts and Nevis,Saint Lucia,Saint Vincent and the Grenadines,Senegal,Serbia and Montenegro,Seychelles,Sierra Leone,Slovenia,Solomon Islands,Somalia,South Africa,South Sudan,Sri Lanka,"Sudan, the",Suriname,Swaziland,"Syrian Arab Republic, the",São Tomé and Principe,Tajikistan,Tanzania,Thailand,The Former Yugoslav Republic of Macedonia,Timor-Leste,Togo,Trinidad and Tobago,Tunisia,Turkey,Turkmenistan,Uganda,Ukraine,Union of Soviet Socialist Republics,Uruguay,Uzbekistan,Vanuatu,Venezuela,Viet Nam,Yemen,Zambia,Zimbabwe
1988,0,0,19169.046,0,132864.062,0,48,0,0,1203409.003,0,0,1056,16087.934,6584.738,196594.21,0,60371.12,4789.455,0,48189.315,5480.829,0,25067.914,1876.544,58520.343,3599.815,32725.584,8232.5,402844.123,100861.23,6821.281,23437.109,137469.86,0,8569.939,458.755,18852.745,0,117619.412,27303.883,63,193589.414,13217.154,1522365.682,258875.629,3624.718,0,0,1253306.475,13645,0,0,12311.332,0,107552.21,926.304,202957.383,34011.425,9511.962,56042.605,126131.548,193586.915,0,742172.001,349298.788,9396.922,0,0,343329.558,32009.422,0,101016.582,0,30039.506,0,62663.202,45458.162,57562.486,0,0,72850.22,162086.697,0,4477.7,56314.417,45472.084,36177.155,218810.884,0,369145.717,692248,50,0,16307.636,147613.502,78914.648,0,37406.427,955318.298,0,180,3019.594,321109.234,516976.732,0,0,0,0,5864.965,0,8122.892,8588.683,6785.591,73617.615,0,459.609,30282.275,0,0,220604.218,7068.15,0,270627.57,591231.339,15,18673.584,42491.905,8346.655,0,57053.977,76062.442,0,0,16429.749,18367,433445.276,3525.805,0,36402.296,0,0,440.838,0,20,0,126589.478,122669.738,166729.344,3943.734
1989,341345.827,0,47601.673,0,66366.041,0,0,0,0,1107248.899,0,0,4179,14038.599,2256.514,239420.879,0,25603.479,30513.718,0,37787.058,6114.125,0,11599.432,3849.39,53777.147,6990.88,27287.582,13147.357,158638.01,6372.424,3639.878,1440.288,70477.984,0,10429.05,0,20857.743,0,98536.176,8188.83,10583.72,29363.195,36708.874,1414083.742,188633.617,3032.431,0,0,455193.395,0,0,0,15489.513,0,93067.527,6700,162044.653,34352.257,9330.511,46141.25,130018.598,152179.82,0,570732.708,104766.153,27950.784,0,0,208340.027,257369.347,0,69033.846,0,48046.328,0,42090.849,26621.916,30097.1,0,0,74508.758,221754.682,1200,5387.5,47473.405,64960.515,6421.744,396061.084,0,344332.166,541232.598,20,2286.868,14426.661,102444.292,41611.208,0,16785.013,604342.079,1334.51,0,594.2,195595.618,75316.753,626448.18,0,0,0,5248.048,0,0,0,0,64884.014,0,548.982,36052.056,0,0,116232.368,7840.484,0,278091.81,356720.894,0,3757.839,26217.657,13082.488,0,42765.149,92249.593,0,0,23389.341,0,320939.202,3430.915,0,33282.795,0,0,347,0,0,0,57399.216,96378.305,43921.985,13339.646
1990,42723.841,0,9637.217,2818.612,123625.577,0,0,0,0,1050235.594,0,0,0,14777.145,5094.847,261517.462,0,15433.696,28623.548,0,33641.904,2886.042,0,25022.992,3248.374,58702.142,3386.67,25979.136,7787.656,78203.3,4763.165,3843.098,8006.619,7172.016,0,2561.75,0,66288.263,0,97549.401,8557.193,283,40458.267,76622.366,1605595.224,202801.862,4571.791,0,0,863748.938,0,0,0,4088.584,0,66131.93,0,184840.117,11167.115,5193.047,45512.599,108067.078,145508.708,0,382162.962,56038.082,26252.061,0,1026.541,293301.56,261109.374,0,89804.858,0,0,0,42846.841,41799.712,34947.891,0,0,53626.637,219309.864,436,2447.5,38553.509,45242.458,11262.062,279994.378,0,270599.213,422563.262,50.5,11550.6,7838.187,232463.7,40057.872,0,25935.098,461919.025,904.185,240,3748.62,359380.517,160465.758,1606357.946,0,642762,0,9003.02,0,0,0,0,63483.391,0,734.765,11044.956,0,0,98282.144,6676,0,309549.987,230015.119,0,10165.713,37556.909,8577.157,0,35458.855,147687.366,0,0,12281.011,0,382587.693,14346.354,0,46689.708,0,0,20080,0,0,0,61784.313,157460.719,10884.68,13653.217
1991,27884.106,238364.45,43739.435,0,135626.028,0,0,0,0,1079688.614,0,0,0,8287.488,5786.534,214296.684,0,2922.88,19981.802,323462,91189.517,6100.214,0,18015.57,10328.319,64203.546,3865.425,77569.48,15055.296,137622.632,8358.789,5544.99,10014.026,84264.652,0,6806.62,0,39969.835,0,99217.595,10352.592,2095.8,11837.905,46855.339,1823052.514,175332.453,3644.597,0,500,943775.555,0,0,0,16320.944,0,168960.786,2000,232755.3,28671.873,15861.01,33986.05,70221.151,128235.814,0,250063.786,59071.353,117308.348,46502.456,0,274533.047,416473.032,0,73927.69,0,0,0,35934.881,27574.667,171768.639,0,0,30160.856,232518.083,5126,3189.5,47008.902,89956.061,6316.602,95589.355,13563,250767.609,542679.755,0,9488.262,5935.691,161376.298,91887.577,0,67699.232,358268.628,17232.896,75.48,291.4,406252.078,165701.287,11600,0,308082.352,0,19977.129,0,0,0,0,42224.1,164.7,145.084,61350.165,0,10,82350.872,9240,0,304472.228,550312.242,0,4916.444,39219.989,9604.877,0,21710.395,91833.51,0,0,20115.897,0,194879.566,2925.681,0,65377.983,0,117519.697,170,0,0,0,70836.434,51947.988,63260.61,17598.692
1992,81410.781,709999.06,17980.435,5579.41,113681.804,1000,0,82937,1355,976216.766,0,156641,0,12568.972,4594.312,114254.376,0,8878.955,6104.821,12,58764.37,2467.343,0,76264.952,7155.267,59160.038,5164.087,8190.941,6372.476,143478.351,18979.421,7309.146,17065.637,3998.484,0,2925.982,0,39910.981,0,35760.842,10246.836,1235,19893.333,46665.815,616567.226,116987.152,3734.154,42577.657,363550,1209657.076,0,0,0,10685.429,100100,142773.052,2585,145340.181,29546.565,7500.612,58018.724,109482.327,110487.867,12382.174,325902.155,44216.962,81995.889,99779.375,1000.1,246967,262518.492,7800,274287.61,56340,12500,417451.96,27625.984,35127.449,169293.842,0,379304.172,69542.248,369635.55,4055,3111.1,38468.577,29887.161,13974.679,87744.117,15739.08,258828.427,1046921.006,0,20437.042,18054.003,130015.115,46181.152,592.75,19577.03,324472.075,9602.794,255,2915.917,563287.434,157297.251,0,72100,119213.94,368628.194,24959.049,0,3353.848,0,0,80864.966,165413.117,235.398,46451.427,0,0,275189.357,4777,0,266135.684,730530.413,36182,16522.633,20124.111,9165.644,58591,22740.712,92578.619,0,0,14376.433,0,62350.279,5229.656,6513,48360.867,96.22,0,50,244,10,0,99396.984,58944.986,467505.801,513082.062
1993,134344.05,657824.77,26176.887,0,173508.486,0,0,87652.32,9390.04,395635.623,0,336625.5,0,33656.959,4113.868,417635.993,0,13412.782,38069.224,110239,36408.35,7642.312,0,99304.479,1734.372,27824.345,4251.903,4703.656,5977.8,180064.464,3518.112,4397.124,2044.943,92656.931,0,23559.859,0,52660.041,0,23045.961,26265.519,60,10971.702,11872.771,219477.747,169853.639,5477.348,117082.198,55022,533621.602,0,0,0,8540.708,353386.67,123631.201,100,130306.052,42820.35,10804.821,44566.723,119023.448,123684.264,0,390350.096,42322.181,38525.69,93504.34,1000.1,239760.728,174635.978,60827,353143.677,118068,2976,207050,10797.145,54185.625,176266.3,0,446239,37375.358,541036.842,0,2196.35,27820.029,82480.461,2229.311,93485.403,38843.733,158570.064,457914.823,0,24583.098,42387.431,94403.173,26363.769,0,25782.135,210824.133,3376.941,0,2886.012,453633.895,136758.224,216000,58561,225602.93,3407038.563,157001.946,0,0,0,0,52164.879,373031.955,56.441,28699.76,0,0,211291.632,53,0,412284.872,336092.592,21993,31813.982,28292.18,7071.35,83484.661,39803.042,33645.949,0,0,9279.806,0,78965.48,3024.877,45720,68667.346,352890,0,200,200,0,0,61621.423,100327.928,355741.952,534729.563
1994,92621.399,40250,26317.726,0,343953.437,0,0,357147.063,229197.81,1095356.399,0,138626,2.8,14949.357,3185.381,170897.41,1100,9141.394,35250.187,49319,49063.759,80198.754,0,67683.026,2654.34,73406.089,5050.6,22184.162,2800.9,147102,27690,6728.425,16692.592,5995.562,11924,7007.957,0,56280.725,0,82297.982,12580.245,81,13782.42,26994.744,295209.351,23721.19,3271.986,331875.993,0,948645.336,0,0,0,9694.333,856771.631,90810.446,0,176384.145,40170.526,4490.289,33955.188,94515.001,115439.445,0,359959.331,36869.803,26046.293,73286.743,1998.83,70099.925,166164.887,2443,230075.259,91571.642,14269,0,9961.219,34487.747,179323.322,0,64000,26154.006,166882.623,319,1370,27114.424,25593.267,0,31694.275,5955.4,103995.494,400161.554,1805,647.268,31104.861,62334.948,46929.846,0,49298.3,140239.607,150,315.5,296,391173.078,129353.343,0,111948,3500,913934.411,273157.392,0,0,0,0,25699.866,536382.162,0,33597.622,2967.8,0,149028.868,14316.725,0,306496.764,438952.025,29789.544,11335.227,40332.248,8005.067,99239.384,85027.6,8126,46019,0,9309.139,0,30788.514,1807.818,51025.222,81775.641,96029.25,0,50,1815.807,0,0,74894.686,44262.846,19720.262,22402.892
1995,133245.084,10476,27196.911,0,219734.693,0,0,475689.721,391199.724,585704.785,0,98310.948,0,20603.032,6388.07,85617.198,22747.59,10281.206,848.826,36,41489.865,103186.472,0,91490.416,7311.285,73416.616,1459.855,21171.018,283.4,127819.69,15302.6,5815.412,12625.256,2653.412,13680.432,6129.918,0,23947.071,544492.068,109489.606,20156.256,7027.364,6432.815,19406.848,207243.294,24982.246,3933.114,104278.852,0,635715.317,0,0,0,3801.6,598135.277,96905.702,0,70383.129,7535.357,3240.264,33002.209,168114.792,53179.196,0,398337.59,18596.566,13190,101876.194,0,56427.61,122168.13,1000,79565.114,150367.69,26918.84,0,11475.438,33707.57,160979.374,0,40310,38233.776,235897.641,0,2598,20047.819,44944.707,780.944,46032.455,11706.65,2042.9,385699.326,3985,2650.885,38454.305,62954.403,24607.278,0,48295.808,118772.332,2176.73,156.943,1388.021,254092.536,55048.701,0,244348.348,4.5,124835.889,274248.699,0,0,3000,0,21322.936,383666.914,0,33522.156,0,0,52948.755,123,0,148220.984,82368.139,20041.285,6639.408,44980.554,7888.302,226084.572,144529.407,2387.482,0,0,5897.402,0,26637.867,630.455,53300,76892.494,120010,0,0,1000,0,0,69772.755,17895.83,26067.8,12979.255
1996,120987.807,22874,27061.645,0,250596.814,3131,0,168829.739,115729.587,573001.87,0,39103.95,0,10235.343,4755.803,157146.269,8357.125,3744.543,0,0,26904.857,7752.204,0,48500.779,24137.632,44500.833,2068.874,19691.345,0,133611.84,8575,628.25,17993.325,1124.901,28820,12711.888,0,54813.24,510119.074,32491.003,10834.962,2653.02,8230.279,1788.475,154897.693,26838.588,569.997,40428.732,0,457018.923,0,530,0,4267.367,265790.23,33675.876,4533,36110.097,12881.003,7792.255,42282.518,118937.634,33712.9,0,357805.209,28,4877.227,113776.263,0,58440.079,167508.143,698,31784.02,67730,16946.3,0,7538.417,40205.362,169286.083,0,36033,22105.47,122929.114,0,3507.2,19116.165,17312.268,1030.912,870,8543.32,129.14,151330.146,3637.967,10424,35107.478,45135.849,32386.02,0,11724.335,53580.27,1275.204,0.9,965.856,171442.752,33961.795,0,48433,57,79409.076,507601.993,0,3741,6046,8571,8612.989,231992.741,0,54976.044,0,0,31718.912,46.5,0,72814.5,108310.287,12000,9452.704,14557.367,4908.631,121814.616,29788.12,104,0,0,5146.659,0,23342.879,1030.985,39688.837,42592.561,36320.637,0,0,0,0,0,29989.536,41040.145,73832.143,12173.51
1997,233068.002,17278.312,42016.268,0,181381.521,0,0,144757.505,28746.093,703720.205,0,38,0,21777.289,5236.572,96806.988,79053.98,375,104.4,14747.4,45698.846,3017.321,0,44577.464,1432.041,65265.593,1384.581,49455.078,65.68,132198.297,1600,1000,327.8,0,30187,27464.372,0,11408.611,914566.722,29471.046,13750.272,0,3464.937,12117.063,73858.843,24327.843,718,53538,0,434175.473,0,0,0,9248.849,173407.361,86481.111,0,53833.944,9837.518,5946.383,33539.969,174577.116,28511.664,0,300260.8,21.5,19747.012,90938.847,0,17283.997,27389.795,5000,117043.198,88210.797,54946.789,0,1673.9,8931.419,117522.863,0,0,36488.819,45445.242,0,2740,23023.514,43970.682,0,0,22280.31,15873.745,172760.668,5290,384.56,31768.753,33544.706,62021.01,1104,14953.3,182048.316,889.2,0,315,139629.952,12751,0,7239.23,5,54531.743,420341.286,0,0,0,0,12981.191,231342.331,0,88532.756,0,0,5028.06,46.5,0,91209.499,114370.582,0,0,21005.984,3979.364,134931.044,42279.045,1081.81,0,0,3014,0,12400.132,0,0,72622.664,53329.916,0,0,0,0,0,69318.846,52251.03,11401.891,62
1998,73219.268,29424.012,15812.207,0,202522.127,0,0,117806.392,69815.723,877499.86,0,0,0,25521.897,4147.973,216966.448,89657.437,0,121,10706.3,27778.211,725,0,36866.611,10190.568,59881.544,11549.132,18225.539,74.9,89200.088,7010,8913,14107.9,0,1366.31,19182.057,0,26293.384,812382.84,9571.259,10974.49,0,7580.653,20440.685,66044.543,20364.274,1889.75,110104.533,0,593761.061,0,0,0,7676.236,121289.871,58435.78,0,71977.219,1727,3604,61151.756,158283.767,31559.62,0,302332.954,885788.995,12944.96,47812.473,0,0,119470.544,7000,142303.552,38370,19068,0,1069.21,15536.19,85634.832,0,30000,30418.273,64832.267,0,3040,23937.581,18623.049,0,0,21340,244.067,188831.329,2905,0,37595.693,89144.612,53723.608,0,40676.141,59572.884,1518.337,4268.12,0,265242.643,73693.414,0,59400,0,16926.284,303770.907,0,0,0,0,12040.522,117699.78,0,79566.732,0,0,68461.602,18046,0,31590.708,200962.847,21800,5000,26547.303,3692.868,117129.78,81246.974,8307.605,0,0,9859.25,0,3064.38,0,0,87650.055,39866,0,0,420,0,0,47495.017,35831.923,22422.357,56653
1999,134340.74,17275.282,36582.984,0,147623.183,0,0,18855.869,34492.846,1443045.548,0,0,0,11318.894,4347.591,75240.455,90786.898,0,147.2,4968,62199.591,6814.308,0,28732.348,6503.034,57036.806,1303.202,13364.363,155.31,355132.984,13055.711,234.993,12336.456,0,0,59217.255,0,37407.967,1026838.468,24665.372,10681.139,0,120010.546,41334.476,61194.522,69559.875,0,34999.308,0,876595.405,0,0,85,6507.118,106457.129,25825.018,0,116448.787,34953.095,17130.716,37267.09,145106.736,179156.129,0,350725.341,822611.116,7793.65,23113.278,0,13200,108712.512,50,71747.502,81865,17316,0,958.3,6134.597,99164.416,0,0,26585.144,73293.836,0,4890.9,14072.892,30650.979,0,2817.285,39000,10459.9,161143.676,6850,1952.847,55072.465,226692.496,37878.864,0,43118.096,444652.819,0,8018,0,115502.538,140364.8,4,27500,0,4539382.548,275177.278,0,37.483,0,0,31823.203,357361.674,0,31520.643,0,260.8,40158.947,8800,0,119769.081,293518.038,0,5000,29963.315,1178.397,68414.968,32256.779,2311.18,98286.275,9117.92,4008.5,0,0,4,8079.9,99333.093,0,0,0,0,0,0,74973.095,167718.104,34498.153,28318
2000,209964.17,18164.082,32817.388,0,296063.489,0,0,95517.987,28106.881,268917.677,0,0,86,12367.069,3587.455,79986.406,84322.353,0,126.2,561,33167.225,11282.206,0,61761.288,4153.635,53180.415,3214.289,23405.959,118.8,90500,12028,0,17717.883,0,0,23945.955,0,16888.589,1263563.928,73501.56,12037.066,0,1628.878,42128.81,40828.68,2768.3,1660.077,256940.783,0,1527067.04,0,0,1124.175,8356.537,70664.564,101160.611,0,136903.183,5167.28,27126.603,26291,163553.348,68228.596,0,321203.167,429110.299,3217.062,18418.294,0,46500,400665.644,0,291332.979,60000,4669,0,42399.657,6295.653,115895.234,0,0,43503.055,36286.048,0,2718,12319.537,16574.332,0,1608.6,45773,240939.818,185197.599,9653,2004.268,52555.859,62075.983,20395.796,1100,56529.446,19557.273,0,0,41.25,148675.84,218363,0,13831.04,0,1403007.415,232446.195,0,0,0,0,53943.521,300055.227,0,28258.554,0,0,60837.836,3044.6,0,55467.309,182381.155,0,0,35422.308,4764.779,60191.073,62910.177,1037.71,62767.011,32650.99,4012.4,0,3785.142,0,6544.2,86953.303,1.5,0,0,68400,0,11478.121,81524.029,195290.497,49481.743,16031.987
2001,276763.095,13061.36,39470.648,0,188876.122,0,0,37157.458,21360.86,813392.403,0,0,394.13,15931.622,4695.5,48608.895,82725.496,0,5,15000,42787.301,66430.527,6244.274,50385.407,8841.355,37496.478,976.931,38364.233,73,42000,35315.69,0,41418.959,0,0,29841.858,0,0,1525617.673,47614.475,11102.768,0,77831.496,151335.507,37701.259,60425.588,1942.5,319097.367,0,1154772.155,0,0,0,3350.962,96473.586,57470.951,0,102077.822,42854.815,6311.655,38777.3,67506.346,72262.662,0,229075.269,296430.719,15683.313,8541.264,0,20501.3,227375.182,0,357097.776,32971.305,18708,0,118176.2,3399.95,21854.567,0,0,59594.675,41575.512,0,7988.47,21129.127,38172.57,0,901.495,60028.235,62018.992,263337.113,3815,4455.903,46251.986,82418.603,62720.227,2204,184507.159,274993.159,0,0,0,202229.36,196037,0,49692.42,0,248712.797,65607.648,4901.843,0,0,0,30290.12,327387.181,0,62745.611,0,0,9470.907,51,0,125461.075,202815.318,0,0,17356.518,0,251503.81,184453.881,93.53,13305.596,3206,6010,0,0,0,17200.6,79983.407,1,0,0,104400,0,0,112993.7,187352.58,45315.484,27
2002,561872.501,57896.994,63129.982,0,262395.048,0,0,47266.458,18363.758,244691.843,0,0,0,21487.01,7692.229,102715.32,96200,0,91.2,12349.7,36292.826,36930.901,0,69308.378,2852.7,48504.268,7306.606,13078.414,62.9,109157,8739.813,0,18323.214,0,0,8842.376,0,14798.879,1208952.622,90789.839,21420.601,0,13011.495,83805.224,12055.832,91774.205,0,162010.157,0,338355.962,0,0,0,4304.523,78028.711,74252.981,0,239123.51,48316.762,7191.285,62692,235053.265,55725.098,0,306856.669,162942.032,7500.67,10911.412,0,0,228693.58,0,124553.774,73142.216,29347.995,0,94105.76,57519.426,37012.775,0,0,46825.51,198007.18,0,0,4849.784,42470,0,646.145,27754.685,6801.8,200811.27,9156.8,23670.25,47072.202,64148.586,37073.332,12500,81891.817,470560.558,0,0,0,237892.401,272729.3,0,22534.9,4759.3,104404.762,73377.367,0,0,0,0,9411.288,46866.712,0,85199.101,0,0,34017.911,15149.076,0,87171.235,149403.19,0,15531.165,9025.866,5587.043,180819.347,92990.46,1491.8,1012.326,0,9.6,0,0,0,0,82116.418,5536.5,0,0,199157.17,0,0,61800,180701.444,69281.027,255367.051
2003,226513.439,11812.311,10312.287,0,275138.089,0,46.936,42833.462,28778.547,461326.698,0,0,0,19639.222,6649.914,119992.533,24426,0,30,17000,30088.365,70457.452,0,25373.61,10333.532,40704.032,5742.2,19820.436,0,53494,9024.144,0,10273.834,0,0,3342.121,0,24701.023,963794.198,89054.284,7739.083,0,2450.499,5777.998,22537.26,11542.731,0,350150.722,0,2006649.341,0,0,0,18524.596,72092.611,84053.932,0,63322.659,41380.782,13202.955,0,62841.518,51089.423,0,73475.596,221550.159,31141.993,1049621.644,0,0,164822.969,0,149032.263,5000,20127.321,0,10000,28435.065,57281.933,0,0,59527.767,118192.888,0,14553.51,29026.674,88867.259,0,819.503,29500.5,1752.4,244084.243,6172.2,23173.455,34988.112,43034.26,21697.551,13300,66447.398,47828.028,0,0,0,68572.504,90500,0,20373.4,1188.56,76419.265,44044.037,0,0,0,0,36606.284,79853.566,0,56233.388,0,0,33217.979,21265,0,27284.397,256126.543,0,24197.387,11794.084,1543.046,102818.149,131920.666,1235,0,250,8001,0,0,0,0,197291.072,209100,0,0,20829.709,0,0,74970,33523.119,152326.625,366763.461
2004,233949.885,33868.614,52516.175,0,127653.393,0,0,11812.631,47378.658,223964.375,0,0,0,21410.752,6652.425,93909.728,0,0,71,0,39356.492,81653.967,0,31692.722,31237.959,35645.965,5867.731,46044.298,115,35130.87,13129.447,0,8254.611,0,0,4957.209,0,33299.406,877163.579,86532.752,10457.21,0,12996.75,21061.211,13890.191,12175.193,0,271325.818,0,760888.127,0,0,0,5973.616,97398.822,70817.72,0,69830.256,27393.465,4770.4,23000,120429.401,43623.792,0,144118.655,158673.123,3326.45,10378.776,0,11453.75,126859.218,570,144185.11,2265,25534.621,0,0,46103.063,83148.77,0,0,40655.125,78539.656,0,7450.06,13678.986,45475.33,0,0,28385,139.145,153458.883,18093.378,6019.681,50309.832,57930.694,38246.246,0,202569.723,59165.179,0,0,0,70051.635,29598,0,29774.8,0,39547.475,45728.341,0,0,0,0,20945.717,26176.105,0,37975.463,0,0,43696.923,58317,0,39253.04,384182.504,0,11866.328,16844.73,3026.018,82951.702,112660.371,10,0,7539,13,0,0,0,0,247153.497,0,0,0,82100,0,0,57760.8,191401.47,90832.813,273669.091
2005,207570.17,5842.196,41648.607,0,56528.846,0,0,21658.258,11818.366,292656.608,0,0,0,14898.385,2242.691,65243.65,0,0,0,66,38959.273,73494.079,0,24095.48,13565.86,28668.816,4822.805,73909.187,0,49046,14076.35,0,8845.29,0,0,6965.074,0,33735.976,1179811.55,103013.781,21116.969,0,270.789,43191.013,13892.489,66681.243,0,231671.88,0,1121535.98,0,0,0,11287.735,19698.066,66436.443,0,68511.984,41211.95,10890.765,112.84,136524.674,97894.568,0,101733.824,197018.766,2377.488,35776.84,0,11453.75,3318.58,0,155223.856,165920.891,19478.599,0,12000,43578.573,102301.246,0,0,47400.637,152695.409,0,10627.159,41115.61,92119.171,0,0,54812.22,0,117139.511,16466.66,1669.708,54430.109,42820.326,138937.636,19500,82613.594,30289.93,0,0,0,77877.668,120616.147,0,10493.4,7,26115.676,41726.33,0,0,0,0,29824.407,49,0,38873.558,0,0,39832.26,0,0,136096.133,931425.043,0,12082.031,9520.538,4834.128,72717.405,116352.839,833.143,0,1299.503,575.226,0,0,0,0,292617.346,11,0,0,0,0,0,0,21169.396,146006.957,80169.557
2006,162524.098,0,25955.153,0,27378.04,0,0,11226.273,92668.575,227668.1,150,0,0,14467.558,1385.233,117760.853,0,0,0,0,40785.976,84781.303,0,28255.716,11218.384,28191.534,11259.934,62705.425,0,0,17597.285,180,8461.501,0,0,4653.323,0,24269.361,358679.122,105035.164,12973.081,0,12000,31305.282,34466.889,19048.876,0,32000,0,750445.582,0,0,0,13433.758,33316.127,54346.337,0,109903.717,28807.226,7050.842,0,111807.148,101799.258,0,153194.76,109517.979,736.5,58906.629,0,3600,110469.85,4500,383670.861,26210,12876.488,0,35808.114,24386.3,71001.183,0,0,45255.927,242578.831,0,8423.56,38629.767,42384.992,0,60,9328.1,0,150626.044,27343.92,7381.664,59823.525,47424.517,97183.792,0,150808.467,170864.186,0,0,0,64654.989,19364.726,0,28000,0,22556.73,52019.454,0,0,0,0,14669.285,0,0,33678.424,0,0,205004.501,0,0,64753.477,596341.297,0,17278.005,5461.751,1311.59,205129.609,95208.8590000001,0,0,11651.842,731.807,0,0,0,0,265193.017,0,0,0,0,0,0,0,99803.601,111603.262,139504.296
2007,224908.212,0,28575.485,0,10838.226,0,0,86241.556,43007.172,220989.906,0,0,109,7143.747,3433.242,67007.242,0,0,0,0,43924.144,68254.395,27500.871,32284.442,5611.273,4957.235,30948.692,72118.246,0,0,18157.966,0,16222.85,0,0,3203.655,172,0,773767.227,111051.207,9036.226,0,0,759.476,2293.27,3938.951,0,15240.1,0,626893.293,0,0,0,8258.359,80082.994,41906.266,0,44787.657,19683.031,16190.804,0,107183.492,41337.632,0,118451.393,43412.668,1012.13,47859.662,0,1257.5,4405.506,1000,286146.041,58127,19715.945,0,1921.105,40361.199,47523.342,0,0,52756.294,94530.034,0,7628,50216.385,44238.116,0,0,33444.4,0,88630.679,25779.846,10953.067,46573.936,56059.258,79688.778,0,235420.994,21638.778,0,0,0,10751.632,110203.615,0,9415,0,16723.886,27157.132,1550.5,0,0,0,28097.616,0,0,32472.68,0,0,112031.514,0,0,84380.084,497516.905,0,17692.388,8536.663,0,22119.144,79879.409,0,0,14655.232,2252.277,0,0,0,0,266873.584,0,0,0,0,0,0,0,55416.486,41166.413,167381.169
2008,319781.323,0,37951.178,0,1.1,0,0,11055.014,2526.51,333105.011,0,0,47.8,11437.848,4121.922,13006.401,2.36,0,0,0,46128.485,39233.208,15511.678,44245.511,16159.783,11734.676,16317.256,85548.3519999999,0,1398.55,20772.979,0,3590.975,0,0,1408.275,0,0,380431.006,125973.956,12755.937,0,2941.14,2639.08,6139.408,1094.24,0,17233.3,0,1033772.544,0,0,0,4011.416,17551.365,44011.249,0,32357.908,43077.064,8570.124,0,209832.399,26749.253,0,52838.336,12444.885,1364.636,52008.789,0,0,6659.751,0,266744.518,421.406,15612.159,0,4205.506,18826.383,44693.753,0,0,33020.488,72866.047,0,6422.56,23586.3,56344.74,0,172.096,27299,0,143202.768,105637.22,4948.532,72531.868,36729.47,63650.555,0,187290.168,56946.805,0,0,0,8523.558,15466.86,0,45882,0,10880.54,26487.44,7797.542,0,0,0,30005.981,20.878,3500,32251.801,0,0,372754.852,0,0,74698.238,679191.287,0,18608.483,52301.599,0,39717.788,88219.304,0,0,8984.905,6528.407,0,0,0,0,194279.803,0,0,0,0,0,0,0,26686.376,33176.464,365858.488
2009,218432.203,0,24442.522,0,25.351,0,0,6314.011,6.104,164624.742,0,0,0,18957.31,1986.007,22211.534,24.203,0,37.684,0,30747.033,63383.674,35736.27,35318.756,10806.087,18115.76,26140.087,115636.495,0,0,17939.818,7500,7001.2,0,0,5404.741,0,0,308558.654,204068.312,23706.539,0,2793.243,615.3,1794.31,808.698,0,6.708,0,1171175.425,0,0,0,4756.877,23323.275,39906.818,0,72600.459,16236.991,3625.913,0,197392.987,9191.342,0,54823.484,11802.334,4194.072,24768.939,1159.981,0,4276.291,0,333946.247,21989.162,18517.485,0,1648.448,8909.793,30918.619,0,0,24116.415,103088.689,0,20361.41,30725.964,31032.722,0,0,25000,0,196946.92,77819.738,406.214,55832.602,9344.325,50567.12,0,212730.82,306659.049,25.007,0,0.271,810.302,73839.088,0,0,0,382.316,30593.408,5174.239,0,0,0,21916.361,60,0,22647.863,0,0,313444.08,0,0,89226.247,564548.628,0,3082.652,32595.268,0,50642.775,33901.517,5.013,0,8363.521,25424.759,0,0,0,0,145117.959,0,0,0,0.108,0,0,0,50438.761,18399.338,266868.874
2010,150069.652,7.121,43418.985,0,4452,0,0,1296.514,0,208504.587,0,0,0,19199.915,4086.612,10042.376,0,0,0,0,52646.765,27372.501,14971.321,22705.313,36778.568,16335.286,16404.927,164891.944,248.155,280,16505.628,0,9477.52,0,0,1018.98,0,0,106834.7,221480.394,13768.292,0,25200,3732.114,3232.27,4095.465,0,0,0,1585940.488,0,0,0,24568.041,1096.774,10779.666,0,76419.122,9768.042,13334.26,0,408289.789,6960.004,0,15547.937,1271.73,5761.152,8370.418,0,0,32.5,0,281241.287,40707.342,16274.893,0,786.8,7443.954,32930.488,0,0,29360.855,54634.316,0,12336.85,31438.823,40042.943,0,0,56.7,0,120523.779,33072.496,1408.515,36303.756,7608.076,230085.274,0,120361.489,1094816.957,0,0,0,113,88764.331,0,1,10,0,11882.425,3827.7,0,0,0,59067.001,0,0,33184.81,0,0,127113.254,25,304.9,75550.148,567741.966,0,5564.784,26492.726,0,9210.175,54173.209,5,0,6470.93,1122.553,0,0,0,0,96893.067,20,0,0,0,0,0,0,100465.571,17286.36,87506.553
2011,176447.606,10.833,42253.865,0,4453.4,0,0,451.555,0.511,101206.179,0,0,0,35574.917,3291.92,8028.14,0,0,0,0,28078.499,31653.901,33529.508,32443.559,18166.564,4181.122,29860.196,130407.677,60.7,0,30447.511,1745,9411.399,0,0,817.518,0,0,62766.243,95908.798,13019.642,0,11850,2358.729,12096.885,31491.73,0,13023,0,860776.52,0,0,0,2422.191,97.613,29646.543,0,72592.932,11796.643,6676.128,0,116209.936,33665.576,0,17826.69,3045.658,6113.051,382.306,681.312,0,50059.5,0,395496.545,15351.129,6176.544,0,4.6,12074.63,43622.109,69123.48,0,43138.641,64342.26,0,12338.22,39242.027,14386.767,0.114,0,33.43,0,139012.937,35335.505,1285.905,21077.877,40313.187,74590.536,2166.617,175099.616,478069.274,0,0,0,121.418,21086.09,0,1.3,3.1,27.206,17994.871,4204,0,0,0,15552.924,5.456,0,12949.763,0,0,233399.54,0,28144.476,46439.068,280988.237,0,15520.6,3518.581,0,1069.118,85056.074,85.47,0,17908.259,17847.518,0,18469.04,0,0,84967.408,16,0,0,0.176,0,0,10,106788.72,4405.164,48011.097
2012,106980.35,0,40033.846,0,91143,0,0,7.278,0,188330.288,0,0,0,8981.52,2582.32,2650.877,0,0,0,0,55830.561,19130.024,27519.871,27456.616,15038.112,6690.86,9597.069,141311.479,0,0,8835.608,0,10950.508,0,0,1268.74,0,0,375297.87,160321.896,19508.339,0,50220,1264.561,5383.75,3993.835,0,0,0,812116.289,0,0,0,33956.685,94.0369999999999,41247.69,0,25717.735,3244.23,7581.915,0,51545.081,40042.056,0,18925.543,1801.548,2577.889,272.7,4.003,0,5717.281,0,224536.614,3004.558,4448.325,0,3011.394,17864.911,67895.225,3962.567,0,36221.03,70762.905,0,0,104432.898,48395.039,0,0,16247.45,0,134680.115,52064.035,930.847,38416.683,8376.393,156363.079,1294.638,167780.728,209169.124,0,0,1924.62,0,30239.56,0,0,0,9.477,11880.195,4455,0,0,0,75612.756,0,0,12228.78,0,0,207735.051,16.1,110018.451,16126.485,202792.616,0,7775.899,72654.561,0,1670.761,42109.212,0,0,4268.044,0,0,0,0,0,60622.471,16.1,0,0,0,0,0,0,264374.749,3883.564,37331.252
