ServiceSupply:Food.crops,ServiceSupply:Fodder.crops,ServiceSupply:GF.redMeat,ServiceSupply:Fuel,ServiceSupply:Softwood,ServiceSupply:Hardwood,ServiceSupply:Biodiversity,ServiceSupply:Carbon,ServiceSupply:Recreation,ServiceSupply:Flood.reg,ServiceSupply:Employment,ServiceSupply:Ldiversity,ServiceSupply:GF.milk,ServiceSupply:Sus.Prod,Demand:Food.crops,Demand:Fodder.crops,Demand:GF.redMeat,Demand:Fuel,Demand:Softwood,Demand:Hardwood,Demand:Biodiversity,Demand:Carbon,Demand:Recreation,Demand:Flood.reg,Demand:Employment,Demand:Ldiversity,Demand:GF.milk,Demand:Sus.Prod,Region,Tick
15744.543,10252.981,14905.274,844.406,1093.276,1429.027,8368.364,9677.127,8323.257,5836.864,31060.840,6522.822,13175.281,1744.062,18937.516,12277.796,34894.063,884.693,4950.286,1790.892,39103.815,40126.085,36844.195,31448.940,48285.865,30316.529,22468.944,9696.828,England,2020
15137.996,9958.934,14995.609,886.635,2029.161,1796.468,9662.461,11290.432,9535.506,7055.457,31846.544,8009.385,13268.334,2284.680,19228.745,12680.477,31640.498,886.538,4960.615,1794.629,38558.438,39566.451,36458.642,31118.328,48386.612,29893.707,20447.030,9575.618,England,2021
14716.554,9806.218,15157.868,876.026,2873.723,1936.583,10722.037,12628.778,10589.524,8045.972,32433.734,9342.484,13385.273,2939.711,19518.657,13073.729,28441.273,888.384,4970.943,1798.366,38010.450,39004.137,36073.090,30787.717,48487.360,29468.861,18445.234,9454.407,England,2022
14391.662,9860.162,15167.264,875.474,3498.019,2088.911,11717.904,13873.753,11625.779,8974.315,32805.869,10727.618,13403.853,3614.196,19810.617,13455.219,25310.344,890.230,4981.272,1802.102,37459.851,38439.144,35687.537,30457.105,48588.107,29041.991,16472.673,9333.197,England,2023
14220.762,9962.711,14992.070,888.057,4018.185,2263.523,12699.121,15053.592,12617.141,9841.723,33058.823,12124.795,13369.094,4275.710,20048.338,13236.173,23986.937,892.076,4991.601,1805.839,36906.641,37871.472,35301.985,30126.493,48688.855,28613.097,15595.255,9211.987,England,2024
14241.785,10056.601,14790.094,877.824,4399.735,2406.418,13573.726,16108.825,13559.412,10626.374,33199.542,13492.355,13299.312,4959.619,20262.054,12905.955,23030.319,893.922,5001.929,1809.576,36350.821,37301.121,34916.432,29795.881,48789.602,28182.179,14944.106,9090.776,England,2025
14430.258,10194.237,14470.221,888.449,4644.312,2580.288,14449.144,17150.302,14508.870,11418.089,33236.461,14842.763,13097.209,5588.758,20435.919,12639.433,21790.398,894.555,5005.469,1810.856,35743.908,36678.342,34530.880,29465.270,48824.127,27711.650,14123.365,8969.566,England,2026
14811.878,10031.929,14256.590,888.508,4818.076,2757.803,15222.713,18071.792,15381.162,12129.953,33263.759,16114.778,13002.199,6214.740,20599.894,12163.600,21151.321,895.187,5009.008,1812.137,35136.101,36054.645,34145.328,29134.658,48858.652,27240.427,13661.653,8848.356,England,2027
15239.379,9970.021,13960.149,892.105,4955.366,2930.512,15985.541,18966.490,16231.577,12827.121,33222.490,17326.793,12810.450,6810.731,20782.277,11822.257,20264.010,895.820,5012.548,1813.417,34527.399,35430.030,33759.775,28804.046,48893.177,26768.510,13066.337,8727.145,England,2028
15711.127,9828.906,13820.759,885.696,5017.478,3108.458,16652.145,19726.455,16974.804,13424.911,33187.301,18370.275,12762.866,7339.197,20963.259,11458.092,19531.824,896.452,5016.087,1814.698,33917.802,34804.497,33374.223,28473.434,48927.702,26295.900,12572.481,8605.935,England,2029
16016.788,9654.118,13686.653,896.054,5047.166,3250.336,17183.212,20319.718,17562.752,13921.167,33015.229,19169.969,12713.453,7715.722,21084.597,11104.614,18820.730,897.085,5019.627,1815.978,33307.311,34178.046,32988.670,28142.823,48962.227,25822.597,12093.867,8484.725,England,2030
16216.931,9285.037,13433.688,879.804,5028.741,3383.314,17789.226,20959.318,18223.935,14514.230,32637.330,20040.585,12531.317,8027.447,21059.285,10688.509,18086.711,896.954,5018.895,1815.713,32668.119,33522.144,32603.118,27812.211,48955.084,25327.042,11569.638,8363.514,England,2031
16348.582,9433.410,13225.730,885.795,4937.340,3439.297,18163.593,21295.844,18615.556,14907.669,32308.237,20461.422,12394.614,8039.346,21107.866,10518.952,17679.243,896.823,5018.162,1815.448,32029.112,32866.432,32217.565,27481.599,48947.941,24831.631,11322.601,8242.304,England,2032
16419.761,9418.377,13119.217,879.336,4945.559,3458.778,18536.515,21631.055,18981.749,15294.478,32105.825,20786.991,12344.931,7978.895,21155.328,10559.985,17854.500,896.692,5017.430,1815.183,31390.291,32210.911,31832.013,27150.987,48940.798,24336.364,11460.584,8121.093,England,2033
16445.888,9528.627,13111.206,883.700,4881.678,3387.057,18675.945,21702.086,19132.741,15481.499,31900.012,20832.618,12389.480,7807.358,21201.432,10603.475,18029.287,896.561,5016.698,1814.919,30751.655,31555.579,31446.461,26820.376,48933.655,23841.240,11598.639,7999.883,England,2034
16522.234,9516.328,13123.414,876.728,4868.611,3298.492,18818.838,21767.249,19259.165,15628.141,31748.615,20864.806,12454.925,7699.309,21243.029,10648.712,18203.214,896.430,5015.965,1814.654,30113.204,30900.437,31060.908,26489.764,48926.512,23346.259,11736.778,7878.673,England,2035
16510.429,9641.868,13168.016,881.587,4857.754,3141.707,18789.851,21657.850,19213.794,15624.953,31604.425,20680.858,12548.922,7486.929,21263.594,10740.061,18346.052,895.738,5012.090,1813.252,29456.467,30226.531,30675.356,26159.152,48888.713,22837.102,11875.209,7757.462,England,2036
16572.578,9704.513,13210.329,875.345,4827.211,2976.846,18730.209,21514.081,19154.812,15589.614,31408.763,20529.115,12640.695,7352.447,21285.751,10834.484,18492.454,895.045,5008.215,1811.850,28800.710,29553.631,30289.803,25828.540,48850.914,22328.705,12020.590,7636.252,England,2037
16634.812,9810.380,13245.251,880.209,4795.787,2733.206,18580.479,21262.202,19003.435,15464.293,31184.990,20296.651,12724.980,7270.410,21304.478,10931.999,18644.613,894.353,5004.340,1810.448,28145.932,28881.736,29904.251,25497.929,48813.115,21821.067,12170.475,7515.042,England,2038
16628.854,9876.282,13294.162,877.348,4777.264,2497.597,18452.594,21022.095,18865.118,15367.058,30918.803,20023.144,12816.840,7081.249,21318.771,11033.344,18803.996,893.660,5000.465,1809.046,27492.134,28210.846,29518.698,25167.317,48775.316,21314.188,12325.426,7393.831,England,2039
16595.302,9910.647,13269.064,874.203,4747.669,2225.706,18137.337,20613.883,18566.918,15103.855,30509.269,19659.809,12839.645,6990.153,21329.127,11140.695,18973.162,892.968,4996.590,1807.644,26839.315,27540.961,29133.146,24836.705,48737.517,20808.069,12487.550,7272.621,England,2040
16569.469,9863.868,13505.630,871.870,4804.570,2021.840,18086.570,20476.706,18483.893,15083.521,30270.328,19482.676,13108.974,6831.090,21259.365,11121.177,19117.946,891.771,4989.892,1805.221,26172.672,26856.890,28747.594,24506.093,48672.187,20291.232,12578.555,7151.411,England,2041
16547.765,9952.834,13737.264,871.265,4686.386,1836.613,17903.732,20189.342,18293.885,14936.422,29952.125,19232.608,13377.441,6684.169,21214.118,11196.547,19277.008,890.574,4983.194,1802.798,25507.722,26174.556,28362.041,24175.482,48606.858,19775.707,12719.417,7030.200,England,2042
16499.936,10022.399,13868.518,866.617,4720.824,1759.261,17824.857,20042.350,18146.552,14876.404,29734.029,19010.097,13544.938,6524.729,21165.074,11279.125,19449.387,889.377,4976.497,1800.375,24844.465,25493.960,27976.489,23844.870,48541.528,19261.495,12869.510,6908.990,England,2043
16464.947,10083.036,14003.900,864.887,4728.406,1762.710,17702.726,19858.680,17968.794,14791.580,29601.266,18827.149,13722.889,6466.680,21114.445,11375.903,19633.982,888.180,4969.799,1797.952,24182.900,24815.101,27590.936,23514.258,48476.199,18748.595,13031.115,6787.780,England,2044
16314.498,10150.453,14159.941,865.637,4712.904,1749.717,17555.048,19651.819,17777.532,14695.174,29447.760,18555.465,13911.568,6242.820,21059.224,11472.762,19831.778,886.983,4963.102,1795.529,23523.029,24137.979,27205.384,23183.646,48410.869,18237.008,13198.207,6666.569,England,2045
16297.507,10203.102,14301.525,866.826,4564.995,1742.039,17230.904,19283.540,17486.513,14454.391,29202.033,18325.779,14086.814,6245.193,20985.299,11589.353,20010.635,885.112,4952.636,1791.742,22847.467,23444.756,26819.831,22853.035,48308.782,17713.256,13368.083,6545.359,England,2046
16030.126,10240.961,14419.774,852.000,4697.414,1731.775,17143.815,19104.857,17291.427,14408.409,29054.292,17940.216,14219.344,5871.884,20899.504,11711.024,20199.446,883.242,4942.170,1787.956,22174.550,22754.247,26434.279,22522.423,48206.695,17191.555,13543.574,6424.149,England,2047
16062.207,10321.416,14497.287,862.714,4453.520,1726.610,16596.203,18539.814,16833.144,13983.902,28761.583,17663.050,14334.232,6047.332,20812.472,11833.795,20399.462,881.372,4931.704,1784.170,21504.279,22066.454,26048.727,22191.811,48104.609,16671.905,13724.563,6302.938,England,2048
15648.806,10327.810,14594.237,848.651,4627.926,1717.255,16586.706,18455.392,16732.059,14033.224,28625.962,17316.361,14444.069,5530.851,20693.180,11930.776,20608.202,879.501,4921.238,1780.383,20836.653,21381.375,25663.174,21861.199,48002.522,16154.306,13895.358,6181.728,England,2049
15650.780,10320.001,14577.771,856.751,4407.887,1710.233,15887.940,17762.359,16126.414,13436.967,28247.825,16917.708,14456.988,5764.078,20568.094,12017.532,20826.373,877.631,4910.772,1776.597,20171.673,20699.010,25277.622,21530.588,47900.435,15638.758,14064.284,6060.517,England,2050
15202.462,10383.676,14428.312,845.770,4619.850,1696.232,16076.268,17885.937,16224.641,13674.880,27994.427,16796.544,14300.799,5315.595,20404.145,12143.408,21016.921,875.120,4896.720,1771.514,19495.065,20004.714,24892.069,21199.976,47763.377,15114.195,14240.599,5939.307,England,2051
15239.279,10405.920,14530.359,847.965,4034.387,1708.169,15133.962,16964.102,15522.630,12918.570,27450.008,16405.832,14413.780,5580.584,20234.968,12274.639,21216.980,872.608,4882.669,1766.430,18822.008,19314.062,24506.517,20869.364,47626.319,14592.386,14425.491,5818.097,England,2052
14668.518,10413.628,14378.648,842.938,4406.355,1677.462,15392.239,17211.242,15706.177,13272.783,27275.667,16321.978,14256.685,5011.742,20065.543,12351.286,21261.856,870.097,4868.618,1761.347,18152.503,18627.054,24120.964,20538.752,47489.260,14073.330,14503.434,5696.886,England,2053
14845.344,10107.677,14305.400,842.369,4278.293,1674.926,14978.672,16823.145,15390.641,12922.612,26867.151,16230.280,14188.320,5308.063,19883.147,12254.543,20825.128,867.586,4854.567,1756.263,17486.550,17943.692,23735.412,20208.141,47352.202,13557.028,14245.483,5575.676,England,2054
14527.711,10205.144,14095.388,838.589,4493.039,1662.036,15007.238,16774.793,15308.148,12988.782,26579.022,15861.280,13949.454,4799.866,19700.873,12153.058,20371.075,865.075,4840.515,1751.180,16824.149,17263.974,23349.859,19877.529,47215.144,13043.479,13973.449,5454.466,England,2055
14599.023,10237.969,14163.050,837.490,3892.000,1681.328,13894.519,15676.365,14412.714,12011.169,25999.154,15287.917,14018.506,5098.751,19571.704,12191.827,20314.940,861.958,4823.077,1744.871,16153.956,16576.260,22964.307,19546.917,47045.049,12523.890,13977.729,5333.255,England,2056
14264.428,10104.760,13885.828,831.439,4290.387,1650.188,14219.454,15986.197,14661.890,12423.540,25770.769,15304.794,13744.001,4624.876,19284.850,12049.678,19844.007,858.842,4805.639,1738.563,15488.171,15893.070,22578.755,19216.305,46874.954,12007.718,13672.080,5212.045,England,2057
14270.258,9774.134,13966.769,829.784,4141.003,1641.829,13810.654,15589.900,14343.757,12073.873,25374.027,15192.400,13821.321,4897.812,18963.955,11823.114,19532.992,855.725,4788.201,1732.254,14826.794,15214.403,22193.202,18885.694,46704.859,11494.963,13407.836,5090.835,England,2058
13940.431,9843.836,13726.488,825.714,4402.026,1635.737,13849.011,15583.595,14306.470,12193.322,25097.165,14851.338,13549.726,4312.159,18975.744,11709.529,19050.590,852.609,4770.762,1725.945,14169.825,14540.259,21807.650,18555.082,46534.764,10985.626,13111.886,4969.624,England,2059
14044.624,9736.307,13612.325,829.508,3840.399,1636.957,12986.394,14722.015,13629.431,11438.913,24351.269,14504.109,13439.392,4637.033,18975.277,11597.635,18571.695,849.492,4753.324,1719.636,13517.263,13870.638,21422.097,18224.470,46364.669,10479.707,12813.868,4848.414,England,2060
13516.465,9650.495,13070.688,802.431,4126.718,1602.169,13030.404,14727.944,13591.026,11574.939,23911.304,14205.745,12893.555,4071.881,18838.431,11733.295,18783.006,845.912,4733.292,1712.389,12862.063,13198.308,21036.545,17893.858,46169.275,9971.740,13001.931,4727.204,England,2061
13172.992,9468.598,12870.104,811.626,3938.615,1583.259,12233.764,13943.826,12871.574,10840.339,23348.948,13751.550,12711.980,4357.129,18698.239,11869.188,18994.918,842.332,4713.261,1705.142,12211.925,12531.175,20650.992,17563.247,45973.882,9467.700,13191.398,4605.993,England,2062
12462.337,9412.773,12674.228,793.787,4050.599,1557.346,11903.850,13535.456,12457.063,10577.092,22888.117,13104.074,12518.591,3865.695,18546.946,12005.786,19207.021,838.752,4693.229,1697.895,11566.851,11869.237,20265.440,17232.635,45778.488,8967.585,13382.042,4484.783,England,2063
12070.126,9140.354,12537.407,796.374,3586.480,1539.482,11195.676,12809.751,11892.433,9984.315,22096.570,12851.489,12401.790,4130.288,18392.861,12141.879,19418.405,835.172,4673.197,1690.648,10926.841,11212.496,19879.888,16902.023,45583.094,8471.396,13573.128,4363.573,England,2064
11377.004,9014.280,12166.764,777.767,3797.299,1523.632,11079.652,12626.898,11689.048,9925.918,21623.681,12490.875,12044.421,3773.743,18145.352,12220.878,19474.748,831.592,4653.165,1683.401,10291.895,10560.950,19494.335,16571.411,45387.701,7979.133,13654.215,4242.362,England,2065
11012.788,8679.273,11741.304,774.233,3766.608,1504.432,10812.331,12330.886,11436.776,9709.165,21018.182,12390.566,11632.374,3891.657,18044.419,12097.224,18985.069,827.732,4631.562,1675.586,9658.735,9911.238,19108.783,16240.800,45176.980,7488.254,13335.712,4121.152,England,2066
10576.371,8403.154,11293.592,764.491,3675.517,1496.411,10674.946,12075.586,11268.775,9629.735,20280.962,12206.496,11181.170,3752.526,17768.957,11869.454,18490.065,823.871,4609.959,1667.770,9031.035,9267.129,18723.230,15910.188,44966.258,7001.610,12972.230,3999.942,England,2067
10159.236,8085.060,10852.870,756.468,3617.801,1474.215,10336.249,11659.374,10909.394,9350.612,19583.547,11869.389,10742.186,3646.095,17763.941,11743.521,17997.102,820.010,4588.355,1659.955,8408.797,8628.624,18337.678,15579.576,44755.537,6519.199,12655.902,3878.731,England,2068
9657.234,7765.681,10366.546,747.572,3526.027,1455.761,10194.591,11434.965,10759.224,9289.824,18809.724,11756.469,10255.928,3533.324,17675.353,11619.591,17513.001,816.149,4566.752,1652.139,7792.019,7995.722,17952.125,15248.964,44544.815,6041.021,12344.070,3757.521,England,2069
9059.739,7446.475,9881.219,737.710,3438.229,1438.725,9714.779,10894.489,10268.637,8892.810,17993.471,11329.159,9777.187,3420.855,17534.247,11546.354,17172.691,812.288,4545.149,1644.324,7180.703,7368.424,17566.573,14918.353,44334.094,5567.078,12134.898,3636.311,England,2070
8655.682,7673.679,10183.520,766.198,3234.306,1426.740,9359.713,10515.335,9923.079,8526.241,17974.443,11054.227,10081.829,3505.385,17412.891,11657.596,17344.571,808.196,4522.249,1636.039,7144.524,7331.299,17181.021,14587.741,44110.723,5539.029,12296.115,3515.100,England,2071
8544.876,7664.660,10228.600,718.671,3352.415,1423.906,9375.475,10419.015,9812.101,8514.681,17930.835,10710.231,10111.510,3209.185,17291.049,11765.235,17510.814,804.103,4499.349,1627.754,7108.345,7294.175,16795.468,14257.129,43887.352,5510.980,12454.252,3393.890,England,2072
8562.330,7666.677,10215.835,757.226,3362.509,1420.870,9414.572,10464.287,9884.017,8580.229,17963.538,10792.280,10101.973,3232.957,17169.653,11868.915,17670.604,800.011,4476.449,1619.470,7072.166,7257.050,16409.916,13926.517,43663.982,5482.931,12608.865,3272.679,England,2073
8491.810,7681.509,10264.582,722.186,3383.079,1413.848,9334.160,10321.714,9739.276,8494.294,17923.209,10511.963,10142.417,3044.298,17042.614,11969.961,17825.337,795.918,4453.549,1611.185,7035.987,7219.925,16024.363,13595.906,43440.611,5454.882,12761.062,3151.469,England,2074
8514.706,7716.249,10299.268,749.618,3290.959,1404.994,9272.543,10247.534,9710.086,8449.207,17890.899,10462.017,10173.725,3005.871,16944.203,11981.608,17971.263,791.825,4430.649,1602.900,6999.808,7182.801,15638.811,13265.294,43217.240,5426.833,12863.498,3030.259,England,2075
8496.818,7671.089,10277.022,727.930,3373.059,1413.112,9342.179,10291.455,9749.390,8532.923,17887.551,10456.611,10148.305,2959.091,16688.409,11661.761,17438.061,787.444,4406.131,1594.031,6961.074,7143.054,15253.258,12934.682,42978.095,5396.804,12428.107,2909.048,England,2076
8589.539,7719.345,10243.020,742.869,3360.895,1400.918,9280.133,10221.100,9676.379,8427.158,17901.940,10360.063,10110.727,2949.022,16493.919,11505.982,16911.144,783.062,4381.614,1585.161,6922.341,7103.308,14867.706,12604.070,42738.950,5366.774,12080.106,2787.838,England,2077
8655.898,7715.635,10149.549,729.210,3418.261,1406.344,9351.651,10270.214,9721.839,8499.312,17854.432,10381.748,10012.922,2931.626,16313.772,11347.977,16382.760,778.681,4357.097,1576.291,6883.607,7063.561,14482.154,12273.459,42499.805,5336.744,11729.009,2666.628,England,2078
8758.023,7774.284,10152.139,734.203,3309.656,1398.701,9088.445,10010.108,9480.187,8220.018,17830.658,10164.375,10015.879,2955.049,16134.881,11325.253,16226.893,774.299,4332.580,1567.421,6844.873,7023.815,14096.601,11942.847,42260.660,5306.715,11649.864,2545.417,England,2079
8726.226,7726.888,10110.310,725.901,3362.614,1391.838,9135.702,10043.774,9518.411,8281.168,17783.006,10173.481,9972.497,2922.117,15968.135,11329.677,16149.569,769.917,4308.062,1558.552,6806.139,6984.068,13711.049,11612.235,42021.515,5276.685,11628.102,2424.207,England,2080
