ServiceSupply:Food.crops,ServiceSupply:Fodder.crops,ServiceSupply:GF.redMeat,ServiceSupply:Fuel,ServiceSupply:Softwood,ServiceSupply:Hardwood,ServiceSupply:Biodiversity,ServiceSupply:Carbon,ServiceSupply:Recreation,ServiceSupply:Flood.reg,ServiceSupply:Employment,ServiceSupply:Ldiversity,ServiceSupply:GF.milk,ServiceSupply:Sus.Prod,Demand:Food.crops,Demand:Fodder.crops,Demand:GF.redMeat,Demand:Fuel,Demand:Softwood,Demand:Hardwood,Demand:Biodiversity,Demand:Carbon,Demand:Recreation,Demand:Flood.reg,Demand:Employment,Demand:Ldiversity,Demand:GF.milk,Demand:Sus.Prod,Region,Tick
185.198,56.838,6270.418,0.077,695.808,150.901,1827.870,2416.190,2084.660,1931.095,2795.800,1681.359,4673.086,925.931,1023.061,663.283,1885.082,47.794,267.429,96.749,2112.505,2167.731,1990.434,1698.966,2608.547,1637.789,1213.839,9696.828,Wales,2020
210.008,116.871,5821.785,47.264,689.120,143.699,1781.751,2362.843,2018.271,1877.511,2749.865,1690.655,4330.167,888.192,1038.794,685.037,1709.314,47.893,267.987,96.951,2083.042,2137.498,1969.678,1680.854,2613.989,1614.947,1104.610,9575.618,Wales,2021
242.689,188.304,5364.542,47.724,683.043,137.188,1746.623,2306.120,1966.547,1817.393,2654.489,1730.571,3974.759,856.392,1054.456,706.282,1536.483,47.993,268.545,97.153,2053.438,2107.120,1948.923,1662.742,2619.432,1591.996,996.467,9454.407,Wales,2022
281.022,251.877,4913.467,46.964,676.582,127.540,1702.954,2239.963,1907.675,1749.175,2557.209,1758.808,3624.367,826.843,1070.229,726.891,1367.340,48.093,269.103,97.355,2023.693,2076.597,1928.167,1644.630,2624.875,1568.935,889.903,9333.197,Wales,2023
314.567,306.843,4466.412,49.116,671.913,122.484,1667.299,2184.210,1855.038,1688.866,2476.415,1794.388,3279.008,793.417,1083.071,715.058,1295.846,48.193,269.661,97.557,1993.807,2045.930,1907.412,1626.517,2630.317,1545.765,842.502,9211.987,Wales,2024
352.859,369.238,4009.442,47.668,669.342,114.147,1633.689,2129.605,1805.268,1629.648,2384.643,1832.915,2921.285,766.540,1094.617,697.218,1244.167,48.292,270.219,97.759,1963.780,2015.118,1886.656,1608.405,2635.760,1522.486,807.325,9090.776,Wales,2025
410.087,423.392,3528.522,48.588,673.245,110.334,1603.368,2079.699,1754.832,1571.831,2299.177,1875.230,2540.241,741.319,1104.009,682.820,1177.182,48.327,270.410,97.828,1930.993,1981.474,1865.901,1590.293,2637.625,1497.066,762.986,8969.566,Wales,2026
477.562,467.841,3048.354,48.533,682.074,105.728,1581.988,2040.967,1714.870,1524.327,2215.695,1932.852,2161.572,712.983,1112.868,657.114,1142.658,48.361,270.602,97.897,1898.157,1947.780,1845.146,1572.181,2639.490,1471.609,738.043,8848.356,Wales,2027
563.994,487.722,2610.665,48.458,690.740,99.292,1561.248,2002.558,1675.873,1475.232,2134.873,1996.675,1823.742,686.888,1122.721,638.674,1094.722,48.395,270.793,97.966,1865.273,1914.036,1824.390,1554.069,2641.356,1446.115,705.883,8727.145,Wales,2028
658.816,499.163,2172.013,47.836,704.010,97.332,1550.213,1973.530,1643.050,1434.536,2060.843,2065.966,1482.428,662.825,1132.498,619.000,1055.168,48.429,270.984,98.035,1832.341,1880.243,1803.635,1535.957,2643.221,1420.583,679.203,8605.935,Wales,2029
751.018,503.516,1739.896,49.382,720.089,96.856,1531.768,1939.325,1602.960,1387.513,1990.804,2128.132,1149.290,637.163,1139.053,599.904,1016.752,48.463,271.175,98.105,1799.360,1846.400,1782.879,1517.845,2645.086,1395.014,653.347,8484.725,Wales,2030
843.968,511.510,1431.105,48.518,732.581,99.799,1561.270,1970.026,1628.226,1395.130,1989.569,2228.636,882.457,649.928,1137.685,577.425,977.098,48.456,271.136,98.090,1764.829,1810.966,1762.124,1499.733,2644.700,1368.243,625.026,8363.514,Wales,2031
927.423,526.131,1160.950,50.629,737.087,102.946,1561.875,1967.753,1623.132,1375.749,1980.252,2303.559,658.611,656.206,1140.310,568.265,955.086,48.449,271.096,98.076,1730.308,1775.543,1741.368,1481.621,2644.314,1341.479,611.681,8242.304,Wales,2032
994.041,544.156,1008.506,53.866,736.866,105.831,1555.140,1958.694,1613.161,1351.030,1975.515,2362.986,554.826,672.083,1142.874,570.482,964.553,48.442,271.057,98.062,1695.797,1740.130,1720.613,1463.509,2643.928,1314.723,619.135,8121.093,Wales,2033
1044.537,533.713,1022.956,56.625,735.545,113.663,1555.619,1958.716,1610.473,1335.142,2000.176,2397.090,610.586,700.385,1145.365,572.831,973.996,48.435,271.017,98.047,1661.296,1704.727,1699.858,1445.397,2643.542,1287.975,626.593,7999.883,Wales,2034
1056.386,576.502,996.953,65.097,747.213,125.965,1578.593,1987.398,1628.336,1335.537,2032.718,2487.560,625.001,759.285,1147.612,575.275,983.392,48.428,270.977,98.033,1626.805,1669.334,1679.102,1427.285,2643.156,1261.235,634.056,7878.673,Wales,2035
1094.318,565.856,981.971,71.354,760.971,138.086,1597.747,2016.314,1647.182,1337.483,2073.205,2587.211,637.518,807.008,1148.723,580.210,991.109,48.390,270.768,97.957,1591.326,1632.928,1658.347,1409.173,2641.114,1233.729,641.534,7757.462,Wales,2036
1117.492,584.614,966.883,84.825,772.319,155.358,1577.936,2014.285,1630.770,1301.350,2128.738,2658.395,647.184,885.585,1149.920,585.311,999.018,48.353,270.559,97.882,1555.900,1596.575,1637.591,1391.061,2639.072,1206.263,649.388,7636.252,Wales,2037
1118.767,583.202,975.499,100.383,785.603,168.786,1594.390,2052.529,1654.548,1312.830,2185.144,2742.486,674.491,947.873,1150.932,590.579,1007.238,48.316,270.349,97.806,1520.527,1560.278,1616.836,1372.948,2637.030,1178.839,657.485,7515.042,Wales,2038
1111.190,595.513,981.896,108.105,785.487,178.899,1594.002,2064.638,1660.553,1299.200,2217.406,2831.444,701.862,1024.187,1151.704,596.054,1015.848,48.278,270.140,97.730,1485.207,1524.034,1596.081,1354.836,2634.988,1151.456,665.856,7393.831,Wales,2039
1121.460,588.909,987.543,115.029,776.531,181.356,1564.449,2046.549,1642.314,1265.691,2231.626,2857.593,727.915,1069.430,1152.263,601.854,1024.987,48.241,269.931,97.654,1449.940,1487.845,1575.325,1336.724,2632.946,1124.114,674.615,7272.621,Wales,2040
1084.853,584.856,1017.946,124.578,777.229,190.116,1578.762,2077.123,1666.070,1281.760,2248.348,2965.542,759.766,1130.598,1148.494,600.799,1032.809,48.176,269.569,97.523,1413.926,1450.889,1554.570,1318.612,2629.417,1096.193,679.531,7151.411,Wales,2041
1096.261,588.388,1012.466,124.820,746.975,187.697,1472.283,1976.471,1579.172,1175.140,2219.349,2980.851,767.655,1196.436,1146.050,604.871,1041.402,48.111,269.207,97.393,1378.003,1414.028,1533.814,1300.500,2625.888,1068.343,687.141,7030.200,Wales,2042
1062.511,589.148,1028.490,131.793,756.417,199.193,1504.562,2019.532,1615.495,1205.936,2236.876,3090.510,792.743,1250.077,1143.401,609.332,1050.714,48.047,268.845,97.262,1342.172,1377.260,1513.059,1282.388,2622.358,1040.564,695.249,6908.990,Wales,2043
1067.140,588.675,1019.788,129.707,734.325,191.594,1487.124,1996.711,1604.899,1178.851,2202.072,3162.029,804.145,1296.790,1140.665,614.560,1060.686,47.982,268.483,97.131,1306.433,1340.586,1492.303,1264.276,2618.829,1012.855,703.980,6787.780,Wales,2044
1038.456,591.693,1035.736,128.899,725.491,199.125,1490.637,2003.338,1612.956,1181.550,2195.997,3227.271,830.453,1325.776,1137.682,619.793,1071.372,47.917,268.122,97.000,1270.784,1304.006,1471.548,1246.164,2615.300,985.218,713.007,6666.569,Wales,2045
1036.295,593.237,1041.005,123.698,666.016,190.102,1423.517,1923.289,1561.523,1111.298,2127.140,3252.985,851.873,1360.393,1133.689,626.091,1081.034,47.816,267.556,96.795,1234.288,1266.556,1450.793,1228.052,2609.785,956.923,722.184,6545.359,Wales,2046
1009.677,594.884,1048.988,127.757,668.372,195.983,1435.982,1940.366,1574.730,1124.240,2131.127,3316.869,870.785,1379.096,1129.054,632.664,1091.234,47.715,266.991,96.591,1197.935,1229.252,1430.037,1209.940,2604.270,928.739,731.664,6424.149,Wales,2047
996.143,593.747,1048.997,124.685,642.735,188.610,1420.263,1912.655,1562.707,1100.652,2085.341,3363.078,881.725,1416.123,1124.352,639.297,1102.040,47.614,266.425,96.386,1161.725,1192.096,1409.282,1191.828,2598.755,900.666,741.442,6302.938,Wales,2048
977.319,593.532,1054.927,124.384,629.619,186.029,1406.133,1895.410,1551.959,1087.193,2062.519,3401.930,896.029,1423.867,1117.907,644.536,1113.317,47.513,265.860,96.182,1125.658,1155.086,1388.526,1173.716,2593.240,872.704,750.669,6181.728,Wales,2049
958.058,592.119,1062.694,122.881,606.237,182.756,1381.481,1866.096,1534.243,1065.572,2027.446,3424.273,912.480,1424.246,1111.150,649.223,1125.103,47.412,265.295,95.977,1089.734,1118.222,1367.771,1155.604,2587.725,844.852,759.795,6060.517,Wales,2050
935.924,591.085,1083.238,121.340,585.601,183.580,1373.704,1857.476,1533.819,1064.089,2002.913,3464.166,929.106,1426.463,1102.293,656.023,1135.397,47.277,264.535,95.702,1053.182,1080.714,1347.016,1137.492,2580.320,816.514,769.320,5939.307,Wales,2051
922.157,593.618,1078.852,119.341,566.587,179.437,1345.895,1827.111,1511.227,1042.219,1967.990,3474.143,921.648,1416.910,1093.153,663.113,1146.205,47.141,263.776,95.428,1016.821,1043.403,1326.260,1119.379,2572.916,788.324,779.308,5818.097,Wales,2052
899.912,592.289,1097.853,119.492,562.226,180.198,1340.748,1822.316,1508.002,1046.659,1954.620,3471.241,935.488,1386.008,1084.001,667.253,1148.629,47.005,263.017,95.153,980.652,1006.289,1305.505,1101.267,2565.512,760.283,783.519,5696.886,Wales,2053
911.032,595.335,949.779,117.850,544.511,178.559,1307.749,1789.618,1481.741,1018.313,1904.951,3498.724,782.142,1391.925,1074.147,662.027,1125.036,46.870,262.258,94.879,944.676,969.372,1284.749,1083.155,2558.107,732.391,769.584,5575.676,Wales,2054
882.967,582.812,1013.902,115.992,507.091,177.650,1281.480,1761.320,1468.611,1002.938,1867.224,3484.085,828.941,1400.238,1064.300,656.545,1100.506,46.734,261.499,94.604,908.891,932.651,1263.994,1065.043,2550.703,704.648,754.887,5454.466,Wales,2055
863.276,576.623,1034.143,116.699,504.006,180.215,1278.930,1760.925,1468.287,1008.585,1854.697,3489.602,843.574,1388.516,1057.322,658.639,1097.474,46.566,260.557,94.263,872.685,895.499,1243.238,1046.931,2541.514,676.578,755.119,5333.255,Wales,2056
854.590,569.416,1019.579,115.412,489.174,180.352,1259.709,1738.801,1450.481,992.808,1824.182,3499.394,826.449,1380.828,1041.825,650.960,1072.033,46.397,259.615,93.922,836.717,858.591,1222.483,1028.819,2532.325,648.693,738.607,5212.045,Wales,2057
838.939,557.974,1022.906,115.667,489.376,184.216,1258.677,1742.114,1452.179,998.583,1815.442,3519.972,824.622,1376.129,1024.490,638.720,1055.231,46.229,258.673,93.582,800.988,821.928,1201.728,1010.707,2523.136,620.992,724.331,5090.835,Wales,2058
835.715,554.235,858.494,115.139,469.714,182.825,1225.257,1705.787,1423.502,973.123,1773.092,3535.681,655.296,1367.308,1025.126,632.584,1029.170,46.060,257.731,93.241,765.496,785.508,1180.972,992.595,2513.947,593.476,708.343,4969.624,Wales,2059
809.816,540.073,918.365,111.246,436.681,180.959,1176.876,1651.676,1383.947,939.879,1732.226,3486.285,702.049,1348.872,1025.101,626.539,1003.298,45.892,256.789,92.900,730.243,749.333,1160.217,974.483,2504.758,566.145,692.243,4848.414,Wales,2060
785.765,532.254,920.719,107.652,421.909,178.746,1149.756,1622.449,1362.090,918.720,1693.473,3460.715,711.030,1322.007,1017.708,633.868,1014.714,45.699,255.707,92.508,694.847,713.012,1139.461,956.371,2494.202,538.703,702.403,4727.204,Wales,2061
753.282,528.035,921.715,104.326,408.072,175.818,1119.761,1587.609,1334.759,896.930,1653.286,3420.103,717.811,1280.835,1010.135,641.209,1026.162,45.505,254.624,92.117,659.725,676.972,1118.706,938.259,2483.646,511.473,712.639,4605.993,Wales,2062
722.638,520.535,916.261,101.987,390.579,171.795,1090.663,1550.681,1307.126,876.970,1609.147,3386.952,720.607,1244.273,1001.961,648.588,1037.621,45.312,253.542,91.725,624.876,641.212,1097.950,920.147,2473.091,484.456,722.938,4484.783,Wales,2063
693.015,511.420,908.903,98.112,371.081,164.269,1056.315,1506.455,1275.008,852.360,1555.791,3352.337,721.745,1203.898,993.637,655.941,1049.040,45.119,252.460,91.334,590.301,605.733,1077.195,902.035,2462.535,457.650,733.261,4363.573,Wales,2064
662.921,500.503,900.113,95.231,360.627,162.105,1033.577,1475.205,1249.502,836.484,1514.278,3321.569,722.433,1163.336,980.266,660.208,1052.084,44.925,251.378,90.942,555.999,570.534,1056.440,883.923,2451.979,431.057,737.642,4242.362,Wales,2065
642.202,482.214,881.936,91.137,347.152,156.813,1006.084,1434.967,1217.864,812.480,1461.870,3295.693,712.625,1127.795,974.813,653.528,1025.630,44.717,250.211,90.520,521.794,535.435,1035.684,865.810,2440.595,404.538,720.435,4121.152,Wales,2066
617.204,464.498,854.723,89.531,340.838,154.615,986.818,1409.653,1196.485,800.019,1423.395,3286.209,695.360,1101.113,959.932,641.223,998.889,44.508,249.044,90.098,487.884,500.638,1014.929,847.698,2429.212,378.248,700.799,3999.942,Wales,2067
591.902,446.224,830.858,85.324,325.465,146.038,952.381,1362.155,1158.695,771.026,1366.209,3258.329,680.520,1066.328,959.661,634.420,972.257,44.299,247.877,89.676,454.268,466.144,994.173,829.586,2417.828,352.187,683.710,3878.731,Wales,2068
563.326,427.682,801.374,83.763,315.764,143.345,928.979,1330.961,1133.041,756.083,1320.920,3242.541,660.867,1034.536,954.875,627.725,946.105,44.091,246.710,89.253,420.948,431.953,973.418,811.474,2406.444,326.354,666.864,3757.521,Wales,2069
531.922,408.236,768.621,80.562,302.799,137.252,900.861,1291.321,1101.848,736.967,1264.470,3221.659,637.468,998.945,947.252,623.769,927.720,43.882,245.543,88.831,387.923,398.064,952.663,793.362,2395.060,300.750,655.563,3636.311,Wales,2070
510.487,428.676,792.184,79.100,293.381,134.713,891.304,1282.698,1098.139,729.836,1255.922,3218.376,661.179,994.039,940.696,629.778,937.006,43.661,244.305,88.384,385.969,396.059,931.907,775.250,2382.993,299.235,664.273,3515.100,Wales,2071
511.957,427.812,806.009,77.684,287.347,134.434,886.211,1277.391,1095.825,722.704,1249.854,3227.492,675.120,995.087,934.114,635.593,945.987,43.440,243.068,87.936,384.014,394.053,911.152,757.138,2370.926,297.720,672.816,3393.890,Wales,2072
513.370,427.583,815.420,76.402,281.297,131.214,872.844,1265.512,1087.357,709.234,1242.331,3233.895,685.285,999.250,927.556,641.194,954.619,43.219,241.831,87.489,382.060,392.048,890.396,739.026,2358.859,296.204,681.169,3272.679,Wales,2073
514.166,427.175,827.012,75.360,277.317,131.020,866.421,1260.831,1083.551,700.919,1240.153,3240.669,697.621,1002.338,920.693,646.653,962.978,42.998,240.594,87.041,380.105,390.042,869.641,720.914,2346.792,294.689,689.391,3151.469,Wales,2074
515.386,427.239,837.236,74.389,273.704,126.710,841.874,1236.255,1060.933,674.396,1232.213,3228.900,707.871,1003.812,915.376,647.282,970.861,42.777,239.357,86.593,378.151,388.036,848.885,702.802,2334.724,293.174,694.925,3030.259,Wales,2075
517.476,428.561,834.078,74.953,271.708,127.428,842.513,1239.075,1063.879,674.271,1232.442,3250.969,706.294,1008.421,901.558,630.003,942.056,42.540,238.032,86.114,376.058,385.889,828.130,684.690,2321.805,291.551,671.403,2909.048,Wales,2076
522.038,430.431,816.553,75.879,269.879,126.421,834.850,1233.052,1057.822,664.506,1229.064,3270.718,690.827,1012.551,891.051,621.588,913.591,42.303,236.708,85.635,373.966,383.742,807.375,666.578,2308.886,289.929,652.603,2787.838,Wales,2077
525.004,429.967,808.560,77.239,270.270,126.784,835.744,1237.913,1061.942,665.420,1232.996,3298.253,684.670,1021.410,881.319,613.052,885.046,42.067,235.383,85.156,371.873,381.595,786.619,648.466,2295.966,288.307,633.636,2666.628,Wales,2078
525.962,429.726,811.515,77.826,271.568,127.638,838.591,1244.354,1067.341,667.393,1237.107,3313.219,688.477,1025.132,871.654,611.824,876.625,41.830,234.059,84.677,369.780,379.447,765.864,630.354,2283.047,286.685,629.360,2545.417,Wales,2079
527.550,429.235,804.704,78.866,271.070,129.400,838.907,1248.285,1070.075,667.162,1239.586,3334.400,682.916,1031.163,862.646,612.063,872.448,41.593,232.734,84.198,367.688,377.300,745.108,612.241,2270.128,285.062,628.185,2424.207,Wales,2080
