HS07,HS07_Description,FAO2,FAO2Name
20110,"Carcasses/half-carcasses of bovine animals, fresh/chilled",2731,Bovine Meat
20120,"Meat of bovine animals, fresh/chilled (excl. of 0201.10), bone-in",2731,Bovine Meat
20130,"Meat of bovine animals, fresh/chilled, boneless",2731,Bovine Meat
20210,"Carcasses/half-carcasses of bovine animals, frozen",2731,Bovine Meat
20220,"Meat of bovine animals, frozen (excl. of 0202.10), bone-in",2731,Bovine Meat
20230,"Meat of bovine animals, frozen, boneless",2731,Bovine Meat
20311,"Carcasses/half-carcasses of swine, fresh/chilled",2733,Pigmeat
20312,"Hams, shoulders & cuts thereof , fresh/chilled, bone-in",2733,Pigmeat
20319,"Meat of swine (excl. carcasses/half-carcasses/hams/shoulders & cuts thereof ), fresh/chilled",2733,Pigmeat
20321,"Carcasses/half-carcasses of swine, frozen",2733,Pigmeat
20322,"Hams, shoulders & cuts thereof , frozen, bone-in",2733,Pigmeat
20329,"Meat of swine (excl. carcasses/half-carcasses/hams/shoulders & cuts thereof ), froxen",2733,Pigmeat
20410,"Carcasses/half-carcasses of lamb, fresh/chilled",2732,Mutton & Goat Meat
20421,"Carcasses/half-carcasses of sheep (excl. lamb), fresh/chilled",2732,Mutton & Goat Meat
20422,"Meat of sheep (excl. lamb & carcasses), fresh/chilled, bone-in",2732,Mutton & Goat Meat
20423,"Meat of sheep (excl. lamb), fresh/chilled, boneless",2732,Mutton & Goat Meat
20430,"Carcasses/half-carcasses of lamb, frozen",2732,Mutton & Goat Meat
20441,"Carcasses/half-carcasses of sheep (excl. lamb), frozen",2732,Mutton & Goat Meat
20442,"Meat of sheep (excl. lamb & carcasses), frozen, bone-in",2732,Mutton & Goat Meat
20443,"Meat of sheep (excl. lamb), frozen, boneless",2732,Mutton & Goat Meat
20450,"Meat of goats, fresh/chilled/frozen",2732,Mutton & Goat Meat
20500,"Meat of horses/asses/mules/hinnies, fresh/chilled/frozen",2735,"Meat, Other"
20610,"Edible offal of bovine animals, fresh/chilled",2736,"Offals, Edible"
20621,"Tongues of bovine animals, frozen",2736,"Offals, Edible"
20622,"Livers of bovine animals, frozen",2736,"Offals, Edible"
20629,"Edible offal of bovine animals (excl. tongues & livers), frozen",2736,"Offals, Edible"
20630,"Edible offal of swine, fresh/chilled",2736,"Offals, Edible"
20641,"Livers of swine, frozen",2736,"Offals, Edible"
20649,"Edible offal of swine (excl. liver), frozen",2736,"Offals, Edible"
20680,"Edible offal, n.e.s., fresh/chilled",2736,"Offals, Edible"
20690,"Edible offal, n.e.s., frozen",2736,"Offals, Edible"
20711,"Meat of fowls of species Gallus domesticus, not cut in pieces, fresh/chilled",2734,Poultry Meat
20712,"Meat of fowls of species Gallus domesticus, not cut in pieces, frozen",2734,Poultry Meat
20713,"Cuts & edible offal of species Gallus domesticus, fresh/chilled",2734,Poultry Meat
20714,"Cuts & edible offal of species Gallus domesticus, frozen",2734,Poultry Meat
20724,"Meat of turkeys, not cut in pieces, fresh/chilled",2734,Poultry Meat
20725,"Meat of turkeys, not cut in pieces, frozen",2734,Poultry Meat
20726,"Cuts & edible offal of turkey, fresh/chilled",2734,Poultry Meat
20727,"Cuts & edible offal of turkey, frozen",2734,Poultry Meat
20732,"Meat of ducks/geese/guinea fowls, not cut in pieces, fresh/chilled",2734,Poultry Meat
20733,"Meat of ducks/geese/guinea fowls, not cut in pieces, frozen",2734,Poultry Meat
20734,"Fatty livers of ducks/geese/guinea fowls, fresh/chilled",2734,Poultry Meat
20735,"Meat & edible meat offal of ducks/geese/guinea fowls (excl. of 0207.32-0207.34), fresh/chilled",2734,Poultry Meat
20736,"Meat & edible meat offal of ducks/geese/guinea fowls (excl. of 0207.32-0207.34), frozen",2734,Poultry Meat
20810,"Meat & edible meat offal of rabbits/hares, fresh/chilled/frozen",2734,Poultry Meat
20830,"Meat & edible meat offal of primates, fresh/chilled/frozen",2734,Poultry Meat
20840,"Meat & edible offal of whales, dolphins & porpoises (order Cetacea); of manatees & dugongs (order Sirenia), fresh/chilled/frozen",2734,Poultry Meat
20850,"Meat & edible offal of reptiles, incl. snakes & turtles, fresh/chilled/frozen",2734,Poultry Meat
20890,"Meat&edible meat offal, n.e.s., fresh/chilled/frozen",2734,Poultry Meat
20900,"Pig fat (free of lean meat) & poultry fat (not rendered/othw. extracted), fresh/chilled/frozen/salted/in brine/dried/smoked",2737,"Fats, Animals, Raw"
21011,"Hams, shoulders & cuts thereof , of swine, salted/in brine/dried/smoked, bone-in",2733,Pigmeat
21012,"Bellies (streaky) & cuts thereof , of swine, salted/in brine/dried/smoked",2733,Pigmeat
21019,"Meat of swine (excl. hams/shoulders & cuts thereof & bellies (streaky) & cuts thereof ), salted/in brine/dried/smoked",2733,Pigmeat
21020,"Meat of bovine animals, salted/in brine/dried/smoked",2731,Bovine Meat
21091,"Meat & edible meat offal of primates, salted/in brine/dried/smoked, incl. edible flours/meals",2736,"Offals, Edible"
21092,"Meat & edible meat offal of whales/dolphins/porpoises (order Cetacea)/manatees & dugongs (order Sirenia), salted/in brine/dried/smoked, incl. edible flours/meals",2736,"Offals, Edible"
21093,"Meat & edible meat offal of reptiles, incl. snakes & turtles, salted/in brine/dried/smoked, incl. edible flours/meals",2736,"Offals, Edible"
21099,"Meat & edible meat offal, n.e.s., salted/in brine/dried/smoked, incl. edible flours/meals",2736,"Offals, Edible"
40110,"Milk & cream, not concentrated/sweetened, fat content by weight not >1%",2848,Milk - Excluding Butter
40120,"Milk & cream, not concentrated/sweetened, fat content by weight >1% but not >6%",2848,Milk - Excluding Butter
40130,"Milk & cream, not concentrated/sweetened, fat content by weight >6%",2848,Milk - Excluding Butter
40210,"Milk in powder/granules/other solid form, fat content by weight not >1.5%",2848,Milk - Excluding Butter
40221,"Milk in powder/granules/other solid form, unsweetened, fat content by weight >1.5%",2848,Milk - Excluding Butter
40229,"Milk in powder/granules/other solid form, sweetened, fat content by weight >1.5%",2848,Milk - Excluding Butter
40291,"Milk & cream, concentrated (excl. in powder), unsweetened",2848,Milk - Excluding Butter
40299,"Milk & cream, concentrated (excl. in powder), sweetened",2848,Milk - Excluding Butter
40310,Yogurt,2848,Milk - Excluding Butter
40390,"Buttermilk/curdled milk & cream/kephir & other fermented/acidified milk & cream, whether/not concentrated/sweetened/flavoured/containing fruit/nuts/cocoa",2848,Milk - Excluding Butter
40410,"Whey & modified whey, whether/not concentrated/sweetened",2848,Milk - Excluding Butter
40490,"Milk products of natural milk constituents, whether/not sweetened, n.e.s.",2848,Milk - Excluding Butter
40510,Butter,2740,"Butter, Ghee"
40520,Dairy spreads,2740,"Butter, Ghee"
40590,"Fats & oils derived from milk, other than butter & dairy spreads",2740,"Butter, Ghee"
40610,"Fresh (unripened/uncured) cheese, incl. whey cheese, & curd",2848,Milk - Excluding Butter
40620,"Grated/powdered cheese, of all kinds",2848,Milk - Excluding Butter
40630,"Processed cheese, not grated/powdered",2848,Milk - Excluding Butter
40640,Blue-veined cheese,2848,Milk - Excluding Butter
40690,Cheese (excl. of 0406.10-0406.40),2848,Milk - Excluding Butter
40700,"Birds' eggs, in shell, fresh/preserved/cooked",2744,Eggs
40811,"Egg yolks, dried, whether/not containing added sugar/other sweetening matter",2744,Eggs
40819,"Egg yolks (excl. dried), whether/not containing added sugar/other sweetening matter",2744,Eggs
40891,"Birds' eggs, not in shell (excl. yolks), dried, whether/not containing added sugar/other sweetening matter",2744,Eggs
40899,"Birds' eggs, not in shell (excl. yolks), other than dried, whether/not containing added sugar/other sweetening matter",2744,Eggs
40900,Natural honey,2745,Honey
70110,"Seed potatoes, fresh/chilled",2531,Potatoes and products
70190,"Potatoes other than seed potatoes, fresh/chilled",2531,Potatoes and products
70200,"Tomatoes, fresh/chilled",2601,Tomatoes and products
70310,"Onions & shallots, fresh/chilled",2602,Onions
70320,"Garlic, fresh/chilled",2605,"Vegetables, Other"
70390,"Leeks & other alliaceous vegetables, fresh/chilled",2605,"Vegetables, Other"
70410,"Cauliflowers & headed broccoli, fresh/chilled",2605,"Vegetables, Other"
70420,"Brussels sprouts, fresh/chilled",2605,"Vegetables, Other"
70490,"Cabbages, kohlrabi, kale & similar edible brassicas (excl. cauliflowers, headed broccoli & Brussels sprouts), fresh/chilled",2605,"Vegetables, Other"
70511,"Cabbage lettuce (head lettuce), fresh/chilled",2605,"Vegetables, Other"
70519,Lettuce (Lactuca sativa) (excl. cabbage lettuce) fresh/chilled,2605,"Vegetables, Other"
70521,"Witloof chicory (Cichorium intybus var. foliosum), fresh/chilled",2605,"Vegetables, Other"
70529,"Chicory (excl. witloof chicory), fresh/chilled",2605,"Vegetables, Other"
70610,"Carrots & turnips, fresh/chilled",2605,"Vegetables, Other"
70690,"Salad beetroot, salsify, celeriac, radishes & similar edible roots (excl. carrots & turnips), fresh/chilled",2605,"Vegetables, Other"
70700,"Cucumbers & gherkins, fresh/chilled",2605,"Vegetables, Other"
70810,"Peas (Pisum sativum), shelled/unshelled, fresh/chilled",2547,Peas
70820,"Beans (Vigna spp., Phaseolus spp.), shelled/unshelled, fresh/chilled",2546,Beans
70890,"Leguminous vegetables (excl. of 0708.10 & 0708.20), shelled/unshelled, fresh/chilled",2549,"Pulses, Other and products"
70920,"Asparagus, fresh/chilled",2605,"Vegetables, Other"
70930,"Aubergines (egg-plants), fresh/chilled",2605,"Vegetables, Other"
70940,"Celery (excl. celeriac), fresh/chilled",2605,"Vegetables, Other"
70951,"Mushrooms of the genus Agaricus, fresh/chilled",2605,"Vegetables, Other"
70959,"Mushrooms&truffles (excl. of 0709.51), fresh/chilled",2605,"Vegetables, Other"
70960,"Fruits of the genera Capsicum/Pimenta, fresh/chilled",2605,"Vegetables, Other"
70970,"Spinach, New Zealand spinach & orache spinach (garden spinach), fresh/chilled",2605,"Vegetables, Other"
70990,"Vegetables,n.e.s. in 07.01-07.09, fresh/chilled",2605,"Vegetables, Other"
71010,"Potatoes, uncooked/cooked by steaming/boiling in water, frozen",2531,Potatoes and products
71021,"Peas (Pisum sativum), shelled/unshelled, uncooked/cooked by steaming/boiling in water, frozen",2547,Peas
71022,"Beans (Vigna spp., Phaseolus spp.), shelled/unshelled, uncooked/cooked by steaming/boiling in water, frozen",2546,Beans
71029,"Leguminous vegetables (excl. of 0710.21 & 0710.22), shelled/unshelled, uncooked/cooked by steaming/boiling in water, frozen",2549,"Pulses, Other and products"
71030,"Spinach, New Zealand spinach & orache spinach (garden spinach), uncooked/cooked by steaming/boiling in water, frozen",2605,"Vegetables, Other"
71040,"Sweet corn, uncooked/cooked by steaming/boiling in water, frozen",2605,"Vegetables, Other"
71080,"Vegetables, n.e.s., uncooked/cooked by steaming/boiling in water, frozen",2605,"Vegetables, Other"
71090,"Mixtures of vegetables, uncooked/cooked by steaming/boiling in water, frozen",2605,"Vegetables, Other"
71120,"Olives, provisionally preserved",2563,Olives (including preserved)
71140,"Cucumbers & gherkins, provisionally preserved",2605,"Vegetables, Other"
71151,"Mushrooms of the genus Agaricus, provisionally preserved",2605,"Vegetables, Other"
71159,"Mushrooms other than of the genus Agaricus, provisionally preserved",2605,"Vegetables, Other"
71190,"Vegetables (excl. olives/cucumbers & gherkins/mushrooms & truffles)&mixtures of vegetables provisionally preserved , but unsuitable in that state for immediate consumption",2605,"Vegetables, Other"
71220,"Onions, dried, whole/cut/sliced/broken/in powder but not further prepared",2602,Onions
71231,"Mushrooms of the genus Agaricus, dried, whole/cut/sliced/broken/in powder but not further prepared",2605,"Vegetables, Other"
71232,"Wood ears (Auricularia spp.), dried, whole/cut/sliced/broken/in powder but not further prepared",2605,"Vegetables, Other"
71233,"Jelly fungi (Tremella spp.), dried, whole/cut/sliced/broken/in powder but not further prepared",2605,"Vegetables, Other"
71239,"Mushrooms (excl. of 0712.31-0712.33) & truffles, dried, whole/cut/sliced/broken/in powder but not further prepared",2605,"Vegetables, Other"
71290,"Dried vegetables, n.e.s.; mixtures of dried vegetables, whole/cut/sliced/broken/in powder but not further prepared",2605,"Vegetables, Other"
71310,"Peas (Pisum sativum), dried, shelled, whether/not skinned/split",2547,Peas
71320,"Chickpeas (garbanzos), dried, shelled, whether/not skinned/split",2549,"Pulses, Other and products"
71331,"Beans of the species Vigna mungo (L.)/Hepper/Vigna radiata (L.) Wilczek, dried, shelled, whether/not skinned/split",2546,Beans
71332,"Small red (Adzuki) beans (Phaseolus/Vigna angularis), dried, shelled, whether/not skinned/split",2546,Beans
71333,"Kidney beans, incl. white pea beans (Phaseolus vulgaris), dried, shelled, whether/not skinned/split",2546,Beans
71339,"Beans (Vigna spp., Phaseolus spp. (excl. of 0713.31-0713.33)), dried, shelled, whether/not skinned/split",2546,Beans
71340,"Lentils, dried, shelled, whether/not skinned/split",2549,"Pulses, Other and products"
71350,"Broad beans (Vicia faba var. major) & horse beans (Vicia faba var. equina/var. minor), dried, shelled, whether/not skinned/split",2549,"Pulses, Other and products"
71390,"Dried leguminous vegetables, n.e.s., shelled, whether/not skinned/split",2549,"Pulses, Other and products"
71410,Manioc (cassava),2532,Cassava and products
71420,Sweet potatoes,2533,Sweet Potatoes
71490,"Arrowroot, salep, Jerusalem artichokes & similar roots & tubers with high starch/inulin content, n.e.s., fresh/chilled/frozen/dried, whether/not sliced/in the form of pellets; sago pith",2534,"Roots, Other"
80111,"Coconuts, desiccated",2560,Coconuts - Incl Copra
80119,"Cocunuts, other than desiccated",2560,Coconuts - Incl Copra
80121,"Brazil nuts, in shell",2551,Nuts and products
80122,"Brazil nuts, shelled",2551,Nuts and products
80131,"Cashew nuts, in shell",2551,Nuts and products
80132,"Cashew nuts, shelled",2551,Nuts and products
80211,"Almonds, in shell",2551,Nuts and products
80212,"Almonds, shelled",2551,Nuts and products
80221,"Hazelnuts/filberts (Corylus spp.), in shell",2551,Nuts and products
80222,"Hazelnuts/filberts (Corylus spp.), shelled",2551,Nuts and products
80231,"Walnuts, in shell",2551,Nuts and products
80232,"Walnuts, shelled",2551,Nuts and products
80240,Chestnuts (Castanea spp.),2551,Nuts and products
80250,Pistachios,2551,Nuts and products
80260,Macadamia nuts,2552,Nuts and products
80290,"Nuts, n.e.s. in 08.01 & 08.02, fresh/dried, whether/not shelled/peeled",2553,Nuts and products
80300,"Bananas, incl. plantains, fresh/dried",2615,Bananas
80410,"Dates, fresh/dried",2619,Dates
80420,"Figs, fresh/dried",2625,"Fruits, Other"
80430,"Pineapples, fresh/dried",2625,"Fruits, Other"
80440,"Avocados, fresh/dried",2626,"Fruits, Other"
80450,"Guavas, mangoes & mangosteens, fresh/dried",2627,"Fruits, Other"
80510,"Oranges, fresh/dried",2611,"Oranges, Mandarines"
80520,"Mandarins, incl. tangerines & satsumas; clementines, wilkings & similar citrus hybrids, fresh/dried",2611,"Oranges, Mandarines"
80540,"Grapefruit, fresh/dried",2613,Grapefruit and products
80550,"Lemons (Citrus limon/limonum) & limes (Citrus aurantifolia/latifolia), fresh/dried",2612,"Lemons, Limes and products"
80590,"Citrus fruit (excl. of 0805.10-0805.50), fresh/dried",2614,"Citrus, Other"
80610,"Grapes, fresh",2620,Grapes and products (excl wine)
80620,"Grapes, dried",2621,Grapes and products (excl wine)
80711,"Watermelons, fresh",2625,"Fruits, Other"
80719,"Melons (excl. watermelons), fresh",2625,"Fruits, Other"
80720,"Papaws (papayas), fresh/dried",2625,"Fruits, Other"
80810,"Apples, fresh",2625,"Fruits, Other"
80820,"Pears & quinces, fresh",2625,"Fruits, Other"
80910,"Apricots, fresh",2625,"Fruits, Other"
80920,"Cherries, fresh",2625,"Fruits, Other"
80930,"Peaches, incl. nectarines, fresh",2625,"Fruits, Other"
80940,"Plums & sloes, fresh",2625,"Fruits, Other"
81010,"Strawberries, fresh",2625,"Fruits, Other"
81020,"Raspberries, blackberries, mulberries & loganberries, fresh",2625,"Fruits, Other"
81040,"Cranberries, bilberries & other fruits of the genus Vaccinium, fresh",2625,"Fruits, Other"
81050,"Kiwifruit, fresh",2625,"Fruits, Other"
81060,"Durians, fresh",2625,"Fruits, Other"
81090,"Fresh fruit, n.e.s. in Ch. 8",2625,"Fruits, Other"
81110,"Strawberries, uncooked/cooked by steaming/boiling in water, frozen, whether/not containing added sugar/other sweetening matter",2625,"Fruits, Other"
81120,"Raspberries, blackberries, mulberries, loganberries, black/white/red currants & gooseberries, uncooked/cooked by steaming/boiling in water, frozen, whether/not containing added sugar/other sweetening matter",2625,"Fruits, Other"
81190,"Fruit & nuts, n.e.s., uncooked/cooked by steaming/boiling in water, frozen, whether/not containing added sugar/other sweetening matter",2625,"Fruits, Other"
81210,"Cherries, provisionally preserved but unsuit. in that state for immediate consumption",2625,"Fruits, Other"
81290,"Fruit (excl. cherries) & nuts, provisionally preserved but unsuit. in that state for immediate consumption",2625,"Fruits, Other"
81310,"Apricots, dried",2625,"Fruits, Other"
81320,"Prunes, dried",2625,"Fruits, Other"
81330,"Apples, dried",2625,"Fruits, Other"
81340,Dried fruit (excl. of 08.01-08.06 & 0813.10-0813.30),2625,"Fruits, Other"
81350,Mixtures of nuts/dried fruits of Ch.8,2625,"Fruits, Other"
81400,"Peel of citrus fruit/melons, incl. watermelons, fresh/frozen/dried/provisionally preserved in brine/sulphur water/other preservative solutions",2614,"Citrus, Other"
90111,"Coffee, not roasted, not decaffeinated",2630,Coffee and products
90112,"Coffee, not roasted, decaffeinated",2630,Coffee and products
90121,"Coffee, roasted, not decaffeinated",2630,Coffee and products
90122,"Coffee, roasted, decaffeinated",2630,Coffee and products
90190,Coffee husks & skins; coffee substitutes containing coffee in any proportion,2630,Coffee and products
90210,"Tea, green (not fermented), whether/not flavoured, in immediate packings of a content not >3kg",2635,Tea (including mate)
90220,"Tea, green (not fermented), whether/not flavoured, in immediate packings of a content >3kg",2635,Tea (including mate)
90230,"Tea, black (fermented) & partly fermented tea, whether/not flavoured, in immediate packings of a content not >3kg",2635,Tea (including mate)
90240,"Tea, black (fermented) & partly fermented tea, whether/not flavoured, in immediate packings of a content >3kg",2635,Tea (including mate)
90300,MatT,2635,Tea (including mate)
90411,"Pepper (genus Piper), neither crushed/ground",2640,Pepper
90412,"Pepper (genus Piper), crushed/ground",2640,Pepper
90420,"Fruits of the genera Capsicum/Pimenta, dried/crushed/ground",2641,Pimento
90500,Vanilla,2645,"Spices, Other"
90611,"Cinnamon(Cinnamomum zeylanicum Blume) & cinnamon-tree flowers, neither crushed/ground",2645,"Spices, Other"
90619,"Cinnamon(excl. of  0906.11) & cinnamon-tree flowers, neither crushed/ground",2645,"Spices, Other"
90620,"Cinnamon & cinnamon-tree flowers, crushed/ground",2645,"Spices, Other"
90700,"Cloves (whole fruit, cloves & stems)",2642,Cloves
90810,Nutmeg,2645,"Spices, Other"
90820,Mace,2645,"Spices, Other"
90830,Cardamoms,2645,"Spices, Other"
90910,Seeds of anise/badian,2645,"Spices, Other"
90920,Seeds of coriander,2645,"Spices, Other"
90930,Seeds of cumin,2645,"Spices, Other"
90940,Seeds of caraway,2645,"Spices, Other"
90950,Seeds of fennel; juniper berries,2645,"Spices, Other"
91010,Ginger,2645,"Spices, Other"
91020,Saffron,2645,"Spices, Other"
91030,Turmeric (curcuma),2645,"Spices, Other"
91091,Mixtures of 2/more products of different headings of 09.04-09.10,2645,"Spices, Other"
91099,"Spices, n.e.s. in Ch. 9",2645,"Spices, Other"
100110,Durum wheat,2511,Wheat and products
100190,Wheat other than durum wheat; meslin,2511,Wheat and products
100200,Rye,2515,Rye and products
100300,Barley,2513,Barley and products
100400,Oats,2516,Oats
100510,"Maize (corn), seed",2514,Maize and products
100590,"Maize (corn), other than seed",2514,Maize and products
100610,Rice in the husk (paddy/rough),2807,Rice and products
100620,Husked (brown) rice,2807,Rice and products
100630,"Semi-milled/wholly milled rice, whether/not polished/glazed",2807,Rice and products
100640,Broken rice,2807,Rice and products
100700,Grain sorghum,2518,Sorghum and products
100810,Buckwheat,2520,"Cereals, Other"
100820,Millet,2520,"Cereals, Other"
100830,Canary seed,2520,"Cereals, Other"
100890,"Cereals (excl. those which have been hulled/othw. worked), n.e.s.",2520,"Cereals, Other"
110100,Wheat/meslin flour,2511,Wheat and products
110210,Rye flour,2515,Rye and products
110220,Maize (corn) flour,2514,Maize and products
110290,Cereal flour other than of wheat/meslin/rye/maize(corn),2520,"Cereals, Other"
110311,Groats/meal of wheat,2511,Wheat and products
110313,Groats/meal of maize (corn),2514,Maize and products
110319,Groats/meal of cereals other than wheat & maize (corn),2520,"Cereals, Other"
110320,Pellets of cereals,2520,"Cereals, Other"
110412,Rolled/flaked grains of oats,2516,Oats
110419,Rolled/flaked grains of cereals other than oats,2520,"Cereals, Other"
110422,"Oats, worked othw. than by rolling (e.g., hulled/pearled/sliced/kibbled)",2516,Oats
110423,"Corn (maize), worked othw. than into flour/groats/meal (e.g., hulled/pearled/sliced/kibbled)",2514,Maize and products
110429,"Other worked grains (e.g., hulled/pearled/sliced/kibbled) of cereals other than oats, maize (corn) & rice of 10.06",2520,"Cereals, Other"
110430,"Germ of cereals, whole/rolled/flaked/ground",2520,"Cereals, Other"
110510,"Flour, meal & powder of potatoes",2531,Potatoes and products
110520,"Flakes, granules & pellets of potatoes",2531,Potatoes and products
110610,"Flour, meal & powder of the dried leguminous vegetables of 07.13",2605,"Vegetables, Other"
110620,"Flour, meal & powder of sago/roots/tubers of 07.14",2531,Potatoes and products
110630,"Flour, meal & powder of the products of Ch.8",2605,"Vegetables, Other"
110710,"Malt, not roasted",2511,Wheat and products
110720,"Malt, roasted",2511,Wheat and products
110811,Wheat starch,2511,Wheat and products
110812,Maize (corn) starch,2514,Maize and products
110813,Potato starch,2531,Potatoes and products
110814,Manioc (cassava) starch,2532,Cassava and products
110819,Starches (excl. of 1108.11-1108.14),2605,"Vegetables, Other"
110820,Inulin,2605,"Vegetables, Other"
110900,"Wheat gluten, whether/not dried",2511,Wheat and products
120100,"Soya beans, whether/not broken",2555,Soyabeans
120210,"Ground-nuts, not roasted/othw. cooked, in shell",2556,Groundnuts (Shelled Eq)
120220,"Ground-nuts, not roasted/othw. cooked, shelled, whether/not broken",2556,Groundnuts (Shelled Eq)
120300,Copra,2560,Coconuts - Incl Copra
120400,"Linseed, whether/not broken",2570,"Oilcrops, Other"
120510,"Low erucic acid rape/colza seeds, whether/not broken",2570,"Oilcrops, Other"
120590,"Rape/colza seeds (excl. low erucic acid), whether/not broken",2558,Rape and Mustardseed
120600,"Sunflower seeds, whether/not broken",2557,Sunflowerseed
120720,"Cotton seeds, whether/not broken",2559,Cottonseed
120740,"Sesamum seeds, whether/not broken",2561,Sesameseed
120750,"Mustard seeds, whether/not broken",2558,Rape and Mustardseed
120791,"Poppy seeds, whether/not broken",2570,"Oilcrops, Other"
120799,"Oil seeds & oleaginous fruits (excl. of 1206.00 & 1207.20-1207.91), whether/not broken",2570,"Oilcrops, Other"
120810,Flours & meals of soya beans,2555,Soyabeans
120890,Flours & meals of oil seeds/oleaginous fruits other than of mustard (excl. soya beans),2570,"Oilcrops, Other"
120910,"Sugar beet seed, of a kind used for sowing",2537,Sugar Beet
120921,"Lucerne (alfalfa) seed, of a kind used for sowing",2537,Sugar Beet
120922,"Clover (Trifolium spp.) seed, of a kind used for sowing",2537,Sugar Beet
120923,"Fescue seed, of a kind used for sowing",2537,Sugar Beet
120924,"Kentucky blue grass (Poa pratensis L.) seed, of a kind used for sowing",2537,Sugar Beet
120925,"Rye grass (Lolium multiflorum Lam./perenne L.) seed, of a kind used for sowing",2537,Sugar Beet
120929,"Seeds of forage plants (excl. of 1209.21-1209.25), of a kind used for sowing",2537,Sugar Beet
121291,"Sugar beet, fresh/chilled/frozen/dried, whether/not ground",2537,Sugar Beet
121299,"Locust beans&sugar cane(excl. of 1212.91), fresh/chilled/ frozen/dried, whether/not ground; fruit stones&kernels&other vegetable products (including unroasted chicory roots of the variety Cichorium intybus sativum) of a kind used primarily for human cons",2536,Sugar Cane
150100,"Pig fat, incl. lard, & poultry fat, other than of 02.09/15.03",2733,Pigmeat
150200,"Fats of bovine animals/sheep/goats, other than of 15.03",2731,Bovine Meat
150710,"Soya bean oil, crude, whether/not degummed, not chemically modified",2571,Soyabean Oil
150790,"Soya bean oil, other than crude, & fractions thereof , whether/not refined but not chemically modified",2571,Soyabean Oil
150810,"Ground-nut oil, crude",2572,Groundnut Oil
150890,"Ground-nut oil, other than crude, & fractions thereof , whether/not refined but not chemically modified",2572,Groundnut Oil
150910,"Olive oil, virgin",2580,Olive Oil
150990,"Olive oil (excl. crude & virgin) & fractions thereof , whether/not refined but not chemically modified",2580,Olive Oil
151000,"Oils & fractions thereof , obt. solely from olives (excl. of 15.09), whether/not refined but not chemically modified, incl. blends of these oils/fractions with oils/fractions of 15.09",2580,Olive Oil
151110,"Palm oil, crude",2577,Palm Oil
151190,"Palm oil, other than crude, & fractions thereof , whether/not refined but not chemically modified",2577,Palm Oil
151211,"Sunflower seed/safflower oil, crude",2573,Sunflowerseed Oil
151219,"Sunflower seed/safflower oil, other than crude, & fractions thereof , whether/not refined but not chemically modified",2573,Sunflowerseed Oil
151221,"Cotton seed oil, crude, whether/not gossypol has been removed",2575,Cottonseed Oil
151229,"Cotton seed oil, other than crude, & fractions thereof , whether/not refined but not chemically modified",2575,Cottonseed Oil
151311,"Coconut (copra) oil, crude",2578,Coconut Oil
151319,"Coconut (copra) oil, other than crude, & fractions thereof , whether/not refined but not chemically modified",2578,Coconut Oil
151321,"Palm kernel/babassu oil, crude",2576,Palmkernel Oil
151329,"Palm kernel/babassu oil, other than crude, & fractions thereof , whether/not refined but not chemically modified",2576,Palmkernel Oil
151411,"Low erucic acid rape/colza oil, crude",2574,Rape and Mustard Oil
151419,"Low erucic acid rape/colza oil, other than crude, & fractions thereof , whether/not refined but not chemically modified",2574,Rape and Mustard Oil
151491,"Rape/colza oil (excl. low erucic acid oil) & mustard oil, crude",2574,Rape and Mustard Oil
151499,"Rape/colza oil (excl. low erucic acid oil) & mustard oil, other than crude, & fractions thereof , whether/not refined but not chemically modified",2574,Rape and Mustard Oil
151511,"Linseed oil, crude",2586,"Oilcrops Oil, Other"
151519,"Linseed oil, other than crude, & fractions thereof , whether/not refined but not chemically modified",2586,"Oilcrops Oil, Other"
151521,"Maize (corn) oil, crude",2586,"Oilcrops Oil, Other"
151529,"Maize (corn) oil, other than crude, & fractions thereof , whether/not refined but not chemically modified",2586,"Oilcrops Oil, Other"
151530,"Castor oil & fractions thereof , whether/not refined but not chemically modified",2586,"Oilcrops Oil, Other"
151550,"Sesame oil & fractions thereof , whether/not refined but not chemically modified",2579,Sesameseed Oil
151590,"Fixed vegatable fats & oils (excl. of 1515.11-1515.50, incl. jojoba oil) & their fractions, whether/not refined but not chemically modified",2586,"Oilcrops Oil, Other"
151610,"Animal fats & oils & fractions thereof , partly/wholly hydrogenated/inter-esterified/re-esterified/elaidinized, whether/not refined but not further prepared",2946,Animal fats
151620,"Vegetable fats & oils & fractions thereof , partly/wholly hydrogenated/inter-esterified/re-esterified/elaidinized, whether/not refined but not further prepared",2586,"Oilcrops Oil, Other"
151710,Margarine (excl. liquid margarine),2586,"Oilcrops Oil, Other"
151790,"Edible mixtures/preparations of animal/vegetable fats/oils/fractions of different fats/oils of Ch.15, other than edible fats/oils/fractions of 15.16/non-liquid margarine",2586,"Oilcrops Oil, Other"
151800,"Animal/vegetable fats & oils & their fractions, boiled/oxidised/dehydrated/sulphurised/blown/ polymerised by heat in vacuum/in inert gas/othw. chemically modified, excluding those of heading 15.16; inedible mixtures/preparations of animal/vegetable fats/",2586,"Oilcrops Oil, Other"
152000,"Glycerol, crude; glycerol waters & glycerol lyes",2586,"Oilcrops Oil, Other"
160100,"Sausages & similar products, of meat/meat offal/blood; food preparations based on these products",2731,Bovine Meat
160210,Homogenised preparations of prepared/preserved meat/meat offal,2731,Bovine Meat
160220,Prepared/preserved preparations of liver of any animal,2731,Bovine Meat
160231,Prepared/preserved preparations of turkey (excl. homogenised preparations),2734,Poultry Meat
160232,Prepared/preserved preparations of fowls of the genus Gallus domesticus (excl. homogenised preparations),2734,Poultry Meat
160239,Prepared/preserved preparations of fowls of 01.05 (excl. turkey & fowls of the genus Gallus domesticus),2734,Poultry Meat
160241,Hams & cuts thereof,2733,Pigmeat
160242,Shoulders of swine & cuts thereof,2733,Pigmeat
160249,"Prepared/preserved preparations of swine (excl. of 1602.41, 1602.42 & homogenised preparations), incl. mixtures",2733,Pigmeat
160250,"Prepared/preserved preparations of bovine animals (excl. homogenised preparations), incl. mixtures",2731,Bovine Meat
160290,"Preparations of prepared/preserved meat (excl. of 1602.10-1602.50), incl. preparations of blood of any animal",2731,Bovine Meat
170111,"Cane sugar, raw, in solid form, not containing added flavouring/colouring matter",2542,Sugar (Raw Equivalent)
170112,"Beet sugar, raw, in solid form, not containing added flavouring/colouring matter",2542,Sugar (Raw Equivalent)
170191,"Cane/beet sugar & chemically pure sucrose, in solid form, containing added flavouring/colouring matter",2542,Sugar (Raw Equivalent)
170199,"Cane/beet sugar & chemically pure sucrose, in solid form, not containing added flavouring/colouring matter",2542,Sugar (Raw Equivalent)
170211,"Lactose & lactose syrup, containing by weight 99%/more lactose, expressed as anhydrous lactose, calc. on the dry matter",2543,"Sweeteners, Other"
170219,"Lactose & lactose syrup, containing by weight >95% but <99% lactose, expressed as anhydrous lactose, calc. on the dry matter",2543,"Sweeteners, Other"
170220,Maple sugar & maple syrup,2543,"Sweeteners, Other"
170230,"Glucose & glucose syrup, not containing fructose/containing in the dry state < 20% by weight of fructose",2543,"Sweeteners, Other"
170240,"Glucose & glucose syrup, containing in the dry state at least 20% but < 50% by weight of fructose (excl. invert sugar)",2543,"Sweeteners, Other"
170250,Chemically pure fructose,2543,"Sweeteners, Other"
170260,"Fructose (excl. chemically pure fructose) & fructose syrup, containing in the dry state >50% by weight of fructose (excl. invert sugar)",2543,"Sweeteners, Other"
170290,"Sugars, incl. invert sugar & other sugar & sugar syrup blends containing in the dry state 50% by weight of fructose (excl. of 1702.11-1702.60)",2543,"Sweeteners, Other"
170310,Cane molasses,2543,"Sweeteners, Other"
170390,"Molasses, other than cane molasses, resulting from the extraction/refining of sugar",2543,"Sweeteners, Other"
170490,"Sugar confectionery other than chewing gum (incl. white chocolate), not containing cocoa",2543,"Sweeteners, Other"
180100,"Cocoa beans, whole/broken, raw/roasted",2633,Cocoa Beans and products
180200,"Cocoa shells, husks, skins & other cocoa waste",2633,Cocoa Beans and products
180310,"Cocoa paste, not defatted",2633,Cocoa Beans and products
180320,"Cocoa paste, wholly/partly defatted",2633,Cocoa Beans and products
180400,"Cocoa butter, fat & oil",2633,Cocoa Beans and products
180500,"Cocoa powder, not containing added sugar/other sweetening matter",2633,Cocoa Beans and products
180610,"Cocoa powder, containing added sugar/other sweetening matter",2633,Cocoa Beans and products
180620,"Chocolate & other food preparations containing cocoa (excl. of 1803.10-1806.10), in blocks/slabs/bars weighing >2kg/in liquid/paste/powder/granular/other bulk form in containers/immediate packings, of a content exceeding 2kg",2633,Cocoa Beans and products
180631,"Chocolate & other food preparations containing cocoa, in blocks/slabs/bars, weighing 2kg/less, filled",2633,Cocoa Beans and products
180632,"Chocolate & other food preparations containing cocoa, in blocks/slabs/bars, weighing 2kg/less, not fillled",2633,Cocoa Beans and products
180690,Chocolate & other food preparations containing cocoa (excl. of 1806.20-1806.32),2633,Cocoa Beans and products
190120,Mixes & doughs for the preparation of bakers' wares of 19.05,2511,Wheat and products
190190,"Malt extract; food preparations of flour/groats/meal/starch/malt extact,not containing cocoa/containing less than 40% by weight of cocoa calculated on a totally defatted basis,not elsewhere specified/incld.; food preparations of goods of headings 04.01 t",2511,Wheat and products
190211,"Uncooked pasta, not stuffed/othw. prepared, containing eggs",2511,Wheat and products
190219,"Uncooked pasta, not stuffed/othw. prepared, not containing eggs",2511,Wheat and products
190220,"Stuffed pasta, whether/not cooked/othw. prepared",2511,Wheat and products
190230,Pasta (excl. of 1902.11-1902.20),2511,Wheat and products
190240,Couscous,2511,Wheat and products
190300,"Tapioca & substitutes therefor prepared from starch, in the form of flakes/grains/pearls/siftings/similar forms",2531,Potatoes and products
190410,Prepared foods obt. by the swelling/roasting of cereals/cereal products,2520,"Cereals, Other"
190420,Prepared foods obt. from unroasted cereal flakes/mixtures of unroasted cereal flakes & roasted cereal flakes/swelled cereals,2520,"Cereals, Other"
190430,Bulgur wheat,2511,Wheat and products
190490,"Cereals other than maize (corn) in grain form/in the form of flakes/other worked grains (excl. flour/groats/meal), pre-cooked/othw. prepd, n.e.s.",2520,"Cereals, Other"
190510,Crispbread,2511,Wheat and products
190520,Gingerbread&the like,2511,Wheat and products
190531,Sweet biscuits,2511,Wheat and products
190532,Waffles & wafers,2511,Wheat and products
190540,"Rusks, toasted bread & similar toasted products",2511,Wheat and products
190590,"Bread, pastry, cakes, biscuits & other bakers' wares, whether/not containing cocoa; communion wafers, empty cachets of a kind suitable for pharmaceutical use, sealing wafers, rice paper & similar products (excl. of 1905.10 - 1905.40)",2511,Wheat and products
200110,"Cucumbers & gherkins, prepared/preserved by vinegar/acetic acid",2605,"Vegetables, Other"
200190,"Vegetables, fruit, nuts & other edible parts of plants (excl. cucumbers & gherkins), prepared/preserved by vinegar/acetic acid",2605,"Vegetables, Other"
200210,"Tomatoes, prepared/preserved othw. than by vinegar/acetic acid, whole/in pieces",2601,Tomatoes and products
200290,"Tomatoes, prepared/preserved othw. than by vinegar/acetic acid, other than whole/in pieces",2601,Tomatoes and products
200310,"Mushrooms of the genus Agaricus, prepared/preserved othw. than by vinegar/acetic acid",2605,"Vegetables, Other"
200320,"Truffles, prepared/preserved othw. than by vinegar/acetic acid",2605,"Vegetables, Other"
200390,"Mushrooms other than of the genus Agaricus, prepared/preserved othw. than by vinegar/acetic acid",2605,"Vegetables, Other"
200410,"Potatoes, prepared/preserved othw. than by vinegar/acetic acid, frozen, other than products of 20.06",2531,Potatoes and products
200490,"Vegetables & mixtures of vegetables, preserved/preserved othw. than by vinegar/acetic acid, frozen, other than potatoes & products of 20.06",2605,"Vegetables, Other"
200510,"Homogenised vegetables, prepared/preserved othw. than by vinegar/acetic acid, not frozen, other than products of 20.06",2605,"Vegetables, Other"
200520,"Potatoes, prepared/preserved othw. than by vinegar/acetic acid, not frozen, other than products of 20.06",2531,Potatoes and products
200540,"Peas (Pisum sativum), preserved/preserved othw. than by vinegar/acetic acid, not frozen, other than products of 20.06",2605,"Vegetables, Other"
200551,"Beans (Vigna spp., Phaseolus spp.), shelled, prepared/preserved othw. than by vinegar/acetic acid, not frozen, other than products of 20.06",2605,"Vegetables, Other"
200559,"Beans (excl. Vigna spp., Phaseolus spp.), shelled, prepared/preserved othw. than by vinegar/acetic acid, not frozen, other than products of 20.06",2605,"Vegetables, Other"
200560,"Asparagus, preserved/preserved othw. than by vinegar/acetic acid, not frozen, other than products of 20.06",2605,"Vegetables, Other"
200570,"Olives, preserved/preserved othw. than by vinegar/acetic acid, not frozen, other than products of 20.06",2563,Olives (including preserved)
200580,"Sweet corn (Zea mays var. saccharata), prepared/preserved othw. than by vinegar/acetic acid, not frozen, other than products of 20.06",2605,"Vegetables, Other"
200591,"Bamboo shoots, prepared/preserved othw. than by vinegar/acetic acid, not frozen, other than products of heading 20.06",2605,"Vegetables, Other"
200599,"Vegetables & mixtures of vegetables (excl. of 2005.10-2005.91), prepared/preserved othw. than by vinegar/acetic acid, not frozen, other than products of heading 20.06",2605,"Vegetables, Other"
200600,"Vegetables, fruit, nuts, fruit-peel & other parts of plants, preserved by sugar (drained/glacT/crystallised)",2605,"Vegetables, Other"
200710,"Homogenised preparations of fruits/nuts, obt. by cooking, whether/not containing added sugar/other sweetening matter",2605,"Vegetables, Other"
200791,"Citrus fruit preparations (excl. homogenized), obt. by cooking, whether/not containing added sugar/other sweetening matter",2614,"Citrus, Other"
200799,"Preparations of fruit (excl. citrus fruit; excl. homogenized), obt. by cooking, whether/not containing added sugar/other sweetening matter",2625,"Fruits, Other"
200811,"Ground-nuts, prepared/preserved, whether/not containing added/sugar/other sweetening matter/spirit, n.e.s.",2556,Groundnuts (Shelled Eq)
200819,"Nuts (excl. ground-nuts), incl. mixtures, prepared/preserved, whether/not containing added sugar/other sweetening matter/spirit, n.e.s.",2551,Nuts and products
200820,"Pineapples, prepared/preserved, whether/not containing added sugar/other sweetening matter/spirit, n.e.s.",2618,Pineapples and products
200830,"Citrus fruit, prepared/preserved, whether/not containing added sugar/other sweetening matter/spirit, n.e.s.",2614,"Citrus, Other"
200840,"Pears, prepared/preserved, whether/not containing added sugar/other sweetening matter/spirit, n.e.s.",2625,"Fruits, Other"
200850,"Apricots, prepared/preserved, whether/not containing added sugar/other sweetening matter/spirit, n.e.s.",2625,"Fruits, Other"
200860,"Cherries, prepared/preserved, whether/not containing added sugar/other sweetening matter/spirit, n.e.s.",2625,"Fruits, Other"
200870,"Peaches, incl. nectarines, prepared/preserved, whether/not containing added sugar/other sweetening matter/spirit, n.e.s.",2625,"Fruits, Other"
200880,"Strawberries, prepared/preserved, whether/not containing added sugar/other sweetening matter/spirit, n.e.s.",2625,"Fruits, Other"
200891,"Palm hearts, prepared/preserved, whether/not containing added sugar/other sweetening matter/spirit, n.e.s.",2625,"Fruits, Other"
200911,"Orange juice, frozen, unfermented & not containing added spirit, whether/not containing added sugar/other sweetening matter",2611,"Oranges, Mandarines"
200912,"Orange juice, not frozen, of a Brix value not >20, unfermented & not containing added spirit, whether/not containing added sugar/other sweetening matter",2611,"Oranges, Mandarines"
200919,"Orange juice, not frozen (excl. of 2009.19), unfermented & not containing added spirit, whether/not containing added sugar/other sweetening matter",2611,"Oranges, Mandarines"
200921,"Grapefruit juice, of a Brix value not >20, unfermented & not containing added spirit, whether/not containing added sugar/other sweetening matter",2613,Grapefruit and products
200929,"Grapefruit juice (excl. of 2009.21), unfermented & not containing added spirit, whether/not containing added sugar/other sweetening matter",2613,Grapefruit and products
200931,"Juice of any single citrus fruit other than orange/grapefruit, of a Brix value not >20, unfermented & not containing added spirit, whether/not containing added sugar/other sweetening matter",2614,"Citrus, Other"
200939,"Juice of any single citrus fruit other than orange/grapefruit (excl. of 2009.31), unfermented & not containing added spirit, whether/not containing added sugar/other sweetening matter",2614,"Citrus, Other"
200941,"Pineapple juice, of a Brix value not >20, unfermented & not containing added spirit, whether/not containing added sugar/other sweetening matter",2618,Pineapples and products
200949,"Pineapple juice (excl. of 2009.41), unfermented & not containing added spirit, whether/not containing added sugar/other sweetening matter",2618,Pineapples and products
200950,"Tomato juice, unfermented & not containing added spirit, whether/not containing added sugar/other sweetening matter",2601,Tomatoes and products
200961,"Grape juice, incl. grape must, of a Brix value not >30, unfermented & not containing added spirit, whether/not containing added sugar/other sweetening matter",2620,Grapes and products (excl wine)
200969,"Grape juice, incl. grape must (excl. of 2009.61), unfermented & not containing added spirit, whether/not containing added sugar/other sweetening matter",2620,Grapes and products (excl wine)
200971,"Apple juice, of a Brix value not >20, unfermented & not containing added spirit, whether/not containing added sugar/other sweetening matter",2617,Apples and products
200979,"Apple juice (excl. of 2009.71), unfermented & not containing added spirit, whether/not containing added sugar/other sweetening matter",2617,Apples and products
200980,"Juice of any single fruit/vegetable (excl. of 2009.11-2009.79), unfermented & not containing added spirit, whether/not containing added sugar/other sweetening matter",2625,"Fruits, Other"
200990,"Mixtures of juices, unfermented & not containing added spirit, whether/not containing added sugar/other sweetening matter",2625,"Fruits, Other"
210111,"Extracts, essences & concentrates of coffee",2630,Coffee and products
210112,Preparations with a basis of extracts/essences/concentrates of coffee/with a basis of coffee,2630,Coffee and products
210120,"Extracts, essences & concentrates of tea/matT, & preparations with a basis of these extracts/essences/concentrates/with a basis of tea/matT",2635,Tea (including mate)
210130,"Roasted chicory & other roasted coffee substitutes, & extracts, essences & concentrates thereof",2605,"Vegetables, Other"
210310,Soya sauce,2555,Soyabeans
210320,Tomato ketchup & other tomato sauces,2601,Tomatoes and products
210330,Mustard flour & meal & prepared mustard,2558,Rape and Mustardseed
210500,"Ice cream & other edible ice, whether/not containing cocoa",2848,Milk - Excluding Butter
