"Country","mu","sigma"
"Afghanistan",3.07946178042206,0.176971447713958
"Albania",3.24769058039997,0.165774435423453
"Algeria",3.28665122128128,0.206870752996289
"Andorra",3.28484509709125,0.169937373397265
"Angola",3.1070656154039,0.181384255889787
"Antigua and Barbuda",3.2120280532559,0.188034417158507
"Argentina",3.28129617610097,0.17764405506568
"Armenia",3.23738330417609,0.17500065387644
"Australia",3.28593962238403,0.177155666144654
"Austria",3.24137396650225,0.168784776155558
"Azerbaijan",3.23216268030116,0.171243237122527
"Bahamas",3.29109374718477,0.200896424531688
"Bahrain",3.31653635306434,0.211968068001509
"Bangladesh",3.0509711179443,0.179491427707922
"Barbados",3.23414530221631,0.191472997313123
"Belarus",3.26546183058557,0.17637533161849
"Belgium",3.26351775359203,0.163671227323404
"Belize",3.24397012167333,0.192635486048148
"Benin",3.12978955274852,0.174915590988498
"Bhutan",3.10748790841873,0.167008771113451
"Bolivia (Plurinational State of)",3.2431905204637,0.165424480798814
"Bosnia and Herzegovina",3.23407303415627,0.161315811317683
"Botswana",3.19015336245021,0.216370677486492
"Brazil",3.24403195276132,0.181691636471584
"Brunei Darussalam",3.17262071418132,0.18096861908037
"Bulgaria",3.27137057766473,0.17063225584132
"Burkina Faso",3.09721703460632,0.160862928721052
"Burundi",3.0936140882714,0.162740510104018
"Cabo Verde",3.15224229742654,0.179078594535218
"Cambodia",3.08251778393171,0.163029275216184
"Cameroon",3.15137997588388,0.171589297315641
"Canada",3.28583874111696,0.180216609090163
"Central African Republic",3.10137707778689,0.183016252752729
"Chad",3.09633457438931,0.168992274449137
"Chile",3.28178932609574,0.174681504542941
"China",3.14192021268983,0.147061962909896
"Colombia",3.25330318254537,0.175060472496209
"Comoros",3.11981248660314,0.169510337457322
"Congo",3.1216573403884,0.190213678580057
"Cook Islands",3.42268220673443,0.203308296077524
"Costa Rica",3.26164665966302,0.177281333729052
"Cote d'Ivoire",3.14060834245106,0.177574729320918
"Croatia",3.26374872196772,0.171355138910134
"Cuba",3.24830313896489,0.185845958535532
"Cyprus",3.26050157572715,0.164656640558546
"Czechia",3.27855981977699,0.172011847107232
"Democratic People's Republic of Korea",3.14480426124364,0.156877679315482
"Democratic Republic of the Congo",3.09242022398288,0.182020833627589
"Denmark",3.24439830267672,0.166722565702633
"Djibouti",3.16950223878722,0.189486327112848
"Dominica",3.26662238385369,0.198217422348619
"Dominican Republic",3.2595193936949,0.19708890754645
"Ecuador",3.24418639328105,0.161723966608915
"Egypt",3.28759485007962,0.192697621165838
"El Salvador",3.25903773857579,0.177829150344093
"Equatorial Guinea",3.10823476526342,0.180803251328155
"Eritrea",3.09961474629203,0.181881311278778
"Estonia",3.25186724039326,0.170721678133034
"Swaziland",3.17475903256228,0.195481625733648
"Ethiopia",3.07717676235214,0.187466132978701
"Fiji",3.28336297485935,0.190497108010237
"Finland",3.25928149135364,0.164967230470981
"France",3.26623600116741,0.182267522489328
"Gabon",3.17113467113948,0.198208771973229
"Gambia",3.13316103188081,0.179722344056116
"Georgia",3.23628812525787,0.178342446863344
"Germany",3.25554759575389,0.167802291886796
"Ghana",3.14060834245106,0.177574729320918
"Greece",3.27411815011632,0.166027100076302
"Grenada",3.22522732546221,0.189691521994881
"Guatemala",3.24156504307792,0.170188470353947
"Guinea",3.11489513958141,0.169858588519549
"Guinea-Bissau",3.12779643567982,0.17386985977885
"Guyana",3.21360817414347,0.192302807757531
"Haiti",3.22565831285951,0.201815980484616
"Honduras",3.23787193836833,0.176117296112931
"Hungary",3.27194319893857,0.17920309455242
"Iceland",3.26074452051913,0.162911056329009
"India",3.04541305974033,0.186796456669483
"Indonesia",3.10323417019973,0.176091716182319
"Iran (Islamic Republic of)",3.25512827597304,0.186636719207196
"Iraq",3.28617132633178,0.193535418472322
"Ireland",3.26608406215834,0.168669803913909
"Israel",3.28387770369268,0.169594949599422
"Italy",3.25453686271335,0.160114985731833
"Jamaica",3.24178701830194,0.199487630362667
"Japan",3.13005992708722,0.143325296037067
"Jordan",3.31460296083547,0.19132229083505
"Kazakhstan",3.23520924382091,0.178944229512411
"Kenya",3.10724664036823,0.170053412274268
"Kiribati",3.36949244521867,0.197293044254245
"Kuwait",3.33208162667625,0.188608234072263
"Kyrgyzstan",3.20904179522429,0.169277063518747
"Lao People's Democratic Republic",3.09786020426173,0.161418686881629
"Latvia",3.261919820628,0.175924716677448
"Lebanon",3.30035274425163,0.189391542985031
"Lesotho",3.17246993368787,0.198714944967253
"Liberia",3.13866615243963,0.172300328484739
"Libya",3.297261099282,0.194232449715622
"Lithuania",3.27422902226526,0.17771047923684
"Luxembourg",3.25939977423439,0.166214043688047
"Madagascar",3.0998733880725,0.183035139504887
"Malawi",3.10418300958649,0.16051290001746
"Malaysia",3.17435164661928,0.187243835206699
"Maldives",3.12069356474683,0.169304503111106
"Mali",3.11947906388067,0.17180863675849
"Malta",3.29557285941024,0.173601136349151
"Marshall Islands",3.41796546765227,0.192357860903633
"Mauritania",3.14939060475227,0.185709118884818
"Mauritius",3.14841888441621,0.176084180924421
"Mexico",3.28592818302472,0.180441529998773
"Micronesia (Federated States of)",3.36227477276791,0.208904830301178
"Mongolia",3.23444421476949,0.171502396154535
"Montenegro",3.26093395767104,0.171667738348354
"Morocco",3.25000804627885,0.202392808883559
"Mozambique",3.11378596338022,0.170151004219224
"Myanmar",3.08866338870152,0.173595155913245
"Namibia",3.16772530312224,0.208794615618244
"Nauru",3.45612799186004,0.200890573117026
"Nepal",3.0714898766131,0.169731416555023
"Netherlands",3.25105379203308,0.160750342152363
"New Zealand",3.29281609571307,0.179995620363483
"Nicaragua",3.25282949954802,0.179375231912333
"Niger",3.09253913063128,0.164420287486045
"Nigeria",3.1219506893187,0.173425134898913
"Niue",3.38293761292932,0.204031886584269
"Norway",3.25924362024986,0.168169250592853
"Oman",3.27132410438988,0.194607735870332
"Pakistan",3.10219549761479,0.191043680860981
"Palau",3.445126624635,0.215646300077734
"Panama",3.25238151740281,0.176545075180491
"Papua New Guinea",3.23333246670012,0.176304068852228
"Paraguay",3.23452209914178,0.170736230220007
"Peru",3.24803778382289,0.161048581175798
"Philippines",3.10960061632214,0.17361520430692
"Poland",3.25841246881009,0.174273926710108
"Portugal",3.25013468722509,0.162954872304017
"Qatar",3.31525847833028,0.187257777916319
"Republic of Korea",3.14779577843631,0.138533347934973
"Republic of Moldova",3.23338004685189,0.169246763260374
"Romania",3.2534151951004,0.172134382288059
"Russian Federation",3.25834945672125,0.17714254207953
"Rwanda",3.10969263567412,0.157188951209662
"Saint Kitts and Nevis",3.23164909012248,0.189418545252779
"Saint Lucia",3.21159796933945,0.188771039603286
"Saint Vincent and the Grenadines",3.23837088964727,0.192787934428972
"Samoa",3.37263316707699,0.199721037921238
"Sao Tome and Principe",3.1556719283245,0.178718556019695
"Saudi Arabia",3.31223280713343,0.198508778110662
"Senegal",3.12040428333105,0.1789636533731
"Serbia",3.25148347851936,0.170301516987053
"Seychelles",3.1678837351402,0.18117134243418
"Sierra Leone",3.12145456339541,0.173088677628598
"Singapore",3.14950983311272,0.152718610779647
"Slovakia",3.24849943985057,0.167517044681468
"Slovenia",3.2470500803825,0.167436037355271
"Solomon Islands",3.24097988453603,0.173108933320968
"Somalia",3.12064213679242,0.173354263669398
"South Africa",3.24949605539709,0.220028019575124
"Spain",3.27146425929407,0.165012511719755
"Sri Lanka",3.08829380459533,0.16788965816042
"Sudan",3.12486916340203,0.170011099157592
"South Sudan",3.12486916340203,0.170011099157592
"Suriname",3.26120953918288,0.197601815866963
"Sweden",3.24938041216457,0.164384111912637
"Switzerland",3.24055611374991,0.169008185643539
"Syrian Arab Republic",3.26700161104347,0.191902414972153
"Tajikistan",3.19482010591018,0.166628802195421
"Thailand",3.13040469893729,0.172622454056889
"Timor-Leste",3.06485724972862,0.153207422786186
"Togo",3.12299422332257,0.169811399540963
"Tonga",3.3765096203616,0.199983122129218
"Trinidad and Tobago",3.20485582042801,0.181255867820431
"Tunisia",3.26830494479766,0.203309926527105
"Turkey",3.29574013341679,0.187309820618304
"Turkmenistan",3.22213497777622,0.172561478168114
"Tuvalu",3.39300204276146,0.20149036475514
"Uganda",3.09899277098708,0.158120134704615
"Ukraine",3.26311416283151,0.175589208970405
"United Arab Emirates",3.29545126709185,0.188216817262096
"United Kingdom",3.27976686224159,0.174127817736238
"United Republic of Tanzania",3.11574706573329,0.173448708150039
"United States of America",3.31286834834187,0.19621008145704
"Uruguay",3.28029124304587,0.178632230474928
"Uzbekistan",3.2092421963938,0.169630967836808
"Vanuatu",3.25226301496549,0.182001580978503
"Venezuela (Bolivarian Republic of)",3.27759206044572,0.173072949923603
"Viet Nam",3.05676335004246,0.167781690619866
"World",3.16460437344014,0.191577148077354
"Yemen",3.18555351984307,0.211722719883945
"Zambia",3.11755108758239,0.174179474341927
"Zimbabwe",3.17464247048022,0.195829460729697
