Country,1960,1961,1962,1963,1964,1965,1966,1967,1968,1969,1970,1971,1972,1973,1974,1975,1976,1977,1978,1979,1980,1981,1982,1983,1984,1985,1986,1987,1988,1989,1990,1991,1992,1993,1994,1995,1996,1997,1998,1999,2000,2001,2002,2003,2004,2005,2006,2007,2008,2009,2010,2011,2012,2013,2014,2015,2016,2017,2018,2019,2020
Aruba,50.78,50.76,50.75,50.73,50.72,50.70,50.69,50.67,50.65,50.64,50.62,50.61,50.59,50.58,50.56,50.55,50.53,50.52,50.50,50.49,50.47,50.46,50.44,50.43,50.41,50.40,50.38,50.37,50.35,50.34,50.32,50.30,50.00,49.59,49.18,48.77,48.36,47.95,47.54,47.13,46.72,46.34,45.97,45.61,45.24,44.88,44.51,44.15,43.78,43.42,43.06,42.94,42.96,42.99,43.04,43.11,43.19,43.29,43.41,43.55,
Afghanistan,8.40,8.68,8.98,9.28,9.59,9.90,10.23,10.57,10.92,11.28,11.64,12.02,12.41,12.81,13.22,13.64,14.07,14.52,14.97,15.44,16.00,16.56,17.15,17.75,18.37,19.00,19.65,20.31,21.00,21.09,21.18,21.27,21.36,21.44,21.53,21.62,21.71,21.81,21.90,21.99,22.08,22.17,22.26,22.35,22.50,22.70,22.91,23.11,23.32,23.53,23.74,23.95,24.16,24.37,24.59,24.80,25.02,25.25,25.50,25.75,
Angola,10.44,10.80,11.20,11.62,12.06,12.50,12.97,13.44,13.93,14.44,14.96,15.63,16.46,17.31,18.20,19.13,20.09,21.09,22.12,23.19,24.30,25.44,26.61,27.82,29.07,30.34,31.64,32.98,34.34,35.73,37.14,38.58,40.04,41.51,43.00,44.17,45.35,46.53,47.71,48.90,50.09,51.27,52.46,53.65,54.83,56.00,56.76,57.52,58.28,59.03,59.78,60.53,61.27,62.00,62.73,63.45,64.15,64.84,65.51,66.18,
Albania,30.71,30.94,31.02,31.09,31.16,31.23,31.30,31.37,31.45,31.55,31.74,31.93,32.13,32.32,32.52,32.71,32.91,33.11,33.30,33.50,33.76,34.02,34.29,34.55,34.82,35.08,35.35,35.62,35.89,36.16,36.43,36.70,37.25,37.80,38.35,38.91,39.47,40.04,40.60,41.17,41.74,42.44,43.50,44.57,45.65,46.73,47.82,48.90,49.99,51.08,52.16,53.25,54.33,55.39,56.42,57.43,58.42,59.38,60.32,61.23,
Andorra,58.45,60.98,63.46,65.87,68.21,70.45,72.59,74.64,76.59,78.42,80.16,81.78,83.30,84.72,86.03,87.25,88.38,89.42,90.38,91.26,92.06,92.80,93.47,94.09,94.65,95.16,95.33,95.18,95.03,94.87,94.71,94.53,94.32,94.11,93.89,93.66,93.43,93.18,92.93,92.67,92.40,92.06,91.64,91.21,90.75,90.29,89.81,89.31,89.00,88.91,88.82,88.73,88.63,88.54,88.44,88.35,88.25,88.15,88.06,87.98,
Arab World,31.23,31.98,32.73,33.50,34.30,35.15,35.95,36.64,37.34,38.06,38.78,39.49,40.22,40.95,41.60,42.20,42.77,43.29,43.80,44.31,44.85,45.41,45.97,46.57,47.22,47.83,48.44,48.98,49.44,49.85,50.40,50.78,50.78,51.15,51.41,51.90,52.06,52.26,52.50,52.74,52.99,53.25,53.52,53.80,54.11,54.47,54.87,55.15,55.58,56.01,56.44,56.79,57.10,57.40,57.69,58.03,58.35,58.64,58.93,59.20,
United Arab Emirates,73.50,74.38,75.25,76.09,76.92,77.72,78.51,79.27,79.80,79.80,79.80,79.80,79.80,79.80,79.80,79.80,79.90,80.11,80.31,80.51,80.71,80.68,80.47,80.25,80.03,79.80,79.62,79.48,79.34,79.20,79.05,78.91,78.76,78.61,78.47,78.32,78.49,78.94,79.38,79.81,80.24,80.66,81.07,81.47,81.87,82.26,82.65,83.02,83.39,83.74,84.09,84.42,84.75,85.07,85.38,85.67,85.97,86.25,86.52,86.79,
Argentina,73.61,74.22,74.77,75.31,75.84,76.37,76.89,77.40,77.90,78.39,78.88,79.32,79.74,80.16,80.57,80.97,81.37,81.76,82.14,82.52,82.89,83.31,83.76,84.19,84.62,85.04,85.45,85.84,86.23,86.61,86.98,87.33,87.54,87.75,87.96,88.16,88.37,88.56,88.76,88.95,89.14,89.33,89.51,89.69,89.86,90.03,90.20,90.37,90.53,90.69,90.85,90.99,91.12,91.25,91.38,91.50,91.63,91.75,91.87,91.99,
Armenia,51.28,52.15,53.02,53.89,54.76,55.62,56.48,57.34,58.20,59.04,59.86,60.66,61.45,62.23,63.00,63.61,64.22,64.82,65.42,65.84,66.05,66.26,66.47,66.68,66.88,67.09,67.30,67.50,67.71,67.69,67.42,67.15,66.88,66.61,66.33,66.06,65.78,65.50,65.23,64.95,64.67,64.39,64.24,64.14,64.04,63.94,63.84,63.74,63.64,63.54,63.44,63.34,63.24,63.16,63.11,63.09,63.08,63.10,63.15,63.22,
American Samoa,66.21,66.64,67.07,67.49,67.92,68.33,68.75,69.16,69.57,69.98,70.38,70.78,71.18,71.58,71.97,72.35,72.74,73.12,73.50,73.87,74.33,75.04,75.74,76.43,77.10,77.76,78.41,79.04,79.66,80.26,80.95,81.89,82.79,83.65,84.49,85.28,86.04,86.77,87.47,88.13,88.59,88.49,88.39,88.30,88.20,88.10,88.00,87.90,87.80,87.70,87.59,87.50,87.42,87.35,87.29,87.24,87.20,87.17,87.15,87.15,
Antigua and Barbuda,39.66,39.04,38.43,37.82,37.21,36.61,36.01,35.42,34.83,34.25,33.82,33.90,33.98,34.06,34.14,34.22,34.30,34.38,34.46,34.54,34.62,34.70,34.78,34.86,34.94,35.02,35.10,35.18,35.26,35.35,35.43,35.47,35.09,34.71,34.33,33.96,33.59,33.22,32.86,32.49,32.13,31.74,31.10,30.46,29.84,29.22,28.61,28.00,27.41,26.82,26.24,25.70,25.53,25.35,25.18,25.00,24.85,24.71,24.60,24.51,
Australia,81.53,81.94,82.23,82.51,82.79,83.07,83.34,83.51,83.67,83.84,84.00,84.16,84.32,84.48,84.64,84.79,84.95,85.10,85.25,85.40,85.55,85.70,85.67,85.64,85.61,85.58,85.55,85.52,85.49,85.46,85.43,85.40,85.29,85.16,85.03,84.90,84.77,84.64,84.50,84.37,84.24,84.10,84.22,84.34,84.46,84.58,84.70,84.82,84.94,85.06,85.18,85.30,85.40,85.50,85.60,85.70,85.80,85.90,86.01,86.12,
Austria,64.72,64.81,64.86,64.91,64.96,65.01,65.06,65.11,65.16,65.21,65.26,65.30,65.31,65.32,65.33,65.34,65.35,65.36,65.37,65.38,65.39,65.36,65.10,64.84,64.57,64.31,64.04,63.77,63.50,63.23,62.96,62.69,62.42,62.14,61.87,61.60,61.32,61.05,60.77,60.49,60.21,59.93,59.66,59.38,59.09,58.81,58.53,58.25,57.97,57.68,57.40,57.12,57.15,57.34,57.53,57.72,57.91,58.09,58.30,58.52,
Azerbaijan,52.66,52.36,52.06,51.76,51.46,51.16,50.86,50.56,50.26,49.96,50.01,50.46,50.92,51.37,51.70,51.90,52.10,52.29,52.49,52.66,52.78,52.90,53.02,53.14,53.30,53.50,53.70,53.90,54.09,54.06,53.75,53.44,53.13,52.82,52.52,52.21,51.90,51.59,51.28,51.19,51.39,51.59,51.79,51.99,52.19,52.39,52.59,52.79,52.99,53.19,53.41,53.64,53.88,54.15,54.42,54.71,55.02,55.34,55.68,56.03,
Burundi,2.08,2.12,2.15,2.19,2.23,2.29,2.40,2.50,2.61,2.73,2.85,2.97,3.10,3.24,3.38,3.53,3.68,3.84,4.01,4.18,4.34,4.50,4.67,4.85,5.03,5.22,5.42,5.62,5.83,6.05,6.27,6.46,6.64,6.82,7.01,7.21,7.41,7.62,7.83,8.04,8.25,8.46,8.68,8.91,9.14,9.38,9.62,9.86,10.12,10.38,10.64,10.92,11.19,11.48,11.78,12.08,12.39,12.71,13.03,13.37,
Belgium,92.46,92.55,92.68,92.84,92.99,93.14,93.28,93.43,93.57,93.71,93.84,93.98,94.11,94.23,94.36,94.48,94.60,94.81,95.01,95.20,95.38,95.54,95.64,95.74,95.84,95.93,96.02,96.12,96.20,96.29,96.38,96.46,96.54,96.62,96.70,96.78,96.85,96.92,97.00,97.07,97.13,97.19,97.24,97.30,97.35,97.40,97.45,97.51,97.56,97.60,97.65,97.70,97.74,97.79,97.83,97.88,97.92,97.96,98.00,98.04,
Benin,9.28,9.86,10.47,11.12,11.80,12.52,13.28,14.07,14.90,15.78,16.69,17.65,18.65,19.69,20.78,21.90,23.08,24.29,25.55,26.68,27.34,28.01,28.69,29.38,30.09,30.80,31.52,32.25,32.99,33.73,34.49,35.25,35.83,36.14,36.45,36.76,37.07,37.39,37.70,38.02,38.33,38.65,39.04,39.54,40.04,40.54,41.05,41.56,42.07,42.58,43.09,43.61,44.13,44.64,45.17,45.70,46.23,46.77,47.31,47.86,
Burkina Faso,4.70,4.80,4.89,4.99,5.10,5.20,5.30,5.41,5.52,5.63,5.75,5.86,5.98,6.10,6.22,6.35,6.67,7.15,7.67,8.22,8.81,9.43,10.09,10.80,11.54,12.33,12.83,13.07,13.32,13.56,13.82,14.07,14.33,14.59,14.86,15.13,15.41,15.88,16.51,17.17,17.84,18.54,19.26,20.00,20.76,21.54,22.34,23.00,23.53,24.08,24.63,25.20,25.77,26.35,26.93,27.53,28.13,28.74,29.36,29.98,
Bangladesh,5.14,5.28,5.50,5.73,5.96,6.21,6.47,6.73,7.01,7.30,7.59,7.90,8.22,8.55,9.03,9.84,10.70,11.63,12.63,13.70,14.85,15.80,16.21,16.63,17.06,17.50,17.94,18.40,18.86,19.33,19.81,20.26,20.61,20.97,21.33,21.69,22.06,22.44,22.82,23.20,23.59,24.10,24.76,25.43,26.11,26.81,27.52,28.24,28.97,29.71,30.46,31.23,31.99,32.76,33.54,34.31,35.08,35.86,36.63,37.41,
Bulgaria,37.10,38.78,40.49,42.23,43.99,45.76,47.23,48.50,49.77,51.03,52.30,53.36,54.42,55.47,56.52,57.56,58.53,59.43,60.33,61.22,62.10,62.60,63.10,63.60,64.10,64.59,65.00,65.35,65.69,66.04,66.38,66.72,67.06,67.33,67.56,67.78,68.01,68.23,68.45,68.68,68.90,69.17,69.52,69.88,70.23,70.58,70.93,71.28,71.62,71.96,72.30,72.64,72.98,73.31,73.65,73.99,74.33,74.67,75.01,75.35,
Bahrain,82.32,82.34,82.36,82.37,82.39,82.50,82.76,83.02,83.28,83.53,83.78,84.02,84.27,84.50,84.74,84.98,85.21,85.43,85.66,85.88,86.10,86.32,86.53,86.74,86.95,87.16,87.36,87.56,87.75,87.95,88.14,88.33,88.40,88.40,88.39,88.39,88.39,88.38,88.38,88.38,88.37,88.37,88.37,88.38,88.40,88.42,88.45,88.49,88.53,88.58,88.63,88.70,88.76,88.84,88.92,89.00,89.09,89.19,89.29,89.39,
"Bahamas, The",59.71,60.45,61.19,61.93,62.64,63.34,64.04,64.73,65.42,66.09,66.76,67.43,68.09,68.74,69.38,70.02,70.65,71.27,71.88,72.48,73.10,73.84,74.57,75.29,75.99,76.67,77.35,78.01,78.65,79.28,79.84,80.07,80.29,80.52,80.74,80.96,81.18,81.40,81.61,81.82,82.01,82.05,82.09,82.13,82.18,82.22,82.26,82.30,82.34,82.39,82.43,82.48,82.53,82.60,82.67,82.75,82.83,82.93,83.03,83.13,
Bosnia and Herzegovina,19.04,19.69,20.44,21.21,22.00,22.82,23.65,24.51,25.39,26.28,27.20,28.09,28.88,29.67,30.47,31.29,32.12,32.96,33.81,34.67,35.54,36.28,36.61,36.93,37.26,37.59,37.92,38.25,38.58,38.92,39.25,39.58,39.89,40.20,40.51,40.82,41.13,41.44,41.76,42.07,42.38,42.70,43.01,43.33,43.65,43.97,44.28,44.60,44.92,45.24,45.56,45.88,46.20,46.52,46.84,47.17,47.52,47.88,48.25,48.63,
Belarus,32.40,33.52,34.66,35.82,37.00,38.13,39.27,40.42,41.59,42.76,44.01,45.35,46.70,48.05,49.40,50.61,51.83,53.04,54.25,55.40,56.50,57.58,58.66,59.74,60.80,61.83,62.86,63.87,64.87,65.59,65.98,66.37,66.77,67.16,67.54,67.93,68.31,68.69,69.06,69.48,69.97,70.46,70.94,71.42,71.89,72.35,72.82,73.27,73.73,74.17,74.67,75.19,75.70,76.20,76.69,77.18,77.66,78.13,78.60,79.04,
Belize,54.03,53.72,53.41,53.10,52.79,52.48,52.17,51.86,51.55,51.24,50.96,50.81,50.65,50.49,50.33,50.17,50.01,49.85,49.70,49.54,49.37,49.18,48.99,48.80,48.61,48.42,48.23,48.04,47.85,47.66,47.47,47.27,47.06,46.85,46.64,46.43,46.21,46.00,45.79,45.58,45.40,45.38,45.36,45.35,45.33,45.31,45.30,45.28,45.26,45.25,45.23,45.23,45.25,45.28,45.34,45.41,45.50,45.60,45.72,45.87,
Bermuda,100.00,100.00,100.00,100.00,100.00,100.00,100.00,100.00,100.00,100.00,100.00,100.00,100.00,100.00,100.00,100.00,100.00,100.00,100.00,100.00,100.00,100.00,100.00,100.00,100.00,100.00,100.00,100.00,100.00,100.00,100.00,100.00,100.00,100.00,100.00,100.00,100.00,100.00,100.00,100.00,100.00,100.00,100.00,100.00,100.00,100.00,100.00,100.00,100.00,100.00,100.00,100.00,100.00,100.00,100.00,100.00,100.00,100.00,100.00,100.00,
Bolivia,36.76,37.06,37.36,37.66,37.96,38.26,38.56,38.86,39.17,39.47,39.78,40.08,40.39,40.70,41.00,41.31,41.62,42.45,43.44,44.44,45.45,46.46,47.47,48.49,49.50,50.52,51.54,52.55,53.56,54.57,55.58,56.58,57.54,58.08,58.62,59.15,59.68,60.21,60.74,61.26,61.79,62.31,62.78,63.25,63.71,64.17,64.63,65.08,65.54,65.98,66.43,66.87,67.32,67.70,68.05,68.39,68.74,69.08,69.43,69.77,
Brazil,46.14,47.12,48.10,49.08,50.06,51.04,52.02,52.99,53.97,54.94,55.91,56.89,57.88,58.86,59.83,60.79,61.75,62.69,63.63,64.55,65.47,66.37,67.26,68.14,69.01,69.86,70.70,71.53,72.34,73.14,73.92,74.69,75.44,76.18,76.90,77.61,78.30,79.05,79.78,80.50,81.19,81.55,81.88,82.20,82.52,82.83,83.14,83.45,83.75,84.04,84.34,84.63,84.92,85.21,85.49,85.77,86.04,86.31,86.57,86.82,
Barbados,36.78,36.85,36.92,37.00,37.07,37.14,37.21,37.29,37.36,37.43,37.55,37.81,38.07,38.33,38.59,38.86,39.12,39.38,39.65,39.91,40.10,39.83,39.55,39.28,39.01,38.74,38.46,38.19,37.92,37.65,37.37,37.01,36.64,36.28,35.92,35.57,35.21,34.86,34.50,34.15,33.83,33.63,33.43,33.23,33.04,32.84,32.65,32.45,32.26,32.06,31.87,31.70,31.55,31.43,31.33,31.25,31.19,31.16,31.15,31.16,
Brunei Darussalam,43.40,45.23,47.07,48.92,50.78,52.63,54.47,56.30,58.12,59.91,61.68,63.41,63.74,63.89,64.04,64.19,64.35,64.50,64.65,64.80,64.95,65.10,65.25,65.40,65.55,65.70,65.85,65.99,66.14,66.29,66.44,66.59,67.08,67.60,68.13,68.64,69.16,69.67,70.17,70.67,71.16,71.65,72.05,72.42,72.79,73.16,73.53,73.89,74.25,74.61,74.96,75.31,75.66,76.00,76.33,76.66,76.99,77.31,77.63,77.94,
Bhutan,3.60,3.79,4.00,4.22,4.45,4.69,4.94,5.21,5.49,5.78,6.09,6.41,6.75,7.11,7.48,7.88,8.29,8.72,9.17,9.64,10.13,10.65,11.18,11.75,12.33,12.94,13.58,14.24,14.93,15.65,16.39,17.16,17.96,18.79,19.65,20.54,21.46,22.40,23.38,24.38,25.42,26.48,27.57,28.69,29.84,30.97,31.71,32.47,33.24,34.01,34.79,35.59,36.37,37.15,37.92,38.68,39.43,40.17,40.90,41.61,
Botswana,3.06,3.10,3.13,3.17,3.32,3.84,4.44,5.12,5.91,6.81,7.83,9.00,9.70,10.38,11.11,11.88,12.71,13.57,14.49,15.46,16.48,17.55,19.49,21.72,24.14,26.72,29.48,32.40,35.47,38.65,41.93,45.29,46.44,47.29,48.13,48.98,49.83,50.68,51.53,52.37,53.22,54.06,54.57,55.03,55.49,55.94,56.40,57.93,59.44,60.94,62.41,63.87,64.77,65.57,66.37,67.16,67.93,68.70,69.45,70.17,
Central African Republic,20.10,20.75,21.42,22.10,22.80,23.52,24.25,25.00,25.82,26.65,27.49,28.36,29.24,30.13,31.05,31.97,32.58,32.90,33.22,33.55,33.87,34.20,34.53,34.86,35.20,35.53,35.87,36.21,36.55,36.74,36.83,36.91,36.99,37.07,37.15,37.23,37.31,37.39,37.48,37.56,37.64,37.72,37.80,37.88,37.97,38.07,38.19,38.34,38.51,38.69,38.90,39.14,39.39,39.66,39.96,40.28,40.62,40.98,41.36,41.77,
Canada,69.06,69.67,70.49,71.31,72.11,72.89,73.64,74.16,74.66,75.16,75.65,76.09,75.97,75.85,75.73,75.61,75.50,75.54,75.58,75.62,75.66,75.71,75.87,76.04,76.20,76.35,76.50,76.52,76.54,76.56,76.58,76.62,76.89,77.15,77.41,77.68,77.95,78.34,78.72,79.10,79.48,79.81,79.89,79.97,80.05,80.12,80.21,80.40,80.58,80.76,80.94,81.10,81.14,81.18,81.22,81.26,81.30,81.35,81.41,81.48,
Central Europe and the Baltics,44.51,45.21,45.87,46.53,47.21,47.88,48.51,49.07,49.64,50.22,50.78,51.43,52.15,52.87,53.59,54.29,54.99,55.71,56.43,57.10,57.71,58.16,58.56,58.96,59.35,59.75,60.13,60.51,60.89,61.18,61.39,61.60,61.69,61.67,61.64,61.61,61.59,61.56,61.53,61.51,61.48,61.50,61.56,61.60,61.65,61.70,61.76,61.84,61.92,61.99,62.03,62.06,62.08,62.10,62.11,62.14,62.18,62.25,62.33,62.44,
Switzerland,70.92,71.24,71.54,71.83,72.13,72.42,72.71,72.99,73.28,73.56,73.84,73.99,74.05,74.10,74.15,74.21,74.26,74.32,74.37,74.42,74.48,74.47,74.41,74.35,74.29,74.23,74.17,74.11,74.05,73.99,73.93,73.87,73.82,73.76,73.71,73.65,73.60,73.55,73.49,73.44,73.38,73.38,73.40,73.43,73.45,73.48,73.50,73.53,73.56,73.58,73.61,73.63,73.65,73.67,73.70,73.72,73.74,73.76,73.80,73.85,
Channel Islands,38.70,38.44,38.17,37.91,37.65,37.39,37.12,36.86,36.60,36.35,36.09,35.80,35.39,34.99,34.59,34.18,33.78,33.39,32.99,32.60,32.21,31.91,31.89,31.87,31.85,31.83,31.81,31.71,31.60,31.50,31.39,31.26,31.08,30.89,30.71,30.52,30.40,30.42,30.43,30.45,30.47,30.50,30.56,30.62,30.68,30.74,30.81,30.87,30.93,30.99,31.05,31.09,31.06,31.03,31.00,30.96,30.93,30.91,30.91,30.93,
Chile,67.84,68.66,69.44,70.20,70.96,71.70,72.43,73.15,73.85,74.55,75.23,75.88,76.53,77.16,77.78,78.39,78.98,79.57,80.14,80.70,81.24,81.78,82.23,82.36,82.49,82.62,82.76,82.89,83.01,83.14,83.27,83.40,83.56,83.90,84.22,84.55,84.86,85.17,85.48,85.78,86.07,86.36,86.61,86.67,86.73,86.78,86.84,86.90,86.96,87.02,87.07,87.13,87.19,87.25,87.30,87.36,87.42,87.49,87.56,87.64,
China,16.20,16.71,17.23,17.76,18.30,18.09,17.92,17.79,17.66,17.53,17.40,17.29,17.18,17.18,17.29,17.40,17.46,17.52,17.90,18.62,19.36,20.12,20.90,21.55,22.20,22.87,23.56,24.26,24.97,25.70,26.44,27.31,28.20,29.10,30.02,30.96,31.92,32.88,33.87,34.87,35.88,37.09,38.43,39.78,41.14,42.52,43.87,45.20,46.54,47.88,49.23,50.51,51.77,53.01,54.26,55.50,56.74,57.96,59.15,60.31,
Cote d'Ivoire,17.68,18.91,20.21,21.58,23.01,24.50,25.21,25.93,26.66,27.40,28.16,28.93,29.72,30.51,31.32,32.23,33.59,34.98,36.40,36.61,36.83,37.04,37.26,37.48,37.69,37.91,38.13,38.35,38.61,38.98,39.35,39.72,40.09,40.46,40.84,41.21,41.59,41.96,42.34,42.74,43.16,43.57,43.98,44.40,44.82,45.23,45.65,46.07,46.49,46.91,47.33,47.75,48.17,48.59,49.01,49.44,49.88,50.33,50.78,51.24,
Cameroon,13.94,14.49,15.06,15.65,16.26,16.88,17.53,18.19,18.88,19.58,20.30,21.58,22.93,24.32,25.78,27.29,28.68,29.47,30.27,31.09,31.92,32.76,33.61,34.48,35.35,36.23,37.12,37.94,38.51,39.08,39.66,40.24,40.82,41.40,41.99,42.57,43.16,43.76,44.35,44.94,45.54,46.14,46.74,47.34,47.94,48.54,49.14,49.75,50.35,50.95,51.56,52.16,52.77,53.37,53.98,54.58,55.18,55.78,56.37,56.97,
"Congo, Dem. Rep.",22.30,22.52,22.75,22.98,23.20,23.43,23.67,23.90,24.13,24.37,24.61,24.85,25.09,25.33,25.58,25.82,26.07,26.32,26.57,26.82,27.07,27.33,27.58,27.84,28.10,28.51,28.93,29.35,29.78,30.20,30.63,31.07,31.51,31.95,32.39,32.84,33.29,33.74,34.20,34.66,35.12,35.59,36.06,36.53,37.00,37.48,37.97,38.47,38.98,39.49,40.01,40.54,41.08,41.63,42.18,42.74,43.31,43.88,44.46,45.05,
"Congo, Rep.",31.60,32.32,33.05,33.78,34.52,35.27,36.03,36.80,37.57,38.35,39.13,39.92,40.72,41.51,42.36,43.26,44.18,45.09,46.01,46.93,47.86,48.78,49.71,50.63,51.56,52.22,52.64,53.06,53.49,53.91,54.32,54.74,55.16,55.58,56.00,56.41,56.83,57.30,57.77,58.23,58.70,59.16,59.62,60.08,60.53,60.99,61.44,61.89,62.35,62.80,63.26,63.71,64.17,64.63,65.09,65.54,66.00,66.46,66.92,67.37,
Colombia,46.27,47.70,49.14,50.58,52.03,52.82,53.59,54.35,55.12,55.88,56.64,57.39,58.14,58.89,59.61,60.31,61.00,61.69,62.38,63.06,63.74,64.41,65.07,65.73,66.39,67.03,67.57,68.05,68.53,69.01,69.48,69.95,70.42,70.87,71.33,71.78,72.22,72.66,73.10,73.53,73.96,74.38,74.80,75.21,75.62,76.02,76.42,76.82,77.20,77.59,77.96,78.34,78.70,79.06,79.42,79.76,80.11,80.45,80.78,81.10,
Comoros,12.55,13.35,14.19,15.07,16.00,16.98,18.00,18.34,18.69,19.04,19.39,19.75,20.12,20.48,20.86,21.24,21.63,22.01,22.41,22.81,23.22,23.65,24.10,24.55,25.01,25.47,25.94,26.41,26.89,27.38,27.87,28.37,28.44,28.39,28.35,28.30,28.26,28.21,28.17,28.12,28.08,28.04,27.99,27.95,27.90,27.88,27.86,27.87,27.89,27.92,27.97,28.04,28.12,28.22,28.34,28.47,28.62,28.78,28.97,29.16,
Cabo Verde,16.68,16.95,17.22,17.50,17.79,18.07,18.36,18.66,18.95,19.26,19.56,19.90,20.27,20.65,21.03,21.42,21.81,22.21,22.61,23.02,23.52,25.00,26.54,28.13,29.79,31.50,33.89,36.36,38.90,41.50,44.12,45.04,45.97,46.90,47.83,48.77,49.70,50.64,51.57,52.51,53.44,54.29,55.15,56.00,56.85,57.69,58.53,59.36,60.19,61.02,61.82,62.32,62.82,63.32,63.81,64.30,64.78,65.26,65.73,66.20,
Costa Rica,34.25,34.33,34.40,34.61,35.20,35.79,36.39,36.99,37.60,38.21,38.83,39.45,40.07,40.66,41.00,41.35,41.70,42.05,42.40,42.75,43.10,43.45,43.80,44.16,44.54,45.45,46.35,47.26,48.18,49.09,50.00,50.92,51.83,52.74,53.65,54.56,55.47,56.37,57.26,58.16,59.05,60.41,61.75,63.08,64.39,65.67,66.94,68.17,69.39,70.58,71.74,72.87,73.95,74.97,75.94,76.86,77.74,78.56,79.34,80.08,
Caribbean small states,34.98,35.51,36.04,36.58,37.11,37.64,38.17,38.70,39.24,39.77,40.28,40.74,41.30,41.94,42.59,43.23,43.87,44.51,45.15,45.80,46.41,46.73,47.06,47.26,47.47,47.69,47.91,48.14,48.37,48.59,48.80,48.97,49.12,49.26,49.39,49.53,49.68,49.82,49.96,50.11,50.25,50.33,50.36,50.38,50.40,50.41,50.42,50.42,50.43,50.43,50.43,50.46,50.52,50.59,50.68,50.78,50.91,51.04,51.20,51.37,
Cuba,58.40,58.59,58.78,58.96,59.15,59.34,59.52,59.71,59.90,60.08,60.27,60.98,61.80,62.61,63.42,64.22,65.02,65.80,66.58,67.35,68.11,68.85,69.41,69.93,70.43,70.93,71.43,71.92,72.41,72.89,73.36,73.68,73.83,73.98,74.13,74.28,74.43,74.62,74.86,75.09,75.32,75.56,75.79,75.95,76.04,76.13,76.23,76.32,76.41,76.51,76.60,76.69,76.78,76.83,76.86,76.90,76.93,76.98,77.04,77.11,
Curacao,74.71,75.10,75.49,75.88,76.26,76.63,77.00,77.37,77.73,78.09,78.45,78.80,79.15,79.49,79.83,80.16,80.49,80.82,81.14,81.46,81.77,82.08,82.38,82.68,82.98,83.27,83.56,83.85,84.13,84.41,84.68,84.95,85.44,86.22,86.97,87.68,88.36,89.00,89.62,90.20,90.75,91.01,90.89,90.78,90.66,90.53,90.41,90.29,90.16,90.03,89.91,89.78,89.65,89.54,89.44,89.35,89.27,89.20,89.15,89.10,
Cayman Islands,100.00,100.00,100.00,100.00,100.00,100.00,100.00,100.00,100.00,100.00,100.00,100.00,100.00,100.00,100.00,100.00,100.00,100.00,100.00,100.00,100.00,100.00,100.00,100.00,100.00,100.00,100.00,100.00,100.00,100.00,100.00,100.00,100.00,100.00,100.00,100.00,100.00,100.00,100.00,100.00,100.00,100.00,100.00,100.00,100.00,100.00,100.00,100.00,100.00,100.00,100.00,100.00,100.00,100.00,100.00,100.00,100.00,100.00,100.00,100.00,
Cyprus,35.63,36.18,36.67,37.18,37.68,38.19,38.70,39.21,39.73,40.24,40.76,41.28,41.81,42.76,45.01,47.28,49.56,51.84,54.12,56.38,58.61,60.81,62.96,63.82,64.25,64.68,65.10,65.52,65.95,66.36,66.78,67.19,67.60,67.79,67.92,68.04,68.16,68.28,68.41,68.53,68.65,68.77,68.69,68.55,68.41,68.27,68.13,67.98,67.84,67.70,67.55,67.41,67.26,67.14,67.03,66.95,66.88,66.84,66.81,66.81,
Czech Republic,59.55,60.06,60.56,61.04,61.53,62.02,62.50,62.98,63.46,63.93,64.40,65.30,66.48,67.65,68.79,69.92,71.02,72.09,73.14,74.17,75.17,75.48,75.45,75.42,75.39,75.37,75.34,75.31,75.28,75.25,75.22,75.16,75.03,74.90,74.77,74.64,74.51,74.38,74.25,74.12,73.99,73.88,73.81,73.74,73.67,73.60,73.53,73.46,73.39,73.32,73.26,73.19,73.20,73.29,73.38,73.48,73.57,73.68,73.79,73.92,
Germany,71.38,71.70,71.76,71.83,71.89,71.96,72.02,72.08,72.15,72.21,72.27,72.33,72.39,72.45,72.50,72.56,72.62,72.67,72.73,72.79,72.84,72.99,73.11,73.10,72.94,72.71,72.62,72.84,73.00,72.98,73.12,73.27,73.36,73.50,73.71,73.92,74.13,74.34,74.55,74.76,74.97,75.17,75.37,75.58,75.78,75.98,76.18,76.38,76.58,76.77,76.97,77.16,77.17,77.18,77.19,77.20,77.22,77.26,77.31,77.38,
Djibouti,50.33,51.45,52.62,53.79,54.95,56.11,57.26,58.40,59.54,60.66,61.78,62.88,63.97,65.04,66.10,67.14,68.17,69.18,70.17,71.14,72.10,73.03,73.94,74.50,74.72,74.93,75.13,75.34,75.55,75.75,75.96,76.11,76.16,76.21,76.25,76.30,76.35,76.39,76.44,76.49,76.53,76.58,76.62,76.67,76.72,76.76,76.81,76.85,76.90,76.94,77.00,77.06,77.14,77.22,77.31,77.42,77.53,77.65,77.78,77.92,
Dominica,37.85,37.91,37.98,38.05,38.11,38.18,38.25,38.31,38.38,38.45,38.68,39.47,40.26,41.06,41.86,42.67,43.48,44.30,45.12,45.94,46.76,47.79,49.52,51.26,52.99,54.71,56.42,58.12,59.80,61.45,63.08,64.48,64.57,64.66,64.74,64.83,64.92,65.01,65.09,65.18,65.27,65.38,65.69,65.99,66.30,66.60,66.90,67.20,67.50,67.80,68.09,68.39,68.69,68.98,69.28,69.58,69.88,70.18,70.48,70.79,
Denmark,73.69,74.42,75.09,75.76,76.41,77.05,77.62,78.16,78.70,79.22,79.74,80.24,80.73,81.21,81.68,82.15,82.60,82.89,83.17,83.45,83.72,83.92,84.03,84.13,84.24,84.35,84.46,84.57,84.67,84.78,84.84,84.87,84.90,84.93,84.95,84.98,85.01,85.03,85.06,85.09,85.10,85.15,85.25,85.36,85.57,85.86,86.10,86.29,86.49,86.65,86.80,86.96,87.14,87.29,87.41,87.53,87.64,87.76,87.87,87.99,
Dominican Republic,30.19,31.11,32.07,33.05,34.05,35.05,36.07,37.11,38.15,39.21,40.27,41.35,42.44,43.53,44.63,45.73,46.84,47.95,49.06,50.18,51.29,52.40,53.05,53.32,53.60,53.87,54.14,54.41,54.68,54.96,55.23,55.50,55.77,56.04,56.75,57.60,58.44,59.28,60.11,60.93,61.75,62.57,63.37,64.61,66.00,67.37,68.71,70.02,71.30,72.54,73.75,74.83,75.80,76.75,77.67,78.57,79.44,80.28,81.07,81.83,
Algeria,30.51,31.80,33.21,34.66,36.14,37.64,38.84,39.00,39.17,39.33,39.50,39.67,39.83,40.00,40.16,40.33,40.50,40.93,41.79,42.67,43.54,44.42,45.30,46.19,47.08,47.97,48.86,49.72,50.51,51.30,52.09,52.87,53.66,54.44,55.22,56.00,56.77,57.54,58.31,59.12,59.92,60.71,61.50,62.28,63.06,63.83,64.59,65.35,66.10,66.83,67.54,68.24,68.92,69.58,70.22,70.85,71.46,72.05,72.63,73.19,
East Asia & Pacific (excluding high income),16.92,17.39,17.86,18.33,18.82,18.74,18.70,18.70,18.72,18.74,18.77,18.80,18.86,19.00,19.22,19.27,19.43,19.60,20.01,20.66,21.34,22.05,22.77,23.39,24.03,24.67,25.33,26.01,26.69,27.39,28.10,28.88,29.68,30.49,31.32,32.16,33.02,33.88,34.76,35.65,36.56,37.59,38.70,39.82,40.96,42.09,43.20,44.30,45.41,46.51,47.62,48.66,49.67,50.68,51.69,52.69,53.68,54.67,55.63,56.57,
Early-demographic dividend,22.91,23.20,23.54,23.87,24.21,24.56,24.90,25.26,25.61,25.96,26.32,26.70,27.14,27.59,28.04,28.35,28.80,29.24,29.70,30.15,30.63,31.12,31.54,31.96,32.39,32.82,33.25,33.67,34.08,34.50,34.94,35.31,35.66,36.01,36.35,36.69,37.03,37.36,37.68,38.01,38.33,38.66,39.02,39.38,39.74,40.11,40.48,40.85,41.23,41.61,42.00,42.38,42.76,43.14,43.53,43.93,44.33,44.73,45.13,45.54,
East Asia & Pacific,22.57,23.22,23.75,24.21,24.69,24.69,24.68,24.73,24.77,24.87,24.95,25.04,25.14,25.30,25.58,25.72,25.90,26.09,26.48,27.09,27.73,28.40,29.06,29.63,30.22,30.81,31.42,32.04,32.67,33.31,33.96,34.65,35.35,36.07,36.80,37.55,38.31,39.07,39.84,40.61,41.42,42.41,43.50,44.58,45.67,46.76,47.81,48.84,49.89,50.92,51.95,52.88,53.77,54.66,55.55,56.44,57.32,58.20,59.05,59.89,
Europe & Central Asia (excluding high income),45.74,46.49,47.24,47.98,48.73,49.49,50.23,50.98,51.72,52.46,53.18,53.86,54.52,55.17,55.81,56.43,57.03,57.60,58.17,58.66,59.05,59.56,60.11,60.66,61.22,61.77,62.26,62.73,63.19,63.52,63.69,63.79,63.87,63.94,64.02,64.12,64.20,64.28,64.37,64.46,64.56,64.69,64.84,65.01,65.19,65.38,65.57,65.76,65.95,66.14,66.31,66.47,66.63,66.79,66.95,67.11,67.28,67.46,67.64,67.82,
Europe & Central Asia,55.56,56.10,56.63,57.19,57.74,58.30,58.86,59.41,59.94,60.43,60.92,61.40,61.86,62.31,62.75,63.16,63.54,63.93,64.32,64.67,64.98,65.31,65.61,65.89,66.17,66.44,66.70,66.98,67.26,67.46,67.61,67.74,67.85,67.94,68.06,68.17,68.28,68.39,68.50,68.61,68.74,68.90,69.10,69.31,69.52,69.74,69.95,70.16,70.38,70.58,70.77,70.95,71.12,71.29,71.47,71.64,71.83,72.02,72.21,72.41,
Ecuador,33.88,34.47,35.06,35.61,36.12,36.64,37.16,37.69,38.22,38.74,39.28,39.81,40.35,40.89,41.46,42.36,43.28,44.19,45.11,46.03,46.96,47.89,48.82,49.66,50.44,51.22,51.99,52.77,53.55,54.32,55.09,55.71,56.23,56.74,57.25,57.77,58.28,58.79,59.29,59.80,60.30,60.80,61.12,61.32,61.51,61.71,61.91,62.10,62.30,62.50,62.69,62.85,62.99,63.13,63.26,63.40,63.53,63.67,63.82,63.99,
"Egypt, Arab Rep.",37.86,38.27,38.62,38.98,39.33,39.69,40.04,40.40,40.76,41.12,41.48,41.84,42.20,42.56,42.93,43.29,43.66,43.81,43.83,43.84,43.86,43.87,43.89,43.91,43.92,43.94,43.95,43.88,43.74,43.61,43.48,43.35,43.21,43.08,42.95,42.81,42.68,42.66,42.70,42.75,42.80,42.84,42.89,42.94,42.98,43.03,43.07,43.08,43.06,43.04,43.02,43.00,42.95,42.89,42.84,42.79,42.73,42.71,42.70,42.73,
Euro area,62.09,62.57,63.06,63.61,64.17,64.72,65.27,65.82,66.31,66.73,67.14,67.53,67.87,68.18,68.48,68.73,68.95,69.20,69.44,69.68,69.92,70.16,70.32,70.43,70.50,70.55,70.64,70.81,70.97,71.07,71.22,71.38,71.53,71.70,71.88,72.06,72.23,72.41,72.58,72.75,72.94,73.15,73.39,73.64,73.89,74.13,74.37,74.60,74.82,75.05,75.28,75.51,75.72,75.93,76.13,76.34,76.55,76.77,76.99,77.22,
Eritrea,9.80,10.11,10.44,10.77,11.12,11.47,11.83,12.20,12.36,12.52,12.68,12.84,13.01,13.17,13.34,13.51,13.68,13.86,14.03,14.21,14.39,14.57,14.76,14.94,15.18,15.76,16.35,16.96,17.59,18.24,18.91,19.59,20.29,21.02,21.76,22.51,23.29,24.09,24.90,25.74,26.59,27.46,28.34,29.24,30.16,31.10,32.05,33.02,34.00,34.59,35.18,35.77,,,,,,,,,
Spain,56.57,57.30,58.31,59.31,60.30,61.28,62.25,63.21,64.17,65.11,66.04,66.85,67.54,68.22,68.90,69.57,70.23,70.88,71.53,72.16,72.79,73.28,73.52,73.75,73.98,74.21,74.44,74.67,74.90,75.13,75.35,75.53,75.61,75.69,75.77,75.86,75.94,76.02,76.10,76.18,76.26,76.34,76.53,76.78,77.02,77.26,77.50,77.74,77.98,78.21,78.44,78.67,78.90,79.13,79.37,79.60,79.84,80.08,80.32,80.57,
Estonia,57.53,58.30,59.07,59.84,60.60,61.35,62.10,62.84,63.58,64.31,64.95,65.48,66.02,66.55,67.07,67.59,68.11,68.62,69.12,69.50,69.71,69.92,70.14,70.35,70.56,70.77,70.98,71.18,71.39,71.42,71.23,71.05,70.86,70.67,70.49,70.30,70.11,69.92,69.73,69.54,69.37,69.24,69.12,68.99,68.86,68.74,68.61,68.48,68.35,68.22,68.09,67.97,67.97,68.12,68.27,68.42,68.56,68.72,68.88,69.05,
Ethiopia,6.43,6.65,6.87,7.10,7.34,7.59,7.84,8.10,8.26,8.42,8.59,8.76,8.93,9.10,9.28,9.46,9.64,9.83,10.02,10.21,10.41,10.61,10.81,11.02,11.23,11.45,11.68,11.91,12.14,12.38,12.62,12.87,13.12,13.37,13.63,13.83,14.01,14.19,14.37,14.55,14.74,14.93,15.12,15.31,15.50,15.70,15.90,16.12,16.51,16.91,17.32,17.74,18.16,18.58,19.00,19.43,19.87,20.31,20.76,21.23,
European Union,58.68,59.22,59.75,60.34,60.92,61.51,62.08,62.62,63.13,63.58,64.02,64.47,64.88,65.27,65.65,65.99,66.30,66.62,66.96,67.28,67.59,67.86,68.06,68.22,68.36,68.48,68.63,68.84,69.05,69.20,69.37,69.56,69.72,69.85,69.99,70.13,70.27,70.40,70.53,70.67,70.83,71.01,71.24,71.46,71.68,71.90,72.12,72.34,72.56,72.76,72.97,73.17,73.36,73.54,73.72,73.91,74.11,74.31,74.51,74.73,
Fragile and conflict affected situations,18.18,18.62,19.07,19.53,20.00,20.49,20.98,21.48,21.99,22.50,23.02,23.58,24.12,24.65,25.11,25.57,26.02,26.45,26.87,27.28,27.70,28.19,28.70,29.24,29.85,30.46,31.08,31.69,32.27,32.82,33.54,33.97,34.36,34.72,35.02,35.34,35.66,36.01,36.35,36.70,37.05,37.48,37.90,38.32,38.72,39.12,39.52,39.85,40.28,40.71,41.16,41.58,41.98,42.39,42.79,43.24,43.66,44.08,44.51,44.95,
Finland,55.29,56.32,57.16,58.00,58.83,59.66,60.48,61.30,62.11,62.91,63.70,64.52,65.37,66.20,67.02,67.83,68.63,69.42,70.20,70.97,71.73,72.53,73.37,74.20,75.02,75.81,76.57,77.29,78.00,78.69,79.37,79.84,80.13,80.41,80.69,80.96,81.22,81.47,81.71,81.95,82.18,82.37,82.50,82.64,82.77,82.91,83.04,83.17,83.30,83.43,83.77,84.31,84.84,85.13,85.18,85.23,85.28,85.33,85.38,85.45,
Fiji,29.68,30.25,30.82,31.40,31.99,32.58,33.18,33.60,33.99,34.37,34.76,35.15,35.54,35.93,36.32,36.72,37.12,37.32,37.47,37.62,37.77,37.92,38.07,38.22,38.37,38.52,38.68,39.33,40.09,40.85,41.61,42.38,43.16,43.93,44.71,45.50,46.28,46.73,47.12,47.52,47.91,48.30,48.69,49.09,49.48,49.87,50.26,50.66,51.15,51.66,52.17,52.68,53.20,53.71,54.22,54.73,55.24,55.74,56.25,56.75,
France,61.88,62.61,63.49,64.70,65.90,67.07,68.23,69.36,70.24,70.65,71.06,71.46,71.86,72.26,72.65,72.93,73.00,73.07,73.14,73.21,73.28,73.35,73.43,73.50,73.58,73.65,73.73,73.80,73.88,73.95,74.06,74.23,74.40,74.57,74.74,74.91,75.08,75.25,75.42,75.61,75.87,76.13,76.38,76.63,76.88,77.13,77.38,77.62,77.87,78.12,78.37,78.62,78.88,79.14,79.39,79.66,79.92,80.18,80.44,80.71,
Faroe Islands,21.38,22.14,22.96,23.81,24.67,25.55,26.33,26.72,27.12,27.52,27.95,28.42,28.89,29.36,29.84,30.33,30.82,31.31,31.36,31.27,31.19,31.10,31.02,30.93,30.85,30.77,30.68,30.60,30.52,30.43,30.59,31.15,31.87,32.60,33.33,34.07,34.82,35.35,35.65,35.86,36.34,37.18,38.02,38.71,39.25,39.78,40.15,40.34,40.54,40.73,40.93,41.09,41.23,41.36,41.50,41.64,41.78,41.91,42.06,42.23,
"Micronesia, Fed. Sts.",22.31,22.55,22.80,23.04,23.29,23.54,23.79,24.04,24.30,24.55,24.81,25.07,25.33,25.59,25.74,25.86,25.98,26.09,26.21,26.33,26.45,26.42,26.35,26.28,26.22,26.15,26.08,26.02,25.95,25.88,25.82,25.75,25.69,25.62,25.55,25.07,24.47,23.89,23.31,22.75,22.33,22.33,22.33,22.33,22.33,22.33,22.32,22.32,22.31,22.31,22.30,22.31,22.32,22.36,22.40,22.46,22.53,22.61,22.70,22.81,
Gabon,17.40,18.33,19.59,20.92,22.32,23.78,25.30,26.88,28.53,30.24,32.00,34.08,36.23,38.43,40.68,42.97,45.30,47.63,49.99,52.34,54.68,57.00,58.37,59.73,61.08,62.40,63.71,65.00,66.41,67.79,69.14,70.46,71.75,73.00,73.92,74.80,75.65,76.49,77.31,78.10,78.88,79.63,80.37,81.08,81.78,82.45,83.11,83.74,84.36,84.96,85.53,86.09,86.63,87.16,87.65,88.12,88.56,88.98,89.37,89.74,
United Kingdom,78.44,78.37,78.24,78.10,77.96,77.82,77.68,77.54,77.40,77.26,77.12,77.03,77.20,77.36,77.52,77.68,77.84,78.01,78.16,78.32,78.48,78.59,78.54,78.49,78.44,78.39,78.34,78.29,78.24,78.19,78.14,78.11,78.17,78.23,78.29,78.35,78.41,78.47,78.53,78.59,78.65,78.75,79.05,79.34,79.63,79.92,80.20,80.48,80.76,81.03,81.30,81.57,81.84,82.10,82.37,82.63,82.89,83.14,83.40,83.65,
Georgia,43.07,43.56,44.05,44.54,45.04,45.53,46.03,46.53,47.03,47.52,48.01,48.47,48.94,49.41,49.88,50.34,50.81,51.28,51.75,52.16,52.50,52.84,53.18,53.52,53.86,54.19,54.53,54.87,55.21,55.28,55.04,54.80,54.56,54.32,54.08,53.84,53.60,53.36,53.12,52.88,52.64,52.40,52.44,52.83,53.22,53.61,53.99,54.38,54.77,55.15,55.54,55.92,56.30,56.69,57.07,57.45,57.84,58.23,58.63,59.04,
Ghana,23.25,23.80,24.35,24.92,25.49,26.07,26.66,27.25,27.86,28.47,28.96,29.17,29.39,29.61,29.83,30.05,30.27,30.49,30.71,30.94,31.16,31.39,31.61,31.84,32.21,32.90,33.59,34.29,35.00,35.72,36.44,37.17,37.91,38.64,39.39,40.14,40.90,41.65,42.42,43.18,43.93,44.60,45.28,45.95,46.63,47.31,47.99,48.67,49.35,50.03,50.71,51.39,52.07,52.75,53.42,54.09,54.75,55.41,56.06,56.71,
Gibraltar,100.00,100.00,100.00,100.00,100.00,100.00,100.00,100.00,100.00,100.00,100.00,100.00,100.00,100.00,100.00,100.00,100.00,100.00,100.00,100.00,100.00,100.00,100.00,100.00,100.00,100.00,100.00,100.00,100.00,100.00,100.00,100.00,100.00,100.00,100.00,100.00,100.00,100.00,100.00,100.00,100.00,100.00,100.00,100.00,100.00,100.00,100.00,100.00,100.00,100.00,100.00,100.00,100.00,100.00,100.00,100.00,100.00,100.00,100.00,100.00,
Guinea,10.47,10.94,11.42,11.92,12.44,12.98,13.54,14.12,14.72,15.34,15.98,16.64,17.33,18.03,18.76,19.52,20.29,21.09,21.91,22.75,23.62,24.50,25.41,26.07,26.35,26.62,26.90,27.18,27.46,27.74,28.03,28.31,28.60,28.89,29.18,29.48,29.77,30.05,30.32,30.60,30.87,31.14,31.42,31.70,31.98,32.26,32.54,32.82,33.11,33.39,33.68,33.97,34.26,34.55,34.84,35.14,35.46,35.79,36.14,36.50,
"Gambia, The",12.13,12.33,12.54,12.86,13.68,14.53,15.43,16.38,17.37,18.41,19.50,20.63,21.81,22.94,23.68,24.43,25.19,25.97,26.77,27.59,28.41,29.26,30.11,31.01,32.01,33.02,34.05,35.09,36.16,37.23,38.31,39.41,40.52,41.59,42.47,43.36,44.26,45.16,46.06,46.96,47.87,48.78,49.68,50.56,51.29,52.02,52.75,53.48,54.21,54.94,55.66,56.38,57.11,57.82,58.53,59.23,59.92,60.60,61.27,61.93,
Guinea-Bissau,13.60,13.75,13.90,14.05,14.20,14.35,14.50,14.66,14.82,14.97,15.13,15.29,15.46,15.62,15.78,15.95,16.12,16.29,16.46,16.77,17.80,18.88,20.01,21.19,22.43,23.70,25.03,26.41,27.84,29.31,30.83,32.39,33.27,33.64,34.00,34.37,34.74,35.11,35.49,35.87,36.24,36.62,37.00,37.39,37.77,38.16,38.55,38.93,39.33,39.72,40.11,40.51,40.91,41.31,41.72,42.12,42.53,42.95,43.36,43.78,
Equatorial Guinea,25.54,26.14,26.23,26.32,26.41,26.50,26.59,26.68,26.77,26.86,26.95,27.05,27.14,27.23,27.32,27.41,27.50,27.59,27.69,27.78,27.87,27.97,28.06,28.15,29.03,29.94,30.87,31.82,32.78,33.76,34.75,35.75,36.77,37.79,38.83,40.49,42.19,43.89,45.62,47.35,49.09,50.83,52.57,54.31,56.03,57.74,59.43,61.10,62.75,64.36,65.94,67.49,69.00,69.54,70.08,70.62,71.14,71.65,72.14,72.63,
Greece,55.94,56.45,57.34,58.22,59.10,59.97,60.83,61.69,62.54,63.39,64.22,64.95,65.45,65.95,66.45,66.94,67.43,67.91,68.39,68.87,69.34,69.75,69.94,70.13,70.33,70.52,70.71,70.90,71.09,71.28,71.47,71.64,71.76,71.88,72.00,72.12,72.24,72.36,72.48,72.60,72.72,72.91,73.30,73.69,74.07,74.45,74.83,75.20,75.57,75.93,76.29,76.65,77.00,77.36,77.70,78.05,78.39,78.72,79.06,79.39,
Grenada,30.33,30.52,30.71,30.90,31.09,31.27,31.47,31.66,31.85,32.04,32.21,32.28,32.35,32.42,32.49,32.56,32.63,32.70,32.77,32.84,32.91,32.98,33.03,33.08,33.13,33.18,33.23,33.28,33.33,33.38,33.43,33.50,33.74,33.99,34.23,34.47,34.71,34.96,35.20,35.45,35.70,35.92,35.91,35.91,35.90,35.90,35.89,35.88,35.88,35.87,35.87,35.86,35.87,35.90,35.94,36.00,36.07,36.16,36.27,36.40,
Greenland,58.53,59.81,61.41,62.98,64.53,66.05,67.49,68.85,70.19,71.48,72.74,73.43,73.68,73.91,74.15,74.39,74.63,74.97,75.36,75.74,76.12,76.50,76.87,77.24,77.60,77.96,78.32,78.67,79.02,79.36,79.70,80.03,80.30,80.50,80.70,80.90,81.10,81.23,81.35,81.48,81.60,81.85,82.10,82.34,82.58,82.86,83.17,83.48,83.79,84.09,84.38,84.76,85.20,85.55,85.81,86.07,86.33,86.57,86.82,87.05,
Guatemala,31.12,31.77,32.42,33.09,33.68,33.99,34.30,34.61,34.92,35.23,35.55,35.86,36.18,36.49,36.81,37.13,37.44,37.76,38.08,38.40,38.72,39.05,39.37,39.70,40.02,40.35,40.67,41.00,41.33,41.66,41.99,42.32,42.66,42.99,43.32,43.65,43.99,44.32,44.66,45.00,45.33,45.67,46.01,46.32,46.62,46.91,47.21,47.51,47.81,48.10,48.40,48.70,49.00,49.31,49.63,49.97,50.32,50.68,51.05,51.44,
Guam,50.15,51.23,52.31,53.40,54.48,55.55,56.62,57.68,58.74,59.78,61.92,67.15,72.00,76.37,80.25,83.63,86.53,88.98,91.04,92.74,93.75,93.49,93.22,92.94,92.64,92.34,92.02,91.70,91.35,91.00,90.80,91.06,91.32,91.57,91.82,92.06,92.29,92.51,92.73,92.95,93.13,93.23,93.33,93.44,93.53,93.63,93.73,93.82,93.92,94.01,94.10,94.19,94.28,94.36,94.45,94.53,94.62,94.70,94.78,94.86,
Guyana,29.01,29.05,29.09,29.13,29.17,29.21,29.25,29.29,29.33,29.37,29.43,29.53,29.64,29.75,29.86,29.97,30.08,30.19,30.30,30.41,30.49,30.40,30.31,30.22,30.12,30.03,29.94,29.85,29.76,29.67,29.58,29.49,29.40,29.32,29.23,29.14,29.05,28.96,28.87,28.78,28.69,28.61,28.52,28.31,28.06,27.82,27.58,27.34,27.11,26.87,26.63,26.40,26.40,26.40,26.41,26.44,26.48,26.54,26.61,26.69,
High income,62.79,63.29,63.79,64.31,64.83,65.35,65.85,66.37,66.86,67.34,67.79,68.19,68.56,68.91,69.27,69.62,69.90,70.18,70.47,70.76,71.06,71.37,71.65,71.90,72.14,72.38,72.65,72.95,73.23,73.49,73.76,74.05,74.26,74.50,74.75,75.03,75.27,75.49,75.72,75.94,76.15,76.49,76.88,77.25,77.61,77.95,78.27,78.57,78.87,79.15,79.43,79.64,79.81,79.98,80.15,80.32,80.50,80.68,80.86,81.05,
"Hong Kong SAR, China",85.20,85.29,85.58,85.87,86.15,86.42,86.69,86.96,87.22,87.48,87.73,88.04,88.47,88.89,89.30,89.70,90.08,90.45,90.80,91.15,91.48,91.79,92.09,92.38,92.65,92.92,94.25,96.86,98.31,99.09,99.52,99.83,99.98,100.00,100.00,100.00,100.00,100.00,100.00,100.00,100.00,100.00,100.00,100.00,100.00,100.00,100.00,100.00,100.00,100.00,100.00,100.00,100.00,100.00,100.00,100.00,100.00,100.00,100.00,100.00,
Honduras,22.75,23.32,23.90,24.49,25.09,25.70,26.33,26.96,27.60,28.24,28.90,29.57,30.25,30.93,31.57,32.11,32.65,33.20,33.75,34.31,34.87,35.44,36.00,36.58,37.16,37.74,38.32,38.91,39.48,39.97,40.46,40.95,41.45,41.94,42.44,42.94,43.44,43.94,44.45,44.95,45.46,45.96,46.61,47.27,47.93,48.59,49.25,49.91,50.57,51.23,51.89,52.54,53.20,53.86,54.51,55.17,55.81,56.46,57.10,57.73,
Heavily indebted poor countries (HIPC),12.36,12.71,13.07,13.44,13.84,14.24,14.65,15.06,15.49,15.93,16.36,16.79,17.23,17.67,18.11,18.57,19.05,19.53,20.01,20.42,20.83,21.23,21.64,22.08,22.55,23.05,23.55,24.04,24.52,24.96,25.41,25.84,26.25,26.63,26.94,27.24,27.54,27.84,28.14,28.43,28.73,29.05,29.39,29.75,30.10,30.46,30.84,31.16,31.59,32.03,32.47,32.92,33.34,33.77,34.20,34.64,35.09,35.54,36.01,36.48,
Croatia,30.15,31.04,32.00,32.98,33.97,34.98,36.00,37.03,38.08,39.13,40.20,41.17,41.84,42.51,43.19,43.86,44.55,45.23,45.91,46.60,47.29,47.89,48.24,48.59,48.94,49.29,49.64,49.99,50.34,50.69,51.04,51.36,51.59,51.82,52.05,52.28,52.51,52.74,52.97,53.20,53.43,53.64,53.81,53.98,54.15,54.32,54.48,54.65,54.82,54.99,55.16,55.32,55.51,55.71,55.92,56.16,56.40,56.67,56.95,57.24,
Haiti,15.59,15.98,16.37,16.76,17.17,17.58,18.00,18.43,18.87,19.31,19.76,20.22,20.32,20.35,20.38,20.40,20.43,20.46,20.49,20.51,20.54,20.57,20.60,21.36,22.30,23.26,24.26,25.28,26.33,27.41,28.51,29.64,30.80,31.39,31.99,32.59,33.20,33.79,34.39,34.99,35.60,37.25,38.94,40.65,41.68,42.64,43.60,44.57,45.55,46.53,47.51,48.49,49.48,50.46,51.44,52.43,53.40,54.35,55.28,56.19,
Hungary,55.91,56.34,56.76,57.18,57.60,58.02,58.44,58.86,59.28,59.69,60.11,60.54,60.97,61.39,61.81,62.23,62.65,63.07,63.48,63.89,64.19,64.37,64.55,64.73,64.92,65.10,65.27,65.45,65.63,65.81,65.84,65.71,65.59,65.46,65.34,65.21,65.08,64.96,64.83,64.70,64.58,64.67,65.08,65.49,65.90,66.37,66.90,67.42,67.94,68.46,68.91,69.36,69.68,69.95,70.23,70.50,70.78,71.06,71.35,71.64,
IBRD only,26.00,26.58,27.10,27.58,28.07,28.29,28.50,28.72,28.94,29.15,29.35,29.56,29.82,30.11,30.46,30.81,31.16,31.51,31.98,32.55,33.12,33.71,34.28,34.80,35.33,35.86,36.39,36.90,37.42,37.92,38.40,38.90,39.41,39.91,40.42,40.93,41.44,41.96,42.49,43.02,43.56,44.15,44.79,45.45,46.11,46.78,47.43,48.08,48.73,49.38,50.03,50.67,51.29,51.92,52.54,53.16,53.79,54.40,55.02,55.62,
IDA & IBRD total,23.97,24.47,24.95,25.39,25.85,26.08,26.31,26.55,26.79,27.02,27.25,27.49,27.77,28.09,28.45,28.75,29.11,29.47,29.92,30.46,31.01,31.56,32.07,32.55,33.05,33.54,34.03,34.52,35.00,35.47,35.92,36.38,36.83,37.28,37.73,38.18,38.62,39.07,39.53,39.99,40.45,40.97,41.53,42.10,42.67,43.25,43.82,44.38,44.95,45.52,46.09,46.64,47.18,47.72,48.26,48.81,49.35,49.89,50.42,50.95,
IDA total,13.64,13.94,14.24,14.55,14.88,15.21,15.55,15.90,16.27,16.65,17.04,17.46,17.90,18.34,18.79,18.90,19.38,19.86,20.36,20.83,21.32,21.79,22.16,22.54,22.96,23.39,23.82,24.25,24.69,25.11,25.56,25.94,26.31,26.67,26.99,27.32,27.64,27.98,28.31,28.63,28.95,29.34,29.76,30.17,30.59,31.02,31.46,31.88,32.35,32.83,33.31,33.76,34.19,34.62,35.06,35.53,36.01,36.49,36.98,37.48,
IDA blend,18.51,18.83,19.10,19.38,19.67,19.97,20.27,20.58,20.89,21.21,21.54,21.96,22.36,22.79,23.23,23.67,24.12,24.54,24.97,25.39,25.76,26.20,26.62,27.04,27.47,27.91,28.35,28.79,29.23,29.68,30.19,30.56,30.94,31.31,31.67,32.04,32.42,32.79,33.16,33.51,33.86,34.32,34.79,35.24,35.69,36.15,36.61,37.09,37.56,38.04,38.54,39.02,39.47,39.92,40.38,40.84,41.30,41.76,42.23,42.71,
Indonesia,14.59,14.82,15.06,15.30,15.54,15.79,16.04,16.29,16.55,16.81,17.07,17.34,17.78,18.28,18.79,19.32,19.85,20.40,20.96,21.52,22.10,22.82,23.61,24.42,25.24,26.09,26.95,27.84,28.74,29.65,30.58,31.61,32.70,33.81,34.93,36.08,37.24,38.41,39.59,40.79,42.00,42.78,43.57,44.36,45.15,45.94,46.74,47.54,48.34,49.13,49.91,50.60,51.28,51.96,52.64,53.31,53.99,54.66,55.33,55.99,
IDA only,11.37,11.66,11.98,12.30,12.65,13.00,13.35,13.73,14.12,14.53,14.94,15.36,15.80,16.25,16.70,16.65,17.13,17.63,18.14,18.62,19.15,19.63,19.97,20.32,20.72,21.14,21.56,21.98,22.41,22.81,23.23,23.62,23.98,24.33,24.64,24.94,25.25,25.56,25.87,26.17,26.48,26.84,27.23,27.63,28.03,28.45,28.88,29.27,29.74,30.21,30.68,31.11,31.53,31.95,32.38,32.85,33.33,33.82,34.32,34.83,
Isle of Man,55.12,55.35,55.59,55.83,56.07,56.31,56.47,56.31,56.15,55.99,55.83,55.56,54.77,53.98,53.19,52.40,51.80,51.80,51.79,51.79,51.78,51.78,51.78,51.77,51.77,51.77,51.76,51.76,51.75,51.75,51.75,51.75,51.75,51.76,51.77,51.78,51.79,51.80,51.81,51.82,51.82,51.83,51.85,51.87,51.89,51.91,51.92,51.94,51.96,51.98,51.99,52.01,52.05,52.10,52.16,52.25,52.34,52.46,52.59,52.74,
India,17.92,18.03,18.22,18.41,18.60,18.79,18.98,19.17,19.37,19.56,19.76,19.99,20.32,20.65,20.99,21.33,21.68,22.03,22.38,22.74,23.10,23.42,23.65,23.88,24.11,24.35,24.59,24.82,25.06,25.31,25.55,25.78,25.98,26.19,26.40,26.61,26.82,27.03,27.24,27.45,27.67,27.92,28.24,28.57,28.90,29.24,29.57,29.91,30.25,30.59,30.93,31.28,31.63,32.00,32.38,32.78,33.18,33.60,34.03,34.47,
Not classified,,,,,,,,,,,,,,,,,,,,,,,,,,,,,,,,,,,,,,,,,,,,,,,,,,,,,,,,,,,,,
Ireland,45.18,45.39,45.60,45.81,46.02,46.23,46.64,47.80,48.96,50.12,51.28,52.27,52.61,52.95,53.29,53.63,53.98,54.32,54.66,54.99,55.33,55.63,55.79,55.96,56.12,56.28,56.43,56.55,56.68,56.80,56.93,57.07,57.29,57.51,57.73,57.95,58.17,58.42,58.66,58.91,59.16,59.40,59.65,59.93,60.20,60.48,60.74,60.94,61.14,61.34,61.54,61.74,61.94,62.14,62.34,62.54,62.74,62.95,63.17,63.41,
"Iran, Islamic Rep.",33.74,34.39,35.05,35.72,36.39,37.07,37.75,38.56,39.44,40.32,41.21,42.11,43.01,43.92,44.83,45.75,46.67,47.47,48.21,48.95,49.69,50.43,51.18,51.92,52.66,53.40,54.13,54.72,55.26,55.79,56.33,56.87,57.65,58.52,59.38,60.24,61.09,61.85,62.59,63.32,64.04,64.76,65.47,66.17,66.87,67.56,68.24,68.86,69.46,70.05,70.63,71.20,71.76,72.30,72.83,73.36,73.88,74.39,74.90,75.39,
Iraq,42.90,44.43,45.98,47.53,49.09,50.65,51.87,52.95,54.02,55.09,56.15,57.21,58.27,59.31,60.35,61.38,62.40,63.40,64.18,64.85,65.52,66.18,66.84,67.49,68.13,68.77,69.40,70.02,70.07,69.89,69.71,69.52,69.34,69.15,68.97,68.78,68.59,68.41,68.39,68.44,68.50,68.55,68.60,68.66,68.71,68.77,68.82,68.87,68.93,68.98,69.10,69.27,69.43,69.60,69.76,69.92,70.09,70.28,70.47,70.68,
Iceland,80.30,80.80,81.30,81.78,82.26,82.72,83.18,83.62,84.06,84.48,84.90,85.27,85.63,85.98,86.33,86.67,87.00,87.33,87.64,87.96,88.26,88.53,88.80,89.06,89.32,89.57,89.82,90.06,90.29,90.52,90.75,90.93,91.11,91.29,91.46,91.63,91.80,91.96,92.12,92.27,92.40,92.53,92.66,92.79,92.91,93.04,93.16,93.28,93.40,93.51,93.57,93.59,93.60,93.63,93.67,93.70,93.74,93.77,93.81,93.86,
Israel,76.85,77.99,78.75,79.50,80.23,80.94,81.63,82.30,82.95,83.58,84.20,84.79,85.35,85.79,86.22,86.64,87.05,87.45,87.84,88.22,88.58,88.94,89.29,89.61,89.72,89.83,89.94,90.04,90.15,90.26,90.36,90.46,90.57,90.67,90.77,90.87,90.94,91.01,91.07,91.14,91.20,91.27,91.33,91.39,91.46,91.52,91.58,91.64,91.70,91.76,91.83,91.89,91.96,92.03,92.10,92.18,92.26,92.34,92.42,92.50,
Italy,59.36,59.86,60.36,60.85,61.35,61.84,62.33,62.82,63.31,63.79,64.27,64.75,65.04,65.24,65.44,65.64,65.84,66.04,66.24,66.44,66.64,66.84,66.89,66.87,66.85,66.83,66.81,66.79,66.77,66.75,66.73,66.71,66.74,66.80,66.86,66.92,66.98,67.04,67.10,67.16,67.22,67.28,67.38,67.50,67.62,67.74,67.86,67.97,68.09,68.21,68.33,68.44,68.68,68.98,69.27,69.57,69.86,70.14,70.44,70.74,
Jamaica,33.77,34.50,35.24,35.99,36.74,37.50,38.27,39.04,39.82,40.60,41.32,41.86,42.40,42.93,43.47,44.01,44.56,45.10,45.65,46.19,46.74,47.29,47.81,48.02,48.22,48.42,48.63,48.83,49.04,49.24,49.44,49.66,49.90,50.14,50.38,50.62,50.86,51.10,51.34,51.57,51.81,52.05,52.25,52.44,52.63,52.81,53.00,53.18,53.37,53.56,53.74,53.93,54.13,54.35,54.58,54.83,55.10,55.38,55.67,55.99,
Jordan,50.88,52.41,53.22,53.57,53.91,54.26,54.61,54.96,55.30,55.63,55.97,56.31,56.65,56.98,57.32,57.65,57.98,58.32,58.65,58.98,60.03,61.46,62.88,64.28,65.65,67.00,68.32,69.61,70.87,72.10,73.29,74.46,75.59,76.68,77.74,78.21,78.22,78.23,78.25,78.26,78.27,78.28,78.30,78.31,78.32,79.49,80.97,82.37,83.69,84.93,86.09,87.17,88.19,89.13,90.00,90.26,90.51,90.75,90.98,91.20,
Japan,63.27,64.21,65.14,66.06,66.97,67.87,68.70,69.52,70.32,71.10,71.88,72.67,73.45,74.22,74.98,75.72,75.94,76.00,76.06,76.12,76.18,76.27,76.38,76.49,76.60,76.71,76.84,76.96,77.09,77.21,77.34,77.47,77.61,77.75,77.88,78.02,78.15,78.27,78.40,78.52,78.65,79.99,81.65,83.20,84.64,85.98,87.12,88.15,89.10,89.99,90.81,91.07,91.15,91.23,91.30,91.38,91.46,91.54,91.62,91.70,
Kazakhstan,44.20,44.75,45.30,45.85,46.40,47.05,47.70,48.35,49.00,49.65,50.24,50.75,51.27,51.79,52.30,52.56,52.83,53.09,53.36,53.70,54.14,54.58,55.02,55.46,55.90,56.01,56.12,56.23,56.34,56.36,56.27,56.18,56.08,55.99,55.90,55.92,55.94,55.96,55.99,56.03,56.10,56.17,56.24,56.32,56.39,56.46,56.54,56.61,56.68,56.76,56.83,56.90,56.97,57.05,57.12,57.19,57.26,57.34,57.43,57.54,
Kenya,7.36,7.57,7.77,8.04,8.32,8.61,8.90,9.21,9.53,9.85,10.30,10.78,11.28,11.81,12.35,12.91,13.50,14.11,14.75,15.40,15.58,15.68,15.78,15.88,15.98,16.08,16.18,16.28,16.38,16.49,16.75,17.04,17.34,17.65,17.95,18.26,18.58,18.90,19.22,19.55,19.89,20.24,20.59,20.95,21.31,21.68,22.05,22.42,22.80,23.18,23.57,23.97,24.38,24.79,25.22,25.66,26.11,26.56,27.03,27.51,
Kyrgyz Republic,34.18,34.51,34.84,35.18,35.52,35.85,36.19,36.53,36.87,37.21,37.47,37.61,37.75,37.90,38.04,38.19,38.33,38.48,38.62,38.68,38.63,38.58,38.53,38.48,38.43,38.38,38.33,38.28,38.23,38.07,37.78,37.49,37.20,36.92,36.63,36.35,36.07,35.79,35.50,35.30,35.30,35.30,35.30,35.29,35.29,35.29,35.29,35.29,35.29,35.28,35.31,35.35,35.42,35.52,35.64,35.78,35.94,36.14,36.35,36.59,
Cambodia,10.29,10.29,10.33,10.50,10.66,10.83,11.00,12.10,13.29,14.58,15.97,18.72,21.82,25.26,29.06,4.48,4.82,5.19,5.58,6.00,9.90,12.74,13.03,13.33,13.63,13.93,14.24,14.56,14.88,15.21,15.55,15.89,16.23,16.59,16.95,17.31,17.68,18.06,18.36,18.47,18.59,18.70,18.82,18.94,19.06,19.17,19.29,19.41,19.57,19.93,20.29,20.66,21.04,21.42,21.80,22.19,22.58,22.98,23.39,23.81,
Kiribati,16.29,16.92,17.57,18.23,18.92,19.63,20.35,21.10,21.86,22.87,24.09,25.35,26.65,28.00,28.96,29.61,30.26,30.93,31.60,32.04,32.28,32.53,32.78,33.03,33.28,33.54,33.83,34.12,34.41,34.70,34.99,35.27,35.56,35.84,36.12,36.41,37.39,38.75,40.14,41.54,42.96,43.47,43.49,43.51,43.53,43.55,44.03,44.87,45.71,46.55,47.39,48.24,49.08,49.93,50.77,51.62,52.45,53.26,54.06,54.84,
St. Kitts and Nevis,27.64,28.27,28.90,29.55,30.20,30.86,31.52,32.20,32.88,33.57,34.14,34.32,34.50,34.67,34.85,35.03,35.21,35.39,35.56,35.74,35.88,35.75,35.63,35.50,35.37,35.24,35.12,34.99,34.86,34.74,34.61,34.47,34.28,34.09,33.90,33.72,33.53,33.34,33.15,32.97,32.78,32.60,32.46,32.31,32.17,32.03,31.89,31.74,31.60,31.46,31.32,31.18,31.06,30.96,30.89,30.83,30.79,30.77,30.78,30.80,
"Korea, Rep.",27.71,28.53,29.46,30.41,31.37,32.35,33.35,34.97,36.85,38.76,40.70,42.26,43.69,45.13,46.58,48.03,49.72,51.48,53.23,54.98,56.72,58.41,60.06,61.69,63.30,64.88,66.68,68.56,70.39,72.15,73.84,74.97,75.82,76.65,77.45,78.24,78.66,78.91,79.15,79.38,79.62,79.94,80.30,80.65,81.00,81.35,81.53,81.63,81.73,81.84,81.94,81.92,81.85,81.78,81.71,81.63,81.56,81.50,81.46,81.43,
Kuwait,74.89,75.79,76.66,77.51,78.34,79.27,80.72,82.08,83.37,84.58,85.66,86.44,87.19,87.90,88.58,89.38,90.75,91.94,93.00,93.93,94.78,95.67,96.41,97.03,97.55,97.90,97.92,97.93,97.95,97.96,97.97,97.99,98.00,98.02,98.03,98.10,98.33,98.53,98.71,98.86,99.00,99.91,100.00,100.00,100.00,100.00,100.00,100.00,100.00,100.00,100.00,100.00,100.00,100.00,100.00,100.00,100.00,100.00,100.00,100.00,
Latin America & Caribbean (excluding high income),48.52,49.33,50.16,50.99,51.82,52.60,53.37,54.15,54.92,55.69,56.46,57.24,58.02,58.77,59.51,60.25,60.98,61.72,62.45,63.18,63.89,64.57,65.22,65.86,66.50,67.13,67.75,68.36,68.96,69.55,70.13,70.67,71.19,71.68,72.19,72.68,73.16,73.64,74.12,74.59,75.05,75.42,75.76,76.10,76.42,76.74,77.06,77.37,77.68,77.97,78.27,78.56,78.85,79.13,79.41,79.67,79.94,80.19,80.45,80.70,
Lao PDR,7.95,8.02,8.10,8.17,8.25,8.32,8.40,8.69,8.99,9.30,9.63,9.96,10.30,10.60,10.84,11.08,11.33,11.58,11.84,12.11,12.38,12.65,12.93,13.21,13.50,13.80,14.12,14.44,14.77,15.10,15.44,15.78,16.13,16.49,16.85,17.38,18.23,19.12,20.04,20.99,21.98,22.99,24.04,25.13,26.24,27.19,27.75,28.32,28.89,29.48,30.06,30.66,31.26,31.87,32.49,33.11,33.74,34.37,35.00,35.65,
Lebanon,42.34,44.04,45.75,47.48,49.21,50.94,52.66,54.39,56.10,57.80,59.48,61.06,62.58,64.07,65.54,66.98,68.39,69.76,71.10,72.40,73.67,74.90,76.09,77.24,78.35,79.42,80.45,81.45,82.40,82.76,83.12,83.47,83.82,84.16,84.49,84.82,85.14,85.46,85.77,85.89,86.00,86.12,86.24,86.37,86.49,86.63,86.76,86.90,87.04,87.19,87.33,87.48,87.64,87.79,87.95,88.11,88.27,88.43,88.59,88.76,
Liberia,18.63,19.29,19.97,20.66,21.38,22.11,22.86,23.62,24.41,25.21,26.03,26.86,27.71,28.58,29.47,30.38,31.31,32.25,33.21,34.18,35.17,36.16,37.17,38.19,39.83,42.37,44.96,47.57,50.20,52.81,55.42,58.00,55.02,52.01,48.98,45.96,42.96,43.30,43.65,43.99,44.33,44.67,45.02,45.36,45.71,46.05,46.40,46.74,47.09,47.45,47.81,48.19,48.58,48.99,49.40,49.82,50.25,50.70,51.15,51.62,
Libya,27.32,28.20,29.09,30.00,30.92,33.67,36.70,39.84,43.07,46.35,49.67,52.99,56.29,59.53,61.24,62.79,64.31,65.80,67.27,68.70,70.09,71.45,72.77,74.06,75.30,75.45,75.51,75.56,75.61,75.67,75.72,75.78,75.83,75.89,75.94,75.99,76.05,76.11,76.19,76.28,76.39,76.50,76.63,76.77,76.92,77.08,77.25,77.44,77.63,77.84,78.05,78.28,78.51,78.76,79.01,79.27,79.54,79.82,80.10,80.39,
St. Lucia,21.46,21.70,21.93,22.17,22.42,22.66,22.91,23.15,23.40,23.65,23.91,24.16,24.42,24.68,24.94,25.20,25.47,25.73,26.00,26.27,26.54,26.81,27.09,27.36,27.64,27.92,28.21,28.49,28.77,29.06,29.35,29.57,29.37,29.17,28.97,28.77,28.57,28.37,28.17,27.97,27.77,27.47,26.33,25.22,24.13,23.09,22.07,21.08,20.13,19.21,18.45,18.45,18.45,18.46,18.48,18.52,18.56,18.61,18.68,18.75,
Latin America & Caribbean,49.47,50.27,51.08,51.90,52.72,53.48,54.24,55.01,55.77,56.53,57.28,58.04,58.79,59.52,60.24,60.97,61.69,62.40,63.12,63.83,64.53,65.22,65.88,66.51,67.14,67.76,68.37,68.97,69.56,70.13,70.69,71.21,71.71,72.19,72.68,73.17,73.64,74.11,74.58,75.03,75.48,75.84,76.17,76.49,76.80,77.10,77.40,77.69,77.98,78.27,78.55,78.83,79.10,79.37,79.63,79.89,80.14,80.38,80.62,80.87,
Least developed countries: UN classification,9.69,9.94,10.21,10.49,10.79,11.09,11.41,11.76,12.12,12.50,12.88,13.30,13.75,14.20,14.66,14.56,15.05,15.55,16.08,16.58,17.16,17.67,18.02,18.40,18.82,19.27,19.71,20.16,20.62,21.06,21.51,21.93,22.34,22.72,23.06,23.39,23.71,24.04,24.37,24.69,25.02,25.41,25.83,26.26,26.70,27.14,27.58,27.98,28.47,28.96,29.47,29.98,30.48,30.98,31.49,32.00,32.52,33.04,33.57,34.10,
Low income,13.69,14.03,14.38,14.74,15.11,15.49,15.89,16.32,16.80,17.35,17.89,18.24,18.59,18.92,19.24,19.56,19.84,20.13,20.42,20.68,20.96,21.27,21.57,21.92,22.30,22.71,23.12,23.51,23.92,24.30,24.70,25.08,25.45,25.81,26.07,26.31,26.53,26.77,27.00,27.22,27.45,27.71,27.98,28.24,28.49,28.77,29.06,29.28,29.64,30.00,30.34,30.62,30.87,31.12,31.40,31.74,32.11,32.49,32.89,33.32,
Liechtenstein,20.44,20.32,20.10,19.89,19.68,19.47,19.26,19.06,18.86,18.65,18.45,18.36,18.35,18.34,18.33,18.32,18.31,18.30,18.29,18.28,18.27,18.19,18.04,17.90,17.76,17.62,17.48,17.34,17.20,17.06,16.93,16.82,16.74,16.65,16.57,16.48,16.29,15.99,15.70,15.41,15.13,14.96,14.91,14.85,14.80,14.74,14.68,14.63,14.57,14.52,14.46,14.41,14.37,14.33,14.31,14.30,14.30,14.32,14.34,14.37,
Sri Lanka,16.43,16.59,16.75,16.92,17.01,17.11,17.21,17.30,17.40,17.50,17.60,17.70,17.80,17.90,18.00,18.10,18.20,18.30,18.40,18.50,18.61,18.68,18.66,18.64,18.63,18.61,18.60,18.58,18.57,18.55,18.54,18.52,18.50,18.49,18.47,18.46,18.44,18.43,18.41,18.40,18.38,18.37,18.35,18.33,18.32,18.30,18.29,18.27,18.26,18.24,18.23,18.21,18.20,18.20,18.22,18.26,18.31,18.38,18.48,18.59,
Lower middle income,19.82,20.06,20.33,20.61,20.89,21.18,21.46,21.73,22.01,22.30,22.59,22.90,23.28,23.66,24.05,24.29,24.68,25.08,25.48,25.87,26.28,26.68,26.98,27.28,27.59,27.91,28.24,28.56,28.89,29.21,29.57,29.83,30.07,30.31,30.55,30.78,31.02,31.26,31.50,31.74,32.00,32.29,32.64,33.00,33.37,33.74,34.12,34.50,34.89,35.29,35.70,36.11,36.53,36.96,37.40,37.84,38.29,38.74,39.21,39.69,
Low & middle income,23.51,24.01,24.49,24.94,25.40,25.64,25.86,26.10,26.35,26.60,26.84,27.09,27.37,27.70,28.05,28.36,28.71,29.07,29.53,30.07,30.61,31.17,31.69,32.17,32.67,33.17,33.67,34.16,34.64,35.12,35.59,36.06,36.52,36.98,37.44,37.89,38.35,38.81,39.27,39.74,40.21,40.74,41.31,41.89,42.47,43.06,43.63,44.20,44.78,45.36,45.94,46.50,47.04,47.59,48.14,48.69,49.24,49.78,50.32,50.85,
Lesotho,3.51,3.96,4.46,5.03,5.66,6.37,7.07,7.43,7.80,8.20,8.61,9.04,9.47,9.91,10.36,10.82,11.21,11.27,11.33,11.39,11.45,11.51,11.57,11.63,11.69,11.75,11.91,12.39,12.90,13.43,13.97,14.53,15.11,15.70,16.32,16.96,17.57,18.05,18.54,19.04,19.55,20.07,20.60,21.14,21.69,22.25,22.82,23.30,23.80,24.29,24.80,25.31,25.70,26.10,26.50,26.91,27.32,27.73,28.15,28.59,
Late-demographic dividend,26.23,26.99,27.65,28.21,28.78,28.89,28.96,29.08,29.20,29.31,29.41,29.50,29.61,29.80,30.07,30.35,30.62,30.91,31.39,32.07,32.74,33.42,34.09,34.67,35.27,35.87,36.46,37.04,37.63,38.20,38.75,39.38,39.97,40.63,41.30,42.02,42.70,43.40,44.12,44.85,45.60,46.48,47.43,48.40,49.39,50.39,51.37,52.35,53.33,54.32,55.31,56.24,57.14,58.04,58.94,59.83,60.71,61.59,62.45,63.29,
Lithuania,39.46,40.44,41.44,42.43,43.44,44.45,45.47,46.48,47.51,48.53,49.56,50.72,51.97,53.21,54.45,55.69,56.92,58.13,59.34,60.36,61.16,61.95,62.73,63.51,64.28,65.04,65.79,66.54,67.28,67.64,67.58,67.52,67.46,67.40,67.35,67.29,67.23,67.17,67.11,67.05,66.99,66.92,66.83,66.74,66.65,66.64,66.71,66.78,66.85,66.84,66.76,66.74,66.86,66.99,67.11,67.23,67.37,67.52,67.68,67.86,
Luxembourg,69.56,69.93,70.44,70.95,71.46,71.96,72.45,72.94,73.43,73.90,74.37,74.92,75.53,76.13,76.72,77.30,77.87,78.43,78.98,79.51,80.04,80.44,80.50,80.56,80.61,80.67,80.73,80.78,80.84,80.89,80.95,81.13,81.53,81.86,82.48,82.89,82.83,82.78,82.89,83.45,84.22,84.84,85.30,85.74,86.18,86.60,87.01,87.41,87.80,88.18,88.55,88.91,89.25,89.57,89.88,90.18,90.46,90.73,90.98,91.22,
Latvia,52.87,53.66,54.46,55.25,56.05,56.83,57.62,58.40,59.18,59.95,60.71,61.43,62.12,62.81,63.48,64.16,64.83,65.49,66.14,66.69,67.10,67.44,67.72,68.00,68.28,68.56,68.78,68.95,69.11,69.20,69.25,69.20,68.85,68.80,68.90,68.75,68.65,68.60,68.45,68.22,68.07,67.95,67.85,67.80,67.90,68.00,67.97,67.90,67.83,67.81,67.84,67.87,67.90,67.93,67.95,67.98,68.02,68.08,68.14,68.22,
"Macao SAR, China",95.29,95.33,95.56,95.77,95.98,96.18,96.37,96.54,96.72,96.88,97.03,97.21,97.40,97.57,97.74,97.89,98.04,98.17,98.29,98.41,98.52,98.66,98.89,99.08,99.24,99.38,99.49,99.58,99.65,99.71,99.76,99.81,99.84,99.87,99.89,99.91,99.98,100.00,100.00,100.00,100.00,100.00,100.00,100.00,100.00,100.00,100.00,100.00,100.00,100.00,100.00,100.00,100.00,100.00,100.00,100.00,100.00,100.00,100.00,100.00,
St. Martin (French part),,,,,,,,,,,,,,,,,,,,,,,,,,,,,,,,,,,,,,,,,,,,,,,,,,,,,,,,,,,,,
Morocco,29.36,29.85,30.35,30.85,31.35,31.86,32.38,32.90,33.42,33.95,34.48,35.01,35.68,36.35,37.03,37.71,38.41,39.10,39.80,40.50,41.21,41.92,42.63,43.35,44.06,44.78,45.50,46.22,46.94,47.67,48.39,49.12,49.84,50.57,51.30,51.69,52.02,52.35,52.68,53.01,53.34,53.66,53.99,54.32,54.64,55.17,55.75,56.32,56.89,57.45,58.02,58.58,59.14,59.70,60.26,60.81,61.36,61.91,62.45,62.99,
Monaco,100.00,100.00,100.00,100.00,100.00,100.00,100.00,100.00,100.00,100.00,100.00,100.00,100.00,100.00,100.00,100.00,100.00,100.00,100.00,100.00,100.00,100.00,100.00,100.00,100.00,100.00,100.00,100.00,100.00,100.00,100.00,100.00,100.00,100.00,100.00,100.00,100.00,100.00,100.00,100.00,100.00,100.00,100.00,100.00,100.00,100.00,100.00,100.00,100.00,100.00,100.00,100.00,100.00,100.00,100.00,100.00,100.00,100.00,100.00,100.00,
Moldova,23.42,24.22,25.03,25.86,26.70,27.57,28.45,29.35,30.26,31.19,32.07,32.88,33.70,34.53,35.37,36.22,37.08,37.95,38.82,39.64,40.39,41.14,41.89,42.65,43.41,44.18,44.94,45.71,46.49,46.86,46.76,46.67,46.58,46.48,46.39,46.29,46.20,45.80,45.39,44.99,44.59,44.19,43.79,43.39,42.99,42.78,42.74,42.71,42.68,42.65,42.62,42.59,42.56,42.53,42.50,42.49,42.51,42.56,42.63,42.73,
Madagascar,10.64,10.97,11.31,11.66,12.01,12.38,12.75,13.07,13.41,13.75,14.10,14.53,14.96,15.41,15.87,16.33,16.76,17.18,17.62,18.07,18.52,18.99,19.46,19.94,20.43,20.93,21.44,21.96,22.49,23.02,23.57,24.12,24.68,25.25,25.54,25.80,26.06,26.32,26.59,26.85,27.12,27.39,27.66,27.94,28.21,28.81,29.43,30.04,30.67,31.30,31.94,32.58,33.23,33.88,34.53,35.19,35.86,36.52,37.19,37.86,
Maldives,11.17,11.23,11.29,11.35,11.40,11.46,11.39,11.34,11.52,11.70,11.89,12.84,13.86,14.94,16.09,17.30,18.60,19.96,20.98,21.61,22.25,22.91,23.57,24.26,24.95,25.49,25.57,25.65,25.73,25.81,25.84,25.78,25.71,25.65,25.59,25.64,26.01,26.38,26.76,27.13,27.71,28.86,30.04,31.25,32.49,33.75,34.79,35.20,35.61,36.02,36.43,36.85,37.27,37.69,38.11,38.53,38.95,39.38,39.81,40.24,
Middle East & North Africa,34.92,35.68,36.45,37.23,38.03,38.87,39.66,40.40,41.14,41.89,42.65,43.40,44.16,44.94,45.68,46.39,47.09,47.74,48.36,48.98,49.61,50.23,50.85,51.46,52.06,52.64,53.22,53.70,54.10,54.47,54.94,55.32,55.42,55.85,56.25,56.83,57.16,57.50,57.85,58.22,58.60,58.97,59.34,59.72,60.10,60.52,60.97,61.40,61.82,62.24,62.66,63.00,63.34,63.67,64.00,64.37,64.72,65.05,65.37,65.68,
Mexico,50.75,51.59,52.43,53.27,54.10,54.93,55.76,56.59,57.41,58.23,59.02,59.78,60.53,61.28,62.02,62.76,63.49,64.22,64.93,65.65,66.34,66.87,67.40,67.92,68.44,68.95,69.46,69.96,70.46,70.96,71.42,71.82,72.21,72.60,72.99,73.37,73.67,73.93,74.19,74.44,74.72,75.05,75.37,75.68,76.00,76.31,76.62,76.92,77.22,77.52,77.82,78.11,78.41,78.70,78.99,79.29,79.58,79.87,80.16,80.44,
Marshall Islands,35.58,36.96,38.36,39.78,41.21,42.66,44.13,45.60,48.23,50.86,53.49,56.10,58.69,61.21,61.09,60.63,60.17,59.70,59.24,58.77,58.30,58.83,59.61,60.40,61.18,61.95,62.71,63.47,64.22,64.71,65.05,65.39,65.73,66.06,66.40,66.73,67.06,67.39,67.71,68.05,68.58,69.10,69.62,70.13,70.64,71.14,71.64,72.13,72.61,73.09,73.57,74.04,74.50,74.95,75.38,75.81,76.23,76.63,77.03,77.42,
Middle income,24.18,24.70,25.19,25.65,26.11,26.34,26.55,26.78,27.01,27.24,27.46,27.71,27.99,28.31,28.67,28.98,29.34,29.71,30.18,30.74,31.31,31.89,32.43,32.93,33.44,33.95,34.45,34.96,35.46,35.94,36.43,36.91,37.39,37.87,38.36,38.84,39.33,39.82,40.32,40.81,41.33,41.89,42.51,43.14,43.77,44.40,45.03,45.65,46.27,46.90,47.53,48.14,48.74,49.34,49.94,50.54,51.13,51.72,52.31,52.88,
North Macedonia,34.02,35.21,36.47,37.75,39.05,40.36,41.68,43.02,44.36,45.72,47.08,48.25,48.83,49.41,49.99,50.57,51.15,51.73,52.31,52.89,53.47,54.01,54.43,54.85,55.28,55.70,56.12,56.54,56.96,57.37,57.79,58.23,58.76,59.29,59.79,59.59,59.38,59.17,58.97,58.76,58.55,58.34,58.13,57.92,57.71,57.53,57.38,57.26,57.18,57.12,57.09,57.09,57.13,57.19,57.28,57.41,57.56,57.75,57.96,58.21,
Mali,11.07,11.36,11.66,11.97,12.29,12.61,12.94,13.27,13.62,13.97,14.33,14.70,15.07,15.45,15.85,16.24,16.65,17.08,17.54,18.01,18.48,18.97,19.47,19.97,20.49,21.01,21.55,22.07,22.48,22.90,23.32,23.75,24.19,24.62,25.07,25.52,25.98,26.43,26.95,27.65,28.36,29.08,29.81,30.55,31.30,32.06,32.83,33.61,34.40,35.20,36.00,36.80,37.60,38.40,39.20,39.99,40.78,41.57,42.36,43.14,
Malta,90.13,90.07,90.01,89.95,89.89,89.83,89.76,89.70,89.68,89.69,89.70,89.71,89.72,89.73,89.73,89.74,89.75,89.76,89.77,89.78,89.79,89.79,89.80,89.81,89.82,89.83,89.91,90.03,90.15,90.27,90.38,90.50,90.61,90.72,90.84,90.95,91.18,91.49,91.79,92.09,92.37,92.64,92.91,93.16,93.41,93.65,93.78,93.86,93.93,94.00,94.07,94.14,94.21,94.28,94.35,94.41,94.48,94.55,94.61,94.68,
Myanmar,19.23,19.57,19.91,20.26,20.61,20.97,21.33,21.70,22.07,22.45,22.83,23.22,23.61,23.90,23.91,23.92,23.93,23.94,23.95,23.96,23.97,23.98,23.99,24.04,24.21,24.38,24.55,24.72,24.90,25.07,25.24,25.42,25.59,25.77,25.95,26.12,26.30,26.48,26.66,26.84,27.03,27.21,27.39,27.58,27.76,27.95,28.13,28.32,28.51,28.70,28.89,29.08,29.27,29.46,29.65,29.86,30.08,30.32,30.58,30.85,
Middle East & North Africa (excluding high income),33.83,34.56,35.28,36.01,36.75,37.52,38.26,38.91,39.58,40.26,40.94,41.60,42.28,42.95,43.59,44.23,44.85,45.41,45.94,46.47,47.00,47.54,48.07,48.60,49.13,49.64,50.15,50.59,50.96,51.29,51.77,52.11,52.51,52.93,53.34,53.70,54.03,54.37,54.72,55.08,55.45,55.81,56.17,56.54,56.89,57.27,57.65,58.01,58.34,58.69,59.05,59.34,59.64,59.94,60.24,60.60,60.94,61.27,61.59,61.90,
Montenegro,18.79,19.50,20.24,20.99,21.77,22.57,23.38,24.22,25.08,25.96,26.85,27.77,28.71,29.66,30.63,31.62,32.63,33.65,34.69,35.74,36.81,37.89,38.98,40.09,41.20,42.33,43.46,44.59,45.74,46.89,48.04,49.17,50.22,51.27,52.32,53.37,54.41,55.45,56.49,57.52,58.54,59.56,60.57,61.57,62.13,62.47,62.80,63.14,63.48,63.81,64.14,64.47,64.80,65.14,65.47,65.81,66.14,66.48,66.81,67.15,
Mongolia,35.68,37.68,39.73,41.06,41.59,42.11,42.65,43.18,43.72,44.34,45.05,45.77,46.49,47.21,47.93,48.66,49.38,50.10,50.83,51.49,52.08,52.68,53.27,53.86,54.45,55.04,55.63,56.22,56.80,57.08,57.03,56.99,56.94,56.90,56.85,56.81,56.76,56.71,56.67,56.62,57.13,58.22,59.30,60.38,61.44,62.49,63.54,64.56,65.58,66.58,67.57,67.96,68.03,68.10,68.16,68.23,68.30,68.36,68.45,68.54,
Northern Mariana Islands,51.22,52.74,54.26,55.77,57.27,58.76,60.23,61.69,64.59,67.38,70.06,72.61,75.02,77.28,79.02,80.55,82.01,83.37,84.65,85.85,86.78,87.12,87.44,87.76,88.08,88.38,88.68,88.97,89.26,89.54,89.73,89.70,89.66,89.63,89.59,89.56,89.66,89.78,89.91,90.04,90.15,90.24,90.32,90.40,90.48,90.56,90.64,90.72,90.80,90.87,90.95,91.03,91.11,91.19,91.27,91.36,91.44,91.53,91.62,91.71,
Mozambique,6.87,7.05,7.25,7.45,7.65,7.86,8.08,8.30,8.52,8.75,8.99,9.30,9.67,10.06,10.46,10.87,11.30,11.74,12.20,12.67,13.16,14.05,15.04,16.07,17.17,18.33,19.54,20.82,22.15,23.55,25.00,25.49,25.98,26.48,26.98,27.50,28.01,28.54,28.74,28.92,29.10,29.28,29.46,29.64,29.82,30.00,30.18,30.36,30.83,31.33,31.83,32.34,32.85,33.36,33.88,34.40,34.93,35.46,35.99,36.53,
Mauritania,6.88,7.44,8.03,8.67,9.36,10.09,10.87,11.71,12.61,13.55,14.56,15.64,16.77,17.97,19.24,20.57,21.97,23.33,24.63,25.98,27.37,28.81,30.30,31.82,33.39,34.99,36.63,38.31,39.57,39.45,39.32,39.20,39.08,38.95,38.83,38.71,38.58,38.46,38.34,38.21,38.09,38.62,39.48,40.35,41.23,42.11,43.00,43.89,44.79,45.69,46.59,47.49,48.40,49.31,50.20,51.09,51.96,52.82,53.67,54.51,
Mauritius,35.11,35.83,36.56,37.29,38.03,38.77,39.52,40.27,41.03,41.79,42.56,43.33,44.10,43.88,43.66,43.44,43.22,43.01,42.79,42.57,42.35,42.13,41.92,41.70,42.01,42.33,42.64,42.95,43.27,43.58,43.90,43.78,43.65,43.53,43.41,43.28,43.16,43.04,42.92,42.79,42.67,42.56,42.45,42.34,42.22,42.11,42.00,41.89,41.78,41.67,41.56,41.44,41.33,41.22,41.11,41.00,40.91,40.84,40.79,40.77,
Malawi,4.39,4.49,4.59,4.69,4.80,4.91,5.02,5.25,5.51,5.77,6.05,6.35,6.65,6.97,7.30,7.65,8.02,8.39,8.64,8.84,9.05,9.26,9.48,9.70,9.93,10.16,10.40,10.64,10.93,11.24,11.56,11.89,12.22,12.56,12.91,13.26,13.63,14.00,14.38,14.52,14.61,14.70,14.79,14.88,14.96,15.05,15.14,15.24,15.33,15.43,15.54,15.67,15.81,15.97,16.13,16.31,16.51,16.71,16.94,17.17,
Malaysia,26.60,27.24,27.90,28.56,29.23,29.91,30.60,31.30,32.01,32.73,33.45,34.27,35.10,35.94,36.79,37.65,38.52,39.39,40.27,41.16,42.04,42.81,43.57,44.35,45.12,45.89,46.67,47.45,48.23,49.01,49.79,50.58,51.81,53.11,54.40,55.69,56.97,58.24,59.50,60.74,61.98,62.92,63.86,64.78,65.69,66.59,67.48,68.36,69.23,70.08,70.91,71.61,72.28,72.93,73.58,74.21,74.84,75.45,76.04,76.61,
North America,69.92,70.32,70.74,71.16,71.57,71.98,72.38,72.76,73.14,73.51,73.80,73.86,73.85,73.85,73.85,73.85,73.85,73.86,73.87,73.89,73.93,74.07,74.23,74.38,74.53,74.68,74.83,74.97,75.11,75.24,75.43,75.80,76.18,76.56,76.93,77.30,77.67,78.05,78.42,78.78,79.10,79.29,79.46,79.62,79.79,79.95,80.11,80.29,80.46,80.62,80.79,80.96,81.12,81.29,81.46,81.63,81.81,81.99,82.17,82.36,
Namibia,17.91,18.33,18.75,19.17,19.60,20.04,20.48,20.93,21.39,21.85,22.29,22.56,22.83,23.10,23.37,23.65,23.93,24.21,24.49,24.78,25.07,25.36,25.61,25.86,26.11,26.37,26.62,26.88,27.14,27.40,27.66,27.92,28.34,28.82,29.32,29.81,30.32,30.82,31.34,31.85,32.37,32.90,33.77,34.71,35.67,36.63,37.61,38.60,39.60,40.60,41.62,42.64,43.69,44.76,45.83,46.90,47.96,49.01,50.03,51.04,
New Caledonia,37.36,38.78,40.22,41.68,43.16,44.65,46.14,47.65,49.16,50.44,51.23,52.02,52.81,53.60,54.38,55.17,55.87,56.26,56.65,57.04,57.43,57.81,58.20,58.53,58.68,58.83,58.99,59.14,59.29,59.43,59.58,59.72,59.86,60.00,60.15,60.29,60.48,60.84,61.20,61.56,61.92,62.28,62.63,62.99,63.34,63.97,64.64,65.31,65.97,66.62,67.10,67.57,68.02,68.48,68.93,69.38,69.82,70.26,70.68,71.10,
Niger,5.79,5.90,6.00,6.26,6.53,6.81,7.10,7.49,7.91,8.34,8.79,9.27,9.77,10.30,10.85,11.42,12.02,12.65,13.03,13.23,13.44,13.66,13.87,14.09,14.31,14.54,14.76,14.99,15.21,15.29,15.37,15.45,15.53,15.61,15.69,15.77,15.86,15.94,16.02,16.10,16.19,16.26,16.26,16.25,16.25,16.24,16.24,16.23,16.23,16.23,16.22,16.22,16.21,16.21,16.22,16.25,16.29,16.35,16.43,16.52,
Nigeria,15.41,15.63,15.86,16.09,16.32,16.55,16.79,17.03,17.27,17.51,17.76,18.15,18.55,18.95,19.36,19.78,20.21,20.64,21.07,21.52,21.97,22.67,23.39,24.12,24.87,25.64,26.41,27.21,28.02,28.84,29.68,30.18,30.68,31.18,31.69,32.21,32.73,33.25,33.77,34.30,34.84,35.67,36.51,37.36,38.21,39.07,39.94,40.82,41.70,42.59,43.48,44.37,45.25,46.12,46.98,47.84,48.68,49.52,50.34,51.16,
Nicaragua,39.58,40.03,40.48,41.01,41.86,42.71,43.57,44.43,45.29,46.16,47.03,47.79,48.06,48.34,48.62,48.90,49.18,49.46,49.73,50.01,50.29,50.57,50.85,51.13,51.41,51.68,51.96,52.24,52.52,52.80,53.08,53.35,53.63,53.91,54.18,54.44,54.59,54.74,54.89,55.04,55.19,55.34,55.48,55.63,55.78,55.94,56.13,56.33,56.53,56.72,56.92,57.11,57.31,57.51,57.70,57.90,58.09,58.30,58.52,58.76,
Netherlands,59.75,60.02,60.20,60.39,60.57,60.75,60.94,61.12,61.30,61.48,61.66,61.91,62.23,62.55,62.87,63.18,63.50,63.81,64.12,64.44,64.75,65.10,65.51,65.92,66.32,66.72,67.12,67.51,67.91,68.30,68.68,69.33,70.22,71.10,71.96,72.81,73.64,74.45,75.25,76.03,76.80,77.83,79.11,80.34,81.51,82.63,83.64,84.54,85.40,86.29,87.13,87.88,88.59,89.19,89.69,90.17,90.64,91.08,91.49,91.88,
Norway,49.92,51.00,52.65,54.30,55.94,57.57,59.18,60.77,62.34,63.88,65.40,66.23,66.73,67.22,67.70,68.19,68.67,69.14,69.61,70.08,70.55,70.79,70.92,71.05,71.18,71.31,71.44,71.57,71.70,71.83,71.96,72.27,72.67,73.06,73.45,73.79,74.06,74.48,75.03,75.57,76.02,76.38,76.73,77.08,77.40,77.68,77.95,78.23,78.53,78.82,79.10,79.46,79.87,80.29,80.69,81.09,81.49,81.87,82.25,82.62,
Nepal,3.48,3.57,3.61,3.65,3.70,3.74,3.78,3.82,3.87,3.91,3.96,4.01,4.20,4.40,4.61,4.83,5.06,5.30,5.55,5.82,6.09,6.38,6.62,6.86,7.12,7.39,7.66,7.94,8.24,8.54,8.85,9.18,9.58,10.00,10.43,10.88,11.35,11.83,12.34,12.86,13.40,13.95,14.24,14.54,14.84,15.15,15.46,15.78,16.11,16.43,16.77,17.11,17.46,17.82,18.18,18.56,18.94,19.34,19.74,20.15,
Nauru,100.00,100.00,100.00,100.00,100.00,100.00,100.00,100.00,100.00,100.00,100.00,100.00,100.00,100.00,100.00,100.00,100.00,100.00,100.00,100.00,100.00,100.00,100.00,100.00,100.00,100.00,100.00,100.00,100.00,100.00,100.00,100.00,100.00,100.00,100.00,100.00,100.00,100.00,100.00,100.00,100.00,100.00,100.00,100.00,100.00,100.00,100.00,100.00,100.00,100.00,100.00,100.00,100.00,100.00,100.00,100.00,100.00,100.00,100.00,100.00,
New Zealand,76.00,76.53,77.13,77.73,78.32,78.89,79.42,79.85,80.28,80.70,81.11,81.49,81.82,82.14,82.46,82.77,83.03,83.13,83.23,83.33,83.43,83.51,83.55,83.59,83.63,83.67,83.78,84.03,84.27,84.51,84.74,84.95,85.10,85.25,85.40,85.55,85.70,85.78,85.86,85.94,86.02,86.10,86.16,86.22,86.28,86.34,86.40,86.34,86.28,86.22,86.16,86.10,86.16,86.22,86.28,86.34,86.40,86.47,86.54,86.62,
OECD members,62.20,62.70,63.21,63.73,64.25,64.75,65.25,65.76,66.26,66.75,67.21,67.61,67.98,68.33,68.70,69.04,69.30,69.56,69.82,70.08,70.34,70.64,70.92,71.19,71.46,71.72,71.99,72.27,72.56,72.82,73.10,73.39,73.65,73.92,74.19,74.46,74.71,74.95,75.19,75.43,75.66,76.01,76.41,76.79,77.16,77.51,77.83,78.14,78.44,78.73,79.01,79.23,79.43,79.62,79.81,80.00,80.20,80.40,80.60,80.81,
Oman,16.40,17.48,18.61,19.79,21.04,22.34,23.69,25.11,26.58,28.09,29.67,31.29,32.96,34.67,36.42,38.21,40.04,41.89,43.76,45.65,47.56,49.47,51.39,53.29,55.20,57.08,58.94,60.78,62.59,64.37,66.10,67.80,69.45,71.04,71.69,71.67,71.65,71.63,71.61,71.59,71.57,71.55,71.53,71.51,71.83,72.40,72.97,73.53,74.08,74.62,75.16,76.18,77.56,78.88,80.15,81.35,82.50,83.56,84.54,85.44,
Other small states,27.48,27.94,28.41,28.91,29.45,30.01,30.56,31.07,31.59,32.14,32.71,33.31,33.88,34.40,35.00,35.65,36.31,36.94,37.57,38.18,38.80,39.41,40.02,40.56,41.13,41.75,42.43,43.17,43.94,44.69,45.41,46.07,46.47,46.81,47.14,47.51,47.93,48.36,48.81,49.30,49.82,50.36,50.93,51.53,52.19,52.94,53.76,54.71,55.69,56.62,57.48,58.25,58.91,59.50,60.05,60.60,61.12,61.62,62.12,62.60,
Pakistan,22.10,22.50,22.75,23.00,23.26,23.51,23.77,24.03,24.29,24.55,24.82,25.08,25.35,25.67,26.01,26.34,26.68,27.02,27.37,27.72,28.07,28.38,28.62,28.86,29.10,29.34,29.59,29.83,30.08,30.33,30.58,30.83,31.08,31.33,31.58,31.84,32.09,32.35,32.59,32.78,32.98,33.18,33.38,33.58,33.78,33.98,34.18,34.39,34.59,34.79,35.00,35.20,35.41,35.61,35.82,36.03,36.23,36.44,36.67,36.91,
Panama,41.25,41.85,42.49,43.14,43.78,44.43,45.08,45.73,46.39,47.04,47.64,47.92,48.20,48.48,48.76,49.04,49.32,49.60,49.88,50.16,50.45,50.79,51.13,51.47,51.81,52.14,52.48,52.82,53.16,53.50,53.90,54.76,55.61,56.46,57.30,58.14,58.98,59.81,60.63,61.45,62.20,62.50,62.79,63.09,63.39,63.68,63.98,64.27,64.56,64.85,65.14,65.44,65.74,66.05,66.37,66.70,67.03,67.37,67.71,68.06,
Peru,46.81,47.40,48.51,49.63,50.75,51.87,52.98,54.10,55.21,56.31,57.41,58.50,59.55,60.19,60.83,61.46,62.09,62.72,63.34,63.96,64.57,65.18,65.61,66.03,66.45,66.86,67.28,67.69,68.10,68.50,68.90,69.30,69.70,70.09,70.52,70.95,71.38,71.80,72.22,72.63,73.04,73.45,73.85,74.25,74.64,75.03,75.42,75.80,76.05,76.24,76.43,76.62,76.80,76.99,77.17,77.36,77.54,77.72,77.91,78.10,
Philippines,30.30,30.56,30.82,31.08,31.34,31.60,31.87,32.14,32.40,32.67,32.98,33.49,34.01,34.53,35.06,35.56,35.92,36.28,36.64,37.00,37.46,38.39,39.34,40.30,41.27,42.24,43.21,44.20,45.18,46.17,46.99,46.90,46.82,46.73,46.65,46.56,46.48,46.39,46.31,46.22,46.14,46.05,45.97,45.88,45.80,45.71,45.63,45.54,45.46,45.37,45.33,45.52,45.71,45.90,46.09,46.28,46.48,46.68,46.91,47.15,
Palau,56.82,57.11,57.41,57.70,57.99,58.28,58.57,58.85,59.14,59.43,59.72,60.00,60.29,60.57,60.86,61.14,61.42,61.70,61.98,62.26,62.54,63.41,64.42,65.42,66.41,67.38,68.19,68.54,68.89,69.24,69.59,69.97,70.34,70.70,71.07,71.43,71.31,71.07,70.83,70.58,70.34,70.09,69.85,69.60,70.38,71.15,71.91,72.66,73.39,74.11,74.82,75.51,76.19,76.86,77.52,78.16,78.78,79.37,79.93,80.47,
Papua New Guinea,3.73,4.02,4.35,4.69,5.07,5.47,5.90,6.71,7.63,8.65,9.80,11.08,11.30,11.51,11.72,11.93,12.15,12.37,12.59,12.82,13.05,13.24,13.43,13.62,13.81,14.00,14.19,14.39,14.59,14.79,14.99,14.82,14.63,14.45,14.26,14.08,13.90,13.72,13.55,13.38,13.20,13.18,13.16,13.15,13.13,13.11,13.09,13.07,13.06,13.04,13.02,13.00,12.98,12.98,12.99,13.01,13.05,13.10,13.17,13.25,
Poland,47.89,48.53,48.93,49.33,49.73,50.13,50.53,50.93,51.33,51.73,52.13,52.67,53.32,53.98,54.63,55.28,55.93,56.58,57.22,57.71,58.09,58.46,58.83,59.20,59.57,59.94,60.31,60.68,61.04,61.23,61.27,61.32,61.36,61.40,61.45,61.49,61.54,61.58,61.63,61.67,61.72,61.76,61.79,61.68,61.56,61.45,61.34,61.23,61.12,61.00,60.89,60.78,60.65,60.53,60.40,60.28,60.18,60.11,60.06,60.04,
Pre-demographic dividend,13.47,13.83,14.20,14.58,14.99,15.41,15.82,16.23,16.67,17.13,17.58,18.08,18.61,19.14,19.67,20.21,20.77,21.32,21.86,22.34,22.79,23.30,23.82,24.37,24.94,25.54,26.13,26.72,27.28,27.80,28.34,28.77,29.18,29.58,29.91,30.25,30.59,30.96,31.33,31.70,32.07,32.51,32.96,33.43,33.90,34.39,34.88,35.30,35.81,36.34,36.87,37.42,37.96,38.51,39.05,39.59,40.14,40.68,41.23,41.78,
Puerto Rico,44.55,45.93,47.33,48.72,50.13,51.52,52.92,54.31,55.70,57.08,58.33,59.23,60.13,61.01,61.90,62.77,63.64,64.49,65.34,66.18,67.84,71.77,75.41,78.71,81.68,84.32,86.64,88.66,90.41,91.92,92.94,93.11,93.27,93.42,93.58,93.73,93.88,94.02,94.16,94.30,94.39,94.33,94.28,94.22,94.17,94.11,94.06,94.00,93.94,93.88,93.83,93.77,93.73,93.69,93.65,93.62,93.60,93.59,93.58,93.58,
"Korea, Dem. People's Rep.",40.20,41.16,42.14,43.12,44.10,45.09,46.08,47.08,49.01,51.61,54.20,54.70,55.20,55.70,56.20,56.70,56.74,56.78,56.82,56.86,56.90,57.05,57.20,57.35,57.50,57.64,57.79,57.94,58.09,58.24,58.38,58.53,58.68,58.83,58.94,59.02,59.10,59.18,59.26,59.33,59.41,59.49,59.57,59.65,59.73,59.81,59.88,59.96,60.04,60.20,60.38,60.56,60.74,60.92,61.10,61.28,61.47,61.68,61.90,62.13,
Portugal,34.96,35.34,35.72,36.10,36.48,36.87,37.25,37.64,38.03,38.41,38.80,39.20,39.59,39.99,40.38,40.78,41.18,41.58,41.98,42.38,42.79,43.22,43.74,44.26,44.78,45.30,45.82,46.34,46.87,47.39,47.92,48.47,49.13,49.79,50.45,51.11,51.77,52.43,53.09,53.74,54.40,55.04,55.67,56.29,56.91,57.52,58.14,58.75,59.36,59.96,60.57,61.17,61.76,62.35,62.94,63.51,64.09,64.65,65.21,65.76,
Paraguay,35.57,35.67,35.77,35.92,36.08,36.24,36.41,36.57,36.74,36.90,37.07,37.23,37.40,37.92,38.45,38.98,39.52,40.06,40.60,41.14,41.69,42.24,42.79,43.51,44.25,44.98,45.72,46.46,47.21,47.95,48.69,49.44,50.19,50.84,51.49,52.13,52.77,53.41,54.05,54.69,55.33,55.97,56.60,56.98,57.31,57.63,57.96,58.29,58.61,58.94,59.26,59.58,59.91,60.20,60.47,60.75,61.03,61.30,61.59,61.88,
West Bank and Gaza,44.04,44.73,45.66,46.74,47.82,48.90,49.98,51.06,52.15,53.22,54.30,55.37,56.44,57.50,58.55,59.60,60.16,60.72,61.28,61.84,62.39,62.94,63.48,64.02,64.56,65.10,65.63,66.15,66.68,67.19,67.71,68.22,68.73,69.23,69.72,70.22,70.71,71.19,71.52,71.75,71.97,72.19,72.41,72.63,72.85,73.06,73.28,73.49,73.70,73.92,74.15,74.38,74.62,74.86,75.11,75.37,75.63,75.89,76.16,76.44,
Pacific island small states,22.45,22.89,23.34,23.80,24.25,24.70,25.14,25.49,25.83,26.18,26.53,26.85,27.17,27.48,27.72,27.92,28.14,28.28,28.41,28.56,28.72,28.92,29.14,29.38,29.60,29.81,30.01,30.39,30.78,31.15,31.51,31.88,32.25,32.62,32.99,33.33,33.69,33.92,34.12,34.32,34.54,34.76,34.92,35.08,35.26,35.45,35.68,35.95,36.26,36.58,36.86,37.11,37.34,37.56,37.80,38.04,38.29,38.53,38.78,39.04,
Post-demographic dividend,63.27,63.78,64.31,64.86,65.40,65.95,66.48,67.02,67.54,68.05,68.53,68.94,69.32,69.69,70.06,70.40,70.67,70.94,71.20,71.47,71.74,72.02,72.26,72.48,72.68,72.88,73.11,73.37,73.62,73.84,74.06,74.32,74.57,74.82,75.07,75.33,75.57,75.80,76.03,76.25,76.47,76.82,77.22,77.61,77.99,78.35,78.68,78.99,79.29,79.58,79.86,80.06,80.24,80.40,80.57,80.75,80.92,81.10,81.28,81.47,
French Polynesia,42.28,43.22,44.16,45.39,46.78,48.18,49.58,50.98,52.38,53.77,55.16,56.20,56.72,57.23,57.74,58.25,58.76,59.17,59.12,59.06,59.00,58.95,58.89,58.84,58.74,58.64,58.53,58.42,58.31,58.09,57.85,57.61,57.37,57.12,56.88,56.64,56.39,56.29,56.21,56.13,56.05,55.97,55.89,56.24,56.83,57.42,58.00,58.59,59.17,59.74,60.32,60.89,61.46,61.58,61.63,61.68,61.73,61.78,61.83,61.90,
Qatar,85.28,85.69,86.10,86.50,86.78,87.05,87.32,87.59,87.85,88.10,88.35,88.60,88.68,88.76,88.83,88.91,88.99,89.06,89.14,89.21,89.36,89.51,89.66,89.81,89.96,90.10,90.40,91.06,91.67,92.25,92.79,93.29,93.76,94.20,94.61,95.00,95.36,95.66,95.89,96.11,96.31,96.51,96.69,96.87,97.09,97.40,97.67,97.92,98.14,98.34,98.50,98.60,98.70,98.79,98.87,98.95,99.02,99.08,99.14,99.19,
Romania,34.21,34.89,35.59,36.28,36.99,37.70,38.35,38.84,39.33,39.82,40.32,40.82,41.32,41.82,42.33,42.83,43.34,43.94,44.65,45.36,46.07,46.78,47.50,48.21,48.93,49.64,50.36,51.07,51.79,52.50,53.22,53.93,54.23,54.07,53.92,53.77,53.62,53.46,53.31,53.16,53.00,52.85,52.78,52.91,53.04,53.17,53.31,53.44,53.57,53.70,53.83,53.96,53.97,53.94,53.90,53.89,53.90,53.94,54.00,54.08,
Russian Federation,53.73,54.63,55.52,56.41,57.29,58.17,59.05,59.92,60.78,61.64,62.47,63.28,64.08,64.87,65.65,66.43,67.19,67.95,68.70,69.31,69.75,70.19,70.63,71.07,71.50,71.92,72.35,72.77,73.18,73.40,73.39,73.39,73.39,73.38,73.38,73.37,73.37,73.36,73.36,73.35,73.35,73.35,73.34,73.37,73.42,73.46,73.51,73.55,73.60,73.64,73.69,73.73,73.79,73.86,73.95,74.05,74.16,74.29,74.43,74.59,
Rwanda,2.60,2.65,2.71,2.77,2.82,2.88,2.94,3.00,3.07,3.13,3.19,3.34,3.49,3.65,3.82,4.00,4.18,4.37,4.58,4.66,4.72,4.79,4.85,4.92,4.99,5.06,5.13,5.20,5.27,5.34,5.42,5.49,6.29,7.31,8.49,9.84,11.37,12.47,13.24,14.06,14.93,15.83,16.78,16.90,16.91,16.91,16.92,16.92,16.93,16.93,16.93,16.94,16.94,16.95,16.97,17.00,17.06,17.13,17.21,17.31,
South Asia,16.74,16.88,17.06,17.25,17.45,17.64,17.83,18.03,18.22,18.43,18.64,18.88,19.21,19.54,19.90,20.28,20.67,21.07,21.48,21.90,22.33,22.71,22.97,23.22,23.49,23.75,24.01,24.27,24.54,24.80,25.06,25.31,25.54,25.76,25.98,26.21,26.44,26.68,26.91,27.15,27.38,27.65,27.99,28.33,28.68,29.03,29.38,29.73,30.09,30.45,30.82,31.18,31.56,31.94,32.34,32.74,33.15,33.56,33.99,34.43,
Saudi Arabia,31.25,32.37,33.52,35.01,36.87,38.77,40.70,42.67,44.65,46.66,48.67,50.69,52.71,54.71,56.70,58.35,59.90,61.42,62.93,64.41,65.86,67.28,68.67,70.03,71.36,72.65,73.90,74.59,75.27,75.93,76.58,77.22,77.85,78.19,78.43,78.67,78.91,79.15,79.38,79.62,79.85,80.08,80.30,80.53,80.75,80.98,81.20,81.43,81.65,81.87,82.08,82.30,82.52,82.74,82.96,83.18,83.40,83.62,83.84,84.07,
Sudan,10.75,11.23,11.74,12.26,12.81,13.37,13.96,14.57,15.20,15.85,16.52,17.22,17.94,18.55,18.74,18.94,19.14,19.34,19.55,19.75,19.96,20.17,20.38,20.90,21.90,22.94,24.01,25.11,26.24,27.41,28.61,29.84,31.10,32.13,32.18,32.23,32.28,32.34,32.39,32.44,32.50,32.55,32.60,32.65,32.71,32.76,32.81,32.87,32.92,32.99,33.09,33.21,33.35,33.51,33.69,33.89,34.12,34.37,34.64,34.94,
Senegal,23.00,23.65,24.30,24.97,25.66,26.35,27.06,27.78,28.51,29.25,30.00,30.72,31.45,32.19,32.94,33.69,34.37,34.72,35.07,35.42,35.77,36.12,36.48,36.83,37.19,37.55,37.91,38.27,38.61,38.76,38.90,39.04,39.18,39.32,39.46,39.61,39.75,39.89,40.03,40.18,40.32,40.46,40.61,40.90,41.31,41.71,42.12,42.54,42.95,43.36,43.77,44.19,44.60,45.02,45.44,45.86,46.30,46.74,47.19,47.65,
Singapore,100.00,100.00,100.00,100.00,100.00,100.00,100.00,100.00,100.00,100.00,100.00,100.00,100.00,100.00,100.00,100.00,100.00,100.00,100.00,100.00,100.00,100.00,100.00,100.00,100.00,100.00,100.00,100.00,100.00,100.00,100.00,100.00,100.00,100.00,100.00,100.00,100.00,100.00,100.00,100.00,100.00,100.00,100.00,100.00,100.00,100.00,100.00,100.00,100.00,100.00,100.00,100.00,100.00,100.00,100.00,100.00,100.00,100.00,100.00,100.00,
Solomon Islands,5.77,6.04,6.32,6.62,6.92,7.25,7.58,7.93,8.29,8.67,8.92,8.96,9.00,9.04,9.08,9.13,9.27,9.58,9.90,10.24,10.58,10.93,11.29,11.66,12.04,12.43,12.84,13.11,13.30,13.49,13.68,13.87,14.07,14.26,14.46,14.66,14.87,15.08,15.29,15.50,15.81,16.20,16.60,17.00,17.41,17.83,18.26,18.69,19.14,19.59,20.05,20.51,20.97,21.43,21.90,22.36,22.82,23.29,23.75,24.21,
Sierra Leone,17.35,17.90,18.47,19.06,19.71,20.38,21.06,21.77,22.48,23.22,23.97,24.74,25.52,26.32,27.14,27.73,28.14,28.55,28.97,29.39,29.82,30.25,30.68,31.12,31.56,32.00,32.33,32.56,32.79,33.02,33.25,33.49,33.72,33.96,34.19,34.43,34.67,34.91,35.14,35.38,35.63,35.87,36.11,36.35,36.60,36.92,37.30,37.69,38.08,38.47,38.86,39.25,39.64,40.04,40.43,40.83,41.23,41.64,42.06,42.48,
El Salvador,38.35,38.53,38.63,38.73,38.83,38.93,39.03,39.13,39.24,39.34,39.44,39.54,40.04,40.54,41.05,41.55,42.06,42.57,43.08,43.59,44.10,44.61,45.13,45.64,46.16,46.68,47.20,47.71,48.23,48.75,49.27,49.79,50.32,51.42,52.70,53.99,55.27,56.54,57.80,58.36,58.91,59.46,60.01,60.56,61.11,61.65,62.19,62.77,63.68,64.57,65.45,66.33,67.19,68.04,68.87,69.70,70.50,71.28,72.02,72.75,
San Marino,48.90,50.00,51.10,52.21,53.31,54.40,55.49,56.58,57.66,58.74,59.80,62.28,64.70,67.05,69.31,71.48,73.57,75.62,77.60,79.48,81.23,82.86,84.38,85.79,87.10,88.29,89.39,90.40,90.40,90.40,90.40,90.40,90.40,90.84,91.26,91.66,92.05,92.42,92.78,93.12,93.44,93.75,93.93,93.98,94.16,94.45,94.74,95.01,95.26,95.51,95.74,95.96,96.17,96.37,96.56,96.74,96.91,97.07,97.23,97.37,
Somalia,17.31,17.84,18.37,18.92,19.45,19.96,20.49,21.02,21.56,22.12,22.68,23.25,23.84,24.43,25.03,25.50,25.75,26.00,26.25,26.51,26.76,27.02,27.28,27.54,27.80,28.07,28.33,28.63,28.97,29.31,29.66,30.01,30.36,30.71,31.07,31.43,31.79,32.15,32.51,32.88,33.25,33.62,33.99,34.76,35.53,36.31,37.10,34.40,36.01,37.65,39.31,41.00,41.56,42.12,42.68,43.25,43.82,44.39,44.97,45.55,
Serbia,29.06,30.05,31.06,32.09,33.14,34.20,35.28,36.38,37.49,38.61,39.74,40.75,41.34,41.93,42.53,43.13,43.73,44.33,44.93,45.54,46.15,46.70,47.11,47.52,47.93,48.34,48.75,49.16,49.57,49.98,50.39,50.76,50.98,51.20,51.43,51.65,51.88,52.10,52.32,52.55,52.77,52.99,53.22,53.44,53.66,53.88,54.11,54.33,54.55,54.77,54.99,55.22,55.36,55.47,55.58,55.70,55.81,55.94,56.09,56.26,
Sub-Saharan Africa (excluding high income),14.63,14.93,15.23,15.55,15.89,16.24,16.59,16.94,17.31,17.68,18.05,18.46,18.87,19.30,19.72,20.16,20.61,21.06,21.51,21.91,22.28,22.71,23.15,23.61,24.09,24.62,25.16,25.69,26.23,26.77,27.33,27.81,28.28,28.73,29.14,29.51,29.88,30.25,30.61,30.97,31.33,31.76,32.20,32.65,33.10,33.56,34.02,34.44,34.95,35.47,35.99,36.52,37.03,37.54,38.06,38.59,39.11,39.64,40.17,40.71,
South Sudan,8.75,8.74,8.73,8.71,8.70,8.69,8.68,8.67,8.66,8.65,8.63,8.62,8.61,8.60,8.59,8.58,8.57,8.55,8.54,8.53,8.52,8.51,8.50,8.71,9.26,9.84,10.46,11.11,11.80,12.52,13.28,14.07,14.91,15.63,15.75,15.87,16.00,16.12,16.25,16.38,16.50,16.63,16.76,16.89,17.02,17.15,17.29,17.42,17.56,17.70,17.86,18.03,18.22,18.42,18.63,18.85,19.09,19.35,19.62,19.90,
Sub-Saharan Africa,14.69,14.99,15.30,15.62,15.96,16.31,16.66,17.01,17.38,17.76,18.13,18.53,18.95,19.37,19.79,20.23,20.68,21.12,21.57,21.96,22.34,22.77,23.20,23.65,24.14,24.66,25.20,25.74,26.27,26.81,27.36,27.84,28.31,28.77,29.17,29.54,29.91,30.28,30.64,30.99,31.35,31.78,32.22,32.67,33.12,33.58,34.04,34.46,34.97,35.48,36.00,36.52,37.04,37.55,38.07,38.59,39.12,39.64,40.18,40.71,
Small states,29.39,29.86,30.35,30.84,31.37,31.90,32.43,32.92,33.42,33.94,34.46,34.99,35.52,36.05,36.63,37.22,37.84,38.42,39.00,39.57,40.14,40.62,41.11,41.53,41.97,42.44,42.95,43.53,44.13,44.72,45.28,45.80,46.14,46.42,46.70,47.02,47.36,47.72,48.08,48.47,48.90,49.32,49.74,50.19,50.69,51.26,51.88,52.62,53.38,54.11,54.79,55.40,55.95,56.44,56.91,57.38,57.83,58.28,58.72,59.16,
Sao Tome and Principe,16.07,16.81,17.97,19.19,20.48,21.83,23.25,24.72,26.26,27.86,29.52,30.21,30.56,30.92,31.28,31.64,32.00,32.37,32.74,33.11,33.48,33.86,34.83,35.89,36.96,38.05,39.15,40.26,41.38,42.51,43.65,44.79,45.76,46.72,47.67,48.63,49.59,50.55,51.51,52.47,53.42,54.38,55.56,56.77,57.97,59.17,60.35,61.52,62.68,63.82,64.95,66.06,67.16,68.21,69.21,70.17,71.09,71.97,72.80,73.60,
Suriname,47.26,47.30,47.34,47.37,47.34,47.11,46.88,46.64,46.41,46.18,45.95,45.72,46.76,49.09,51.42,53.75,56.06,58.35,60.60,62.80,64.96,65.04,65.11,65.18,65.26,65.33,65.41,65.48,65.56,65.63,65.71,65.78,65.85,65.93,66.00,66.08,66.15,66.22,66.30,66.37,66.44,66.52,66.59,66.66,66.74,66.68,66.62,66.55,66.48,66.41,66.34,66.28,66.21,66.14,66.09,66.06,66.04,66.04,66.06,66.10,
Slovak Republic,33.46,33.95,34.71,35.48,36.26,37.04,37.83,38.63,39.44,40.24,41.06,42.01,43.06,44.12,45.19,46.26,47.33,48.41,49.48,50.56,51.64,52.31,52.78,53.24,53.71,54.18,54.64,55.11,55.57,56.03,56.49,56.78,56.72,56.66,56.60,56.54,56.48,56.42,56.36,56.29,56.23,56.16,56.01,55.86,55.71,55.56,55.41,55.26,55.11,54.96,54.69,54.42,54.28,54.14,54.00,53.89,53.81,53.75,53.73,53.73,
Slovenia,28.20,29.11,29.93,30.78,31.63,32.50,33.38,34.27,35.17,36.08,37.00,37.97,39.06,40.15,41.26,42.37,43.50,44.63,45.76,46.90,48.05,48.94,49.10,49.26,49.42,49.58,49.75,49.91,50.07,50.23,50.39,50.52,50.54,50.57,50.60,50.62,50.65,50.68,50.70,50.73,50.75,50.78,50.86,51.08,51.31,51.53,51.76,51.98,52.21,52.43,52.66,52.88,53.11,53.33,53.56,53.78,54.02,54.27,54.54,54.82,
Sweden,72.49,73.30,74.27,75.22,76.15,77.06,77.91,78.73,79.52,80.29,81.03,81.56,81.89,82.20,82.52,82.73,82.80,82.87,82.94,83.02,83.09,83.10,83.10,83.10,83.10,83.10,83.10,83.10,83.10,83.10,83.10,83.20,83.36,83.52,83.67,83.82,83.91,83.94,83.97,84.00,84.03,84.07,84.13,84.20,84.26,84.32,84.43,84.59,84.75,84.90,85.06,85.30,85.62,85.94,86.25,86.55,86.85,87.15,87.43,87.71,
Eswatini,3.91,4.34,4.80,5.31,5.88,6.49,7.16,7.73,8.34,9.00,9.71,10.46,11.26,12.12,13.03,14.00,15.04,15.47,15.80,16.14,16.48,16.82,17.18,17.53,17.90,18.27,18.64,19.02,19.41,19.80,20.20,20.61,21.02,21.43,21.86,22.29,22.72,23.08,22.95,22.82,22.69,22.56,22.43,22.30,22.17,22.04,21.91,21.83,22.05,22.26,22.48,22.70,22.85,23.00,23.15,23.30,23.46,23.63,23.80,23.98,
Sint Maarten (Dutch part),100.00,100.00,100.00,100.00,100.00,100.00,100.00,100.00,100.00,100.00,100.00,100.00,100.00,100.00,100.00,100.00,100.00,100.00,100.00,100.00,100.00,100.00,100.00,100.00,100.00,100.00,100.00,100.00,100.00,100.00,100.00,100.00,100.00,100.00,100.00,100.00,100.00,100.00,100.00,100.00,100.00,100.00,100.00,100.00,100.00,100.00,100.00,100.00,100.00,100.00,100.00,100.00,100.00,100.00,100.00,100.00,100.00,100.00,100.00,100.00,
Seychelles,27.67,28.72,29.79,30.88,31.99,33.12,34.28,35.45,36.64,37.85,39.07,40.34,41.80,43.28,44.77,46.27,47.77,49.28,49.40,49.38,49.37,49.35,49.34,49.32,49.31,49.29,49.28,49.26,49.25,49.25,49.27,49.31,49.36,49.44,49.53,49.63,49.76,49.90,50.06,50.24,50.43,50.65,50.88,51.12,51.39,51.67,51.97,52.29,52.62,52.97,53.34,53.72,54.12,54.54,54.97,55.40,55.83,56.26,56.69,57.12,
Syrian Arab Republic,36.81,37.40,38.04,38.69,39.35,40.01,40.67,41.33,42.00,42.67,43.35,43.75,44.08,44.41,44.73,45.06,45.39,45.72,46.05,46.38,46.71,47.04,47.27,47.48,47.68,47.89,48.10,48.31,48.52,48.72,48.93,49.14,49.35,49.56,49.76,50.10,50.47,50.84,51.21,51.58,51.95,52.31,52.68,53.05,53.42,53.78,54.15,54.51,54.88,55.24,55.60,54.58,53.56,52.53,51.50,52.17,52.84,53.50,54.16,54.82,
Turks and Caicos Islands,47.68,48.02,48.36,48.71,49.05,49.39,49.73,50.08,50.42,50.76,51.11,51.49,51.88,52.28,52.67,53.06,53.46,53.85,54.24,54.63,55.26,57.36,59.44,61.48,63.48,65.44,67.35,69.20,70.99,72.72,74.34,75.54,76.69,77.81,78.89,79.93,80.93,81.89,82.81,83.70,84.55,85.36,86.01,86.61,87.19,87.75,88.28,88.80,89.29,89.77,90.23,90.67,91.09,91.48,91.85,92.20,92.52,92.82,93.10,93.36,
Chad,6.70,6.96,7.24,7.53,7.88,8.41,8.97,9.56,10.20,10.86,11.57,12.31,13.10,13.88,14.70,15.57,16.47,17.41,18.40,18.59,18.79,18.98,19.18,19.38,19.58,19.78,19.98,20.19,20.39,20.60,20.81,21.02,21.24,21.41,21.44,21.47,21.51,21.54,21.57,21.60,21.64,21.67,21.70,21.74,21.77,21.80,21.83,21.87,21.90,21.93,21.99,22.05,22.14,22.25,22.37,22.52,22.68,22.86,23.06,23.28,
East Asia & Pacific (IDA & IBRD countries),16.62,17.08,17.54,18.01,18.48,18.40,18.35,18.33,18.32,18.31,18.31,18.33,18.38,18.52,18.73,18.78,18.94,19.11,19.52,20.18,20.88,21.59,22.32,22.95,23.59,24.25,24.91,25.59,26.29,26.99,27.71,28.50,29.31,30.13,30.96,31.81,32.68,33.56,34.45,35.35,36.27,37.31,38.43,39.57,40.72,41.87,42.99,44.10,45.22,46.34,47.46,48.51,49.54,50.55,51.57,52.58,53.58,54.58,55.56,56.50,
Europe & Central Asia (IDA & IBRD countries),45.05,45.79,46.51,47.23,47.95,48.68,49.39,50.09,50.79,51.49,52.17,52.84,53.49,54.13,54.77,55.39,55.98,56.57,57.15,57.66,58.08,58.59,59.14,59.69,60.24,60.78,61.28,61.75,62.23,62.57,62.76,62.91,63.00,63.06,63.13,63.21,63.29,63.36,63.43,63.51,63.60,63.71,63.85,64.00,64.16,64.32,64.49,64.66,64.83,65.00,65.16,65.30,65.43,65.57,65.71,65.85,66.00,66.16,66.33,66.50,
Togo,10.10,10.94,11.84,12.81,13.85,14.95,16.13,17.37,18.70,20.10,21.28,21.60,21.93,22.26,22.59,22.93,23.27,23.61,23.96,24.31,24.66,25.02,25.39,25.78,26.17,26.56,26.96,27.36,27.77,28.18,28.59,29.01,29.43,29.85,30.28,30.71,31.14,31.58,32.02,32.46,32.91,33.36,33.81,34.27,34.72,35.19,35.65,36.12,36.59,37.06,37.53,38.03,38.55,39.06,39.58,40.10,40.63,41.16,41.70,42.25,
Thailand,19.67,19.78,19.89,20.00,20.11,20.22,20.33,20.44,20.56,20.67,20.89,21.44,22.01,22.58,23.16,23.76,24.37,24.98,25.61,26.24,26.79,27.05,27.31,27.57,27.83,28.10,28.36,28.63,28.90,29.17,29.42,29.59,29.76,29.93,30.11,30.28,30.45,30.62,30.80,30.97,31.39,32.55,33.73,34.94,36.17,37.41,38.67,39.95,41.24,42.54,43.86,44.70,45.45,46.19,46.94,47.69,48.45,49.20,49.95,50.69,
Tajikistan,33.17,33.56,33.96,34.35,34.75,35.15,35.56,35.96,36.37,36.78,36.88,36.61,36.34,36.07,35.80,35.54,35.27,35.01,34.74,34.50,34.29,34.08,33.87,33.66,33.45,33.24,33.03,32.82,32.61,32.23,31.66,31.09,30.53,29.97,29.42,28.88,28.34,27.81,27.28,26.76,26.50,26.50,26.51,26.51,26.51,26.51,26.51,26.51,26.52,26.52,26.52,26.52,26.55,26.59,26.66,26.74,26.85,26.98,27.13,27.31,
Turkmenistan,46.41,46.56,46.70,46.85,46.99,47.14,47.28,47.43,47.58,47.72,47.78,47.74,47.69,47.65,47.60,47.56,47.51,47.47,47.42,47.30,47.08,46.86,46.64,46.42,46.20,45.98,45.76,45.54,45.32,45.16,45.08,44.99,44.90,44.82,44.73,44.79,45.02,45.24,45.47,45.69,45.91,46.14,46.36,46.59,46.81,47.05,47.31,47.58,47.87,48.17,48.49,48.83,49.18,49.54,49.92,50.32,50.73,51.15,51.59,52.05,
Latin America & the Caribbean (IDA & IBRD countries),49.21,50.03,50.86,51.69,52.53,53.30,54.08,54.86,55.63,56.40,57.17,57.93,58.68,59.41,60.13,60.85,61.57,62.28,63.00,63.70,64.40,65.06,65.70,66.31,66.93,67.54,68.14,68.73,69.31,69.88,70.44,70.98,71.49,71.99,72.49,72.99,73.47,73.95,74.43,74.89,75.35,75.72,76.06,76.39,76.70,77.01,77.32,77.63,77.93,78.22,78.50,78.79,79.07,79.35,79.62,79.88,80.14,80.39,80.64,80.89,
Timor-Leste,10.09,10.24,10.51,10.79,11.07,11.35,11.65,11.95,12.25,12.57,12.89,13.21,13.55,13.89,14.24,14.59,14.96,15.33,15.70,16.09,16.48,16.88,17.29,17.71,18.13,18.56,19.00,19.45,19.91,20.37,20.84,21.22,21.54,21.87,22.20,22.53,22.87,23.22,23.56,23.91,24.26,24.62,24.98,25.34,25.71,26.04,26.37,26.71,27.05,27.39,27.73,28.08,28.43,28.78,29.13,29.49,29.85,30.21,30.58,30.95,
Middle East & North Africa (IDA & IBRD countries),33.83,34.56,35.28,36.01,36.75,37.52,38.26,38.91,39.58,40.26,40.94,41.60,42.28,42.95,43.59,44.23,44.85,45.41,45.94,46.47,47.00,47.54,48.07,48.60,49.13,49.64,50.15,50.59,50.96,51.29,51.63,51.96,52.36,52.77,53.18,53.53,53.86,54.20,54.55,54.91,55.27,55.63,56.00,56.36,56.71,57.10,57.48,57.83,58.17,58.52,58.88,59.17,59.46,59.77,60.07,60.43,60.77,61.10,61.41,61.73,
Tonga,17.55,17.93,18.31,18.70,19.10,19.50,19.91,20.10,20.13,20.16,20.19,20.22,20.25,20.28,20.31,20.34,20.37,20.50,20.72,20.94,21.15,21.37,21.59,21.82,22.04,22.27,22.50,22.61,22.64,22.67,22.70,22.74,22.77,22.80,22.83,22.86,22.90,22.93,22.96,22.98,23.01,23.04,23.07,23.10,23.13,23.16,23.18,23.23,23.28,23.34,23.39,23.44,23.44,23.38,23.33,23.28,23.22,23.17,23.13,23.11,
South Asia (IDA & IBRD),16.74,16.88,17.06,17.25,17.45,17.64,17.83,18.03,18.22,18.43,18.64,18.88,19.21,19.54,19.90,20.28,20.67,21.07,21.48,21.90,22.33,22.71,22.97,23.22,23.49,23.75,24.01,24.27,24.54,24.80,25.06,25.31,25.54,25.76,25.98,26.21,26.44,26.68,26.91,27.15,27.38,27.65,27.99,28.33,28.68,29.03,29.38,29.73,30.09,30.45,30.82,31.18,31.56,31.94,32.34,32.74,33.15,33.56,33.99,34.43,
Sub-Saharan Africa (IDA & IBRD countries),14.69,14.99,15.30,15.62,15.96,16.31,16.66,17.01,17.38,17.76,18.13,18.53,18.95,19.37,19.79,20.23,20.68,21.12,21.57,21.96,22.34,22.77,23.20,23.65,24.14,24.66,25.20,25.74,26.27,26.81,27.36,27.84,28.31,28.77,29.17,29.54,29.91,30.28,30.64,30.99,31.35,31.78,32.22,32.67,33.12,33.58,34.04,34.46,34.97,35.48,36.00,36.52,37.04,37.55,38.07,38.59,39.12,39.64,40.18,40.71,
Trinidad and Tobago,34.16,35.00,35.86,36.73,37.61,38.50,39.39,40.29,41.20,42.12,43.04,43.96,44.89,45.82,46.75,47.69,48.63,49.57,50.51,51.45,52.28,52.47,52.65,52.84,53.02,53.21,53.39,53.57,53.76,53.94,54.12,54.31,54.49,54.67,54.86,55.04,55.22,55.41,55.59,55.77,55.91,55.72,55.53,55.34,55.16,54.97,54.78,54.59,54.40,54.21,54.03,53.84,53.67,53.53,53.41,53.32,53.25,53.21,53.18,53.19,
Tunisia,37.51,37.95,38.39,38.83,39.28,39.72,40.23,41.04,41.85,42.66,43.48,44.31,45.13,45.96,46.79,47.59,48.18,48.78,49.38,49.97,50.57,51.16,51.76,52.36,53.01,53.84,54.67,55.49,56.31,57.13,57.95,58.76,59.56,60.36,61.08,61.47,61.87,62.26,62.65,63.04,63.43,63.82,64.20,64.59,64.95,65.24,65.52,65.81,66.09,66.38,66.66,66.94,67.22,67.50,67.77,68.06,68.35,68.64,68.95,69.25,
Turkey,31.52,32.06,32.60,33.14,33.68,34.23,34.95,35.76,36.58,37.40,38.23,38.95,39.60,40.26,40.92,41.59,42.09,42.51,42.93,43.36,43.78,45.19,47.00,48.81,50.63,52.45,53.93,55.26,56.59,57.90,59.20,59.98,60.52,61.06,61.59,62.12,62.65,63.18,63.70,64.22,64.74,65.34,65.97,66.60,67.23,67.84,68.45,69.05,69.65,70.24,70.83,71.40,71.97,72.53,73.08,73.61,74.13,74.64,75.14,75.63,
Tuvalu,15.90,16.44,17.01,17.59,18.18,18.79,19.42,20.06,20.72,21.39,22.08,22.79,23.51,24.24,24.99,25.76,26.55,27.34,28.15,28.98,29.82,30.68,31.54,32.43,33.32,34.25,35.50,36.76,38.05,39.35,40.66,41.99,42.75,43.16,43.56,43.97,44.38,44.79,45.20,45.61,46.02,46.43,46.84,47.66,48.68,49.70,50.72,51.74,52.77,53.78,54.80,55.81,56.82,57.81,58.79,59.73,60.65,61.53,62.39,63.22,
Tanzania,5.25,5.39,5.55,5.70,5.87,6.03,6.20,6.37,6.80,7.31,7.85,8.43,9.05,9.70,10.40,11.15,11.94,12.77,13.66,14.14,14.56,14.98,15.41,15.85,16.31,16.77,17.24,17.73,18.22,18.57,18.88,19.21,19.54,19.87,20.20,20.54,20.89,21.24,21.59,21.95,22.31,22.67,23.04,23.61,24.22,24.85,25.48,26.12,26.78,27.44,28.11,28.80,29.49,30.20,30.90,31.62,32.33,33.05,33.78,34.50,
Uganda,4.42,4.62,4.83,5.05,5.27,5.51,5.76,6.01,6.28,6.56,6.66,6.74,6.81,6.89,6.96,7.04,7.12,7.20,7.28,7.36,7.53,7.83,8.15,8.47,8.81,9.15,9.51,9.88,10.27,10.67,11.08,11.45,11.79,12.13,12.49,12.85,13.22,13.59,13.98,14.38,14.79,15.20,15.63,16.06,16.51,16.96,17.43,17.90,18.38,18.88,19.38,19.90,20.42,20.96,21.50,22.06,22.62,23.20,23.77,24.36,
Ukraine,46.79,47.54,48.29,49.05,49.80,50.65,51.50,52.35,53.20,54.04,54.83,55.55,56.27,56.99,57.70,58.39,59.08,59.76,60.43,61.08,61.69,62.30,62.90,63.50,64.10,64.68,65.26,65.83,66.40,66.72,66.76,66.80,66.84,66.87,66.91,66.95,66.99,67.03,67.07,67.11,67.15,67.18,67.28,67.43,67.60,67.79,67.97,68.15,68.33,68.50,68.60,68.69,68.78,68.88,68.97,69.06,69.15,69.25,69.35,69.47,
Upper middle income,27.28,28.06,28.73,29.31,29.91,30.09,30.25,30.44,30.63,30.81,30.98,31.17,31.38,31.66,32.01,32.39,32.75,33.12,33.67,34.38,35.10,35.84,36.59,37.27,37.97,38.67,39.35,40.02,40.69,41.35,41.99,42.69,43.41,44.14,44.88,45.63,46.39,47.15,47.93,48.72,49.52,50.40,51.33,52.28,53.23,54.19,55.13,56.06,57.00,57.93,58.86,59.74,60.60,61.46,62.30,63.14,63.96,64.78,65.57,66.35,
Uruguay,80.24,80.46,80.68,80.90,81.11,81.33,81.54,81.75,81.96,82.16,82.37,82.57,82.77,82.97,83.17,83.39,83.81,84.22,84.62,85.01,85.39,85.77,86.14,86.50,86.85,87.19,87.56,87.93,88.29,88.63,88.97,89.30,89.63,89.94,90.25,90.54,90.84,91.15,91.45,91.74,92.03,92.30,92.57,92.83,93.08,93.32,93.55,93.78,94.00,94.21,94.41,94.61,94.74,94.84,94.95,95.05,95.14,95.24,95.33,95.43,
United States,70.00,70.38,70.76,71.13,71.51,71.88,72.25,72.61,72.97,73.33,73.60,73.61,73.62,73.63,73.64,73.65,73.66,73.67,73.68,73.69,73.74,73.89,74.04,74.19,74.34,74.49,74.64,74.79,74.94,75.09,75.30,75.70,76.10,76.49,76.88,77.26,77.64,78.01,78.38,78.74,79.06,79.23,79.41,79.58,79.76,79.93,80.10,80.27,80.44,80.61,80.77,80.94,81.12,81.30,81.48,81.67,81.86,82.06,82.26,82.46,
Uzbekistan,33.98,34.24,34.50,34.76,35.03,35.29,35.55,35.82,36.09,36.35,36.71,37.18,37.66,38.13,38.61,39.09,39.57,40.05,40.54,40.79,40.78,40.77,40.76,40.75,40.73,40.72,40.71,40.70,40.69,40.90,41.37,41.84,42.31,42.78,43.26,43.73,44.21,44.69,45.16,45.64,46.13,46.61,47.09,47.57,48.05,48.54,49.02,49.51,49.99,50.47,50.96,51.15,51.05,50.95,50.85,50.75,50.65,50.55,50.48,50.43,
St. Vincent and the Grenadines,25.94,26.39,26.85,27.31,27.78,28.25,28.73,29.21,29.70,30.19,30.68,31.18,31.69,32.20,32.71,33.23,33.75,34.27,34.80,35.33,35.87,36.41,36.95,37.50,38.05,38.60,39.16,39.72,40.28,40.84,41.41,41.95,42.31,42.66,43.02,43.38,43.74,44.10,44.46,44.82,45.19,45.55,45.91,46.28,46.66,47.03,47.41,47.79,48.18,48.57,48.96,49.36,49.75,50.15,50.56,50.96,51.37,51.78,52.20,52.61,
"Venezuela, RB",61.61,62.88,63.93,64.98,66.01,67.02,68.02,69.01,69.97,70.92,71.85,72.76,73.58,74.33,75.06,75.79,76.50,77.19,77.87,78.53,79.19,79.82,80.38,80.91,81.42,81.93,82.42,82.90,83.37,83.83,84.28,84.66,85.01,85.35,85.69,86.01,86.34,86.65,86.96,87.26,87.56,87.85,87.88,87.90,87.93,87.95,87.98,88.01,88.03,88.06,88.08,88.11,88.12,88.13,88.14,88.15,88.17,88.18,88.21,88.24,
British Virgin Islands,12.23,12.62,13.02,13.43,13.85,14.29,14.73,15.19,15.66,16.14,16.64,17.17,17.73,18.29,18.88,19.47,20.08,20.70,21.34,21.99,22.74,24.04,25.39,26.79,28.24,29.73,31.27,32.85,34.47,36.12,37.81,39.33,39.60,39.87,40.14,40.41,40.68,40.96,41.23,41.50,41.77,42.05,42.33,42.62,42.91,43.21,43.52,43.83,44.15,44.48,44.81,45.15,45.50,45.86,46.22,46.58,46.96,47.34,47.72,48.12,
Virgin Islands (U.S.),56.48,57.86,59.24,60.60,61.95,63.28,64.59,65.87,67.14,68.38,69.59,70.78,71.94,73.07,74.17,75.25,76.29,77.30,78.28,79.23,80.15,81.03,81.89,82.72,83.51,84.28,85.02,85.73,86.41,87.06,87.69,88.29,88.86,89.41,89.93,90.44,90.92,91.37,91.81,92.23,92.59,92.81,93.04,93.25,93.46,93.66,93.86,94.05,94.24,94.42,94.59,94.76,94.92,95.07,95.21,95.35,95.48,95.60,95.72,95.83,
Vietnam,14.70,15.03,15.37,15.71,16.06,16.42,16.78,17.15,17.53,17.91,18.30,18.40,18.49,18.59,18.69,18.78,18.88,18.98,19.08,19.18,19.25,19.31,19.37,19.44,19.50,19.56,19.63,19.69,19.75,19.89,20.26,20.63,21.01,21.39,21.77,22.17,22.56,22.97,23.37,23.82,24.37,24.94,25.51,26.09,26.68,27.28,27.89,28.50,29.13,29.76,30.42,31.08,31.75,32.43,33.12,33.81,34.51,35.21,35.92,36.63,
Vanuatu,10.40,10.58,10.77,10.95,11.14,11.33,11.52,11.72,11.92,12.12,12.33,12.53,12.74,12.96,13.18,13.40,13.62,13.85,14.07,14.37,14.74,15.12,15.51,15.91,16.31,16.72,17.14,17.57,18.01,18.44,18.72,19.00,19.29,19.57,19.87,20.16,20.46,20.77,21.07,21.38,21.67,21.95,22.24,22.52,22.81,23.10,23.39,23.69,23.99,24.29,24.46,24.56,24.66,24.76,24.86,24.96,25.06,25.16,25.27,25.39,
World,33.61,34.12,34.57,34.95,35.35,35.57,35.76,35.97,36.17,36.37,36.56,36.75,36.96,37.19,37.46,37.69,37.94,38.20,38.53,38.94,39.35,39.77,40.15,40.50,40.86,41.22,41.58,41.95,42.31,42.67,43.03,43.40,43.74,44.10,44.47,44.84,45.20,45.57,45.94,46.31,46.69,47.14,47.64,48.14,48.64,49.15,49.65,50.14,50.65,51.15,51.65,52.10,52.56,53.01,53.46,53.91,54.37,54.82,55.27,55.71,
Samoa,18.93,18.99,19.06,19.14,19.22,19.30,19.38,19.59,19.84,20.10,20.35,20.61,20.75,20.83,20.91,20.99,21.07,21.11,21.13,21.15,21.17,21.19,21.20,21.20,21.20,21.20,21.20,21.20,21.20,21.20,21.20,21.20,21.26,21.35,21.44,21.53,21.62,21.71,21.80,21.89,21.98,22.07,21.94,21.70,21.46,21.22,20.98,20.75,20.52,20.30,20.08,19.86,19.62,19.39,19.15,18.91,18.68,18.45,18.24,18.06,
Kosovo,,,,,,,,,,,,,,,,,,,,,,,,,,,,,,,,,,,,,,,,,,,,,,,,,,,,,,,,,,,,,
"Yemen, Rep.",9.10,9.46,9.83,10.22,10.61,11.03,11.45,11.89,12.35,12.82,13.30,13.60,13.90,14.21,14.52,14.84,15.17,15.50,15.84,16.18,16.53,16.89,17.25,17.62,17.99,18.37,18.81,19.32,19.85,20.39,20.93,21.49,22.06,22.64,23.23,23.76,24.25,24.74,25.24,25.75,26.27,26.79,27.32,27.85,28.39,28.94,29.49,30.05,30.62,31.19,31.78,32.36,32.96,33.56,34.17,34.78,35.39,36.02,36.64,37.27,
South Africa,46.62,46.79,46.91,47.02,47.13,47.25,47.36,47.48,47.59,47.70,47.81,47.87,47.93,47.99,48.05,48.11,48.17,48.23,48.29,48.35,48.43,48.59,48.76,48.92,49.09,49.37,49.91,50.44,50.97,51.51,52.04,52.55,53.04,53.52,54.00,54.49,54.97,55.45,55.93,56.41,56.89,57.37,57.90,58.45,58.99,59.54,60.08,60.62,61.15,61.69,62.22,62.75,63.27,63.79,64.31,64.83,65.34,65.85,66.36,66.86,
Zambia,18.15,18.95,19.79,20.71,22.02,23.37,24.79,26.26,27.79,29.37,30.35,31.24,32.15,33.06,33.99,34.93,35.89,36.86,37.83,38.82,39.82,39.85,39.81,39.76,39.71,39.66,39.61,39.56,39.51,39.46,39.41,38.99,38.51,38.04,37.57,37.10,36.64,36.18,35.72,35.26,34.80,35.00,35.48,35.95,36.43,36.91,37.40,37.88,38.37,38.86,39.36,39.85,40.35,40.87,41.38,41.91,42.44,42.98,43.52,44.07,
Zimbabwe,12.61,12.82,13.08,13.58,14.09,14.62,15.17,15.73,16.31,16.88,17.36,17.86,18.36,18.87,19.40,19.87,20.36,20.85,21.35,21.85,22.37,22.90,23.43,24.07,24.74,25.41,26.11,26.81,27.52,28.25,28.99,29.74,30.50,30.94,31.34,31.73,32.13,32.53,32.94,33.35,33.76,34.17,34.59,34.48,34.29,34.11,33.93,33.74,33.56,33.38,33.20,33.02,32.83,32.65,32.50,32.39,32.30,32.24,32.21,32.21,
