Country,2016,2015,2014,2013,2012,2011,2010,2009,2008,2007,2006,2005,2004,2003,2002,2001,2000,1999,1998,1997,1996,1995,1994,1993,1992,1991,1990,1989,1988,1987,1986,1985,1984,1983,1982,1981,1980,1979,1978,1977
Afghanistan,5.5,5.2,4.9,4.7,4.4,4.2,4,3.8,3.6,3.4,3.2,3,2.9,2.7,2.6,2.4,2.3,2.2,2.1,1.9,1.8,1.7,1.6,1.5,1.5,1.4,1.3,1.2,1.2,1.1,1,1,0.9,0.8,0.8,0.7,0.7,0.6,0.6,0.6
Albania,21.7,21.1,20.5,19.9,19.3,18.8,18.2,17.6,17,16.5,16,15.4,14.9,14.5,14,13.6,13.2,12.8,12.4,12,11.7,11.3,11,10.7,10.4,10.1,9.8,9.5,9.3,9,8.7,8.5,8.3,8,7.8,7.6,7.4,7.2,7,6.8
Algeria,27.4,26.7,26,25.3,24.7,24,23.3,22.7,22,21.4,20.8,20.2,19.6,19.1,18.5,17.9,17.4,16.8,16.3,15.8,15.3,14.8,14.3,13.8,13.3,12.8,12.4,11.9,11.5,11,10.6,10.2,9.7,9.4,9,8.6,8.3,8,7.7,7.4
Andorra,25.6,25.4,25.2,25,24.8,24.6,24.4,24.2,24,23.8,23.6,23.4,23.2,22.9,22.7,22.5,22.2,22,21.7,21.5,21.2,21,20.7,20.4,20.2,19.9,19.6,19.3,19,18.6,18.2,17.8,17.4,16.9,16.5,16,15.5,15,14.5,14
Angola,8.2,7.9,7.5,7.1,6.8,6.5,6.2,5.9,5.6,5.3,5,4.8,4.5,4.3,4.1,3.8,3.6,3.4,3.2,3.1,2.9,2.7,2.6,2.4,2.3,2.2,2,1.9,1.8,1.7,1.6,1.5,1.4,1.3,1.3,1.2,1.1,1.1,1,0.9
Antigua and Barbuda,18.9,18.4,18,17.5,17.1,16.7,16.2,15.9,15.5,15.1,14.7,14.4,14,13.7,13.3,13,12.7,12.3,12,11.7,11.3,11,10.7,10.4,10.1,9.8,9.4,9.1,8.8,8.5,8.2,7.9,7.6,7.4,7.1,6.9,6.6,6.4,6.2,6
Argentina,28.3,27.8,27.3,26.8,26.3,25.8,25.3,24.8,24.4,23.9,23.4,23,22.5,22.1,21.6,21.2,20.7,20.3,19.9,19.5,19.1,18.6,18.2,17.8,17.4,17,16.6,16.2,15.8,15.4,15,14.6,14.2,13.8,13.5,13.1,12.8,12.5,12.1,11.8
Armenia,20.2,19.7,19.2,18.8,18.3,17.9,17.5,17.1,16.7,16.4,16,15.7,15.4,15,14.7,14.4,14.2,13.9,13.6,13.3,13.1,12.8,12.5,12.3,12,11.7,11.4,11.2,10.9,10.6,10.3,10.1,9.8,9.5,9.3,9,8.7,8.4,8.1,7.9
Australia,29,28.4,27.9,27.3,26.7,26.2,25.6,25.1,24.6,24,23.5,22.9,22.4,21.8,21.3,20.7,20.2,19.7,19.1,18.6,18.1,17.6,17.1,16.6,16.2,15.7,15.3,14.9,14.5,14.2,13.8,13.5,13.1,12.8,12.5,12.2,11.9,11.6,11.3,11
Austria,20.1,19.7,19.2,18.8,18.4,18,17.6,17.3,16.9,16.5,16.1,15.8,15.4,15,14.7,14.3,14,13.6,13.3,12.9,12.6,12.3,11.9,11.6,11.3,11,10.7,10.4,10.1,9.8,9.6,9.3,9,8.8,8.6,8.3,8.1,7.9,7.7,7.5
Azerbaijan,19.9,19.3,18.8,18.2,17.7,17.2,16.6,16.2,15.7,15.2,14.8,14.3,13.9,13.5,13.2,12.8,12.5,12.2,11.9,11.7,11.4,11.1,10.9,10.6,10.4,10.1,9.8,9.6,9.3,9.1,8.8,8.6,8.4,8.1,7.9,7.7,7.4,7.2,7,6.8
Bahamas,31.6,31,30.5,30,29.5,29,28.5,28.1,27.6,27.1,26.6,26.2,25.7,25.3,24.8,24.3,23.9,23.4,22.9,22.4,21.9,21.4,21,20.5,20,19.5,19,18.5,18,17.5,17,16.5,16,15.5,15,14.5,14.1,13.6,13.2,12.8
Bahrain,29.8,29.3,28.8,28.2,27.6,27.1,26.6,26.2,25.8,25.4,25,24.7,24.4,24,23.6,23.3,22.9,22.5,22.1,21.7,21.3,21,20.6,20.2,19.8,19.4,19.1,18.7,18.4,18,17.7,17.3,16.9,16.5,16.1,15.7,15.4,15.1,14.8,14.6
Bangladesh,3.6,3.4,3.2,3,2.8,2.6,2.5,2.3,2.2,2,1.9,1.8,1.7,1.6,1.5,1.4,1.3,1.2,1.2,1.1,1,1,0.9,0.8,0.8,0.7,0.7,0.6,0.6,0.6,0.5,0.5,0.4,0.4,0.4,0.4,0.3,0.3,0.3,0.3
Barbados,23.1,22.5,22,21.4,20.9,20.4,19.8,19.4,18.9,18.4,17.9,17.4,17,16.5,16,15.6,15.1,14.7,14.2,13.8,13.4,13.1,12.7,12.4,12.1,11.9,11.6,11.4,11.2,11,10.8,10.5,10.3,10.1,9.8,9.6,9.3,8.9,8.6,8.3
Belarus,24.5,24.1,23.7,23.4,23,22.7,22.3,21.9,21.6,21.2,20.9,20.5,20.2,19.8,19.5,19.1,18.8,18.5,18.2,17.9,17.5,17.2,16.9,16.6,16.3,15.9,15.6,15.2,14.8,14.4,14.1,13.7,13.3,12.9,12.5,12.1,11.7,11.3,11,10.6
Belgium,22.1,21.7,21.4,21,20.7,20.4,20.1,19.8,19.5,19.2,18.9,18.5,18.2,17.9,17.6,17.3,17,16.7,16.4,16.1,15.8,15.5,15.2,14.9,14.6,14.3,14,13.8,13.5,13.2,13,12.7,12.5,12.3,12,11.8,11.6,11.4,11.1,10.9
Belize,24.1,23.6,23,22.5,22,21.5,21,20.5,20,19.6,19.1,18.7,18.2,17.8,17.3,16.9,16.4,15.9,15.5,15,14.6,14.2,13.8,13.4,13.1,12.7,12.4,12.1,11.8,11.5,11.2,11,10.7,10.4,10.2,9.9,9.7,9.5,9.3,9.2
Benin,9.6,9.3,8.9,8.6,8.2,7.9,7.6,7.3,7,6.7,6.5,6.2,6,5.7,5.5,5.2,5,4.8,4.6,4.4,4.2,4,3.8,3.6,3.4,3.2,3.1,2.9,2.7,2.6,2.4,2.3,2.1,2,1.8,1.7,1.6,1.5,1.4,1.3
Bhutan,6.4,6.1,5.7,5.5,5.2,4.9,4.6,4.4,4.1,3.9,3.6,3.4,3.2,3,2.8,2.6,2.4,2.3,2.1,2,1.8,1.7,1.6,1.5,1.4,1.3,1.2,1.1,1,1,0.9,0.8,0.8,0.7,0.7,0.6,0.6,0.5,0.5,0.5
Bolivia (Plurinational State of),20.2,19.7,19.3,18.8,18.3,17.9,17.4,17,16.5,16.1,15.7,15.2,14.8,14.4,14,13.6,13.2,12.8,12.4,12,11.6,11.2,10.8,10.4,10,9.6,9.2,8.8,8.5,8.1,7.7,7.4,7.1,6.7,6.4,6.2,5.9,5.6,5.4,5.2
Bosnia and Herzegovina,17.9,17.5,17.1,16.7,16.3,16,15.6,15.3,14.9,14.6,14.3,14,13.7,13.4,13.1,12.8,12.6,12.3,12,11.8,11.6,11.3,11,10.8,10.5,10.3,10,9.7,9.5,9.2,8.9,8.7,8.4,8.1,7.8,7.6,7.3,7,6.7,6.4
Botswana,18.9,18.6,18.2,17.9,17.5,17.2,16.9,16.5,16.2,15.8,15.5,15.1,14.8,14.4,14,13.6,13.1,12.7,12.2,11.8,11.3,10.7,10.2,9.6,9,8.4,7.8,7.2,6.7,6.1,5.7,5.2,4.9,4.5,4.2,3.9,3.7,3.5,3.3,3.1
Brazil,22.1,21.6,21.1,20.6,20.1,19.6,19.2,18.7,18.2,17.8,17.3,16.8,16.4,15.9,15.5,15,14.5,14.1,13.6,13.1,12.7,12.2,11.8,11.4,11,10.6,10.2,9.8,9.4,9,8.6,8.3,7.9,7.6,7.2,6.9,6.6,6.3,6,5.7
Brunei Darussalam,14.1,13.6,13.1,12.6,12.1,11.6,11.1,10.7,10.2,9.8,9.4,9,8.6,8.2,7.9,7.5,7.2,6.8,6.5,6.2,5.9,5.6,5.3,5.1,4.8,4.6,4.4,4.2,4,3.8,3.6,3.4,3.3,3.2,3.1,3,2.9,2.8,2.8,2.7
Bulgaria,25,24.5,24.1,23.7,23.2,22.8,22.4,22,21.6,21.2,20.8,20.4,20,19.6,19.3,18.9,18.6,18.2,17.9,17.6,17.3,17,16.7,16.3,16,15.7,15.4,15.1,14.8,14.5,14.2,13.8,13.5,13.1,12.8,12.4,12,11.7,11.3,10.9
Burkina Faso,5.6,5.3,5,4.7,4.5,4.2,4,3.7,3.5,3.3,3.1,2.9,2.8,2.6,2.4,2.3,2.1,2,1.9,1.8,1.7,1.6,1.5,1.4,1.3,1.3,1.2,1.1,1,1,0.9,0.8,0.8,0.7,0.7,0.6,0.6,0.6,0.5,0.5
Burundi,5.4,5.1,4.9,4.6,4.4,4.2,4,3.8,3.6,3.4,3.2,3.1,2.9,2.8,2.6,2.5,2.4,2.3,2.2,2.1,2,1.9,1.8,1.7,1.6,1.5,1.4,1.3,1.2,1.2,1.1,1.1,1,0.9,0.9,0.8,0.8,0.7,0.7,0.7
Cabo Verde,11.8,11.4,11,10.7,10.3,9.9,9.6,9.2,8.9,8.6,8.2,7.9,7.6,7.3,6.9,6.6,6.3,6,5.7,5.5,5.2,4.9,4.6,4.3,4,3.7,3.4,3.1,2.8,2.6,2.4,2.2,2,1.9,1.7,1.6,1.5,1.4,1.3,1.3
Cambodia,3.9,3.7,3.5,3.3,3.1,2.9,2.7,2.6,2.4,2.3,2.2,2,1.9,1.8,1.7,1.6,1.5,1.4,1.3,1.2,1.1,1.1,1,0.9,0.9,0.8,0.8,0.7,0.7,0.6,0.6,0.5,0.5,0.4,0.4,0.4,0.3,0.3,0.3,0.3
Cameroon,11.4,11,10.6,10.2,9.8,9.4,9,8.7,8.3,8,7.7,7.3,7,6.7,6.4,6.1,5.8,5.6,5.3,5.1,4.8,4.6,4.4,4.2,3.9,3.7,3.5,3.4,3.2,3,2.8,2.7,2.5,2.3,2.2,2,1.9,1.8,1.7,1.5
Canada,29.4,28.8,28.3,27.7,27.1,26.6,26,25.5,24.9,24.4,23.8,23.3,22.7,22.2,21.6,21,20.5,19.9,19.3,18.7,18.2,17.6,17.1,16.6,16.1,15.6,15.2,14.7,14.3,13.9,13.5,13.1,12.7,12.3,11.9,11.6,11.3,11,10.7,10.4
Central African Republic,7.5,7.2,6.9,6.6,6.4,6.1,5.9,5.6,5.4,5.2,5,4.8,4.6,4.4,4.2,4.1,3.9,3.8,3.6,3.5,3.3,3.2,3.1,2.9,2.8,2.7,2.6,2.4,2.3,2.2,2.1,2,1.9,1.8,1.8,1.7,1.6,1.5,1.4,1.3
Chad,6.1,5.8,5.6,5.3,5.1,4.9,4.7,4.5,4.3,4.1,3.9,3.7,3.6,3.4,3.2,3.1,2.9,2.8,2.7,2.5,2.4,2.3,2.2,2.1,2,1.9,1.8,1.7,1.6,1.5,1.4,1.4,1.3,1.2,1.2,1.1,1,0.9,0.9,0.8
Chile,28,27.5,27,26.5,26.1,25.6,25.1,24.7,24.2,23.7,23.3,22.8,22.4,21.9,21.5,21,20.6,20.2,19.7,19.3,18.9,18.5,18.1,17.7,17.3,17,16.6,16.3,15.9,15.6,15.2,14.8,14.5,14.1,13.7,13.4,13,12.6,12.3,11.9
China,6.2,5.9,5.5,5.2,5,4.7,4.4,4.1,3.9,3.7,3.4,3.2,3,2.8,2.7,2.5,2.4,2.2,2.1,1.9,1.8,1.7,1.6,1.5,1.4,1.3,1.2,1.2,1.1,1,0.9,0.9,0.8,0.8,0.7,0.7,0.6,0.6,0.6,0.5
Colombia,22.3,21.9,21.4,20.9,20.4,20,19.5,19.1,18.7,18.2,17.8,17.4,17,16.6,16.2,15.7,15.4,15,14.6,14.2,13.8,13.4,13,12.6,12.3,11.9,11.5,11.1,10.8,10.4,10.1,9.7,9.3,9,8.7,8.4,8,7.7,7.4,7.1
Comoros,7.8,7.5,7.2,6.9,6.7,6.4,6.2,5.9,5.7,5.5,5.3,5.1,4.9,4.7,4.5,4.3,4.1,4,3.8,3.7,3.5,3.4,3.2,3.1,2.9,2.8,2.7,2.5,2.4,2.3,2.2,2.1,1.9,1.8,1.7,1.7,1.6,1.5,1.4,1.3
Congo,9.6,9.2,8.9,8.6,8.3,8,7.7,7.4,7.1,6.8,6.6,6.3,6.1,5.8,5.6,5.4,5.2,5,4.8,4.6,4.4,4.2,4,3.9,3.7,3.6,3.4,3.3,3.1,3,2.8,2.7,2.5,2.4,2.3,2.1,2,1.9,1.8,1.7
Cook Islands,55.9,55.4,54.9,54.3,53.8,53.2,52.6,52,51.3,50.6,49.9,49.1,48.3,47.5,46.6,45.8,44.9,44.1,43.3,42.5,41.8,41,40.4,39.7,39,38.3,37.5,36.8,36.1,35.3,34.6,33.9,33.3,32.6,32,31.4,30.8,30.3,29.7,29.2
Costa Rica,25.7,25,24.3,23.6,22.9,22.2,21.4,20.7,20,19.3,18.6,18,17.3,16.7,16,15.4,14.8,14.3,13.7,13.2,12.7,12.2,11.7,11.2,10.7,10.2,9.8,9.4,9,8.6,8.2,7.9,7.6,7.3,7,6.7,6.4,6.2,5.9,5.7
Côte d'Ivoire,10.3,9.8,9.4,9,8.7,8.3,7.9,7.6,7.2,6.9,6.6,6.3,6,5.7,5.5,5.2,5,4.7,4.5,4.3,4.1,3.9,3.8,3.6,3.4,3.3,3.1,3,2.9,2.8,2.6,2.5,2.4,2.3,2.2,2,1.9,1.8,1.7,1.6
Croatia,24.4,23.9,23.4,22.9,22.5,22,21.6,21.1,20.7,20.2,19.8,19.4,19,18.6,18.3,17.9,17.5,17.2,16.9,16.5,16.2,15.9,15.6,15.2,14.9,14.6,14.3,14,13.7,13.4,13.1,12.8,12.5,12.1,11.8,11.4,11,10.6,10.3,9.9
Cuba,24.6,24.1,23.6,23.1,22.6,22.2,21.7,21.2,20.8,20.3,19.9,19.4,19,18.6,18.2,17.7,17.3,16.9,16.5,16.1,15.7,15.3,15,14.6,14.2,13.8,13.4,13,12.6,12.2,11.8,11.4,11,10.6,10.2,9.9,9.5,9.1,8.7,8.4
Cyprus,21.8,21.4,21.1,20.7,20.4,20.1,19.8,19.4,19.1,18.8,18.5,18.2,17.8,17.5,17.1,16.8,16.4,16.1,15.7,15.3,15,14.6,14.2,13.8,13.4,13,12.6,12.2,11.8,11.3,10.9,10.4,9.8,9.3,8.8,8.2,7.7,7.2,6.7,6.3
Czechia,26,25.6,25.2,24.9,24.5,24.2,23.9,23.6,23.2,22.9,22.6,22.3,22,21.7,21.5,21.2,21,20.7,20.5,20.3,20,19.8,19.6,19.4,19.2,19,18.8,18.6,18.4,18.1,17.9,17.6,17.4,17.1,16.7,16.3,15.9,15.5,15,14.6
Democratic People's Republic of Korea,6.8,6.5,6.3,6.1,5.9,5.7,5.5,5.4,5.2,5,4.9,4.7,4.6,4.4,4.3,4.2,4,3.9,3.8,3.7,3.6,3.4,3.3,3.2,3.1,3,2.9,2.8,2.7,2.7,2.6,2.5,2.4,2.3,2.3,2.2,2.1,2.1,2,1.9
Democratic Republic of the Congo,6.7,6.4,6.1,5.9,5.6,5.3,5.1,4.8,4.6,4.4,4.2,4,3.8,3.6,3.4,3.3,3.1,2.9,2.8,2.7,2.5,2.4,2.3,2.2,2,1.9,1.8,1.8,1.7,1.6,1.5,1.4,1.4,1.3,1.2,1.2,1.1,1.1,1,1
Denmark,19.7,19.3,18.9,18.5,18.1,17.8,17.4,17.1,16.7,16.4,16,15.7,15.3,15,14.7,14.4,14,13.7,13.4,13.1,12.8,12.5,12.2,11.9,11.6,11.3,11,10.7,10.4,10.2,9.9,9.6,9.4,9.1,8.9,8.6,8.4,8.1,7.9,7.6
Djibouti,13.5,13.2,12.9,12.6,12.3,12,11.8,11.5,11.2,11,10.7,10.5,10.2,10,9.8,9.6,9.3,9.1,8.9,8.7,8.5,8.3,8.1,7.9,7.8,7.6,7.4,7.2,6.9,6.7,6.5,6.3,6.1,5.8,5.6,5.4,5.2,4.9,4.7,4.5
Dominica,27.9,27.3,26.8,26.2,25.6,25,24.5,23.9,23.4,22.9,22.3,21.8,21.3,20.8,20.3,19.9,19.4,18.9,18.5,18,17.5,17,16.4,15.9,15.3,14.6,14,13.3,12.6,11.9,11.3,10.7,10.2,9.6,9.2,8.7,8.3,7.9,7.5,7.2
Dominican Republic,27.6,26.9,26.1,25.3,24.5,23.8,23,22.2,21.5,20.7,20,19.3,18.6,17.9,17.2,16.6,16,15.5,14.9,14.4,13.9,13.4,13,12.5,12.1,11.7,11.3,11,10.6,10.2,9.9,9.5,9.1,8.7,8.3,8,7.6,7.2,6.8,6.4
Ecuador,19.9,19.4,19,18.5,18.1,17.6,17.2,16.8,16.4,16,15.6,15.2,14.8,14.4,14,13.6,13.2,12.8,12.4,12,11.7,11.3,10.9,10.6,10.2,9.8,9.5,9.1,8.7,8.4,8.1,7.7,7.4,7.1,6.8,6.5,6.2,5.9,5.7,5.4
Egypt,32,31.3,30.6,30,29.3,28.6,28,27.4,26.7,26.1,25.5,24.9,24.4,23.8,23.3,22.7,22.2,21.7,21.2,20.7,20.3,19.8,19.4,19,18.5,18.1,17.7,17.3,16.9,16.5,16.1,15.7,15.3,14.9,14.6,14.2,13.8,13.4,13.1,12.7
El Salvador,24.6,24,23.4,22.8,22.2,21.7,21.1,20.6,20,19.5,18.9,18.4,17.8,17.3,16.7,16.1,15.6,15,14.4,13.9,13.3,12.8,12.3,11.8,11.3,10.9,10.5,10.1,9.7,9.3,9,8.6,8.3,8,7.7,7.4,7.1,6.8,6.5,6.2
Equatorial Guinea,8,7.7,7.4,7.1,6.8,6.5,6.3,6,5.8,5.6,5.4,5.2,5,4.8,4.6,4.5,4.3,4.1,3.9,3.8,3.6,3.4,3.2,3,2.9,2.7,2.5,2.4,2.3,2.1,2,1.9,1.8,1.8,1.7,1.7,1.6,1.6,1.5,1.4
Eritrea,5,4.8,4.5,4.3,4.1,3.9,3.7,3.5,3.4,3.2,3,2.9,2.7,2.6,2.5,2.4,2.3,2.1,2,1.9,1.9,1.8,1.7,1.6,1.5,1.4,1.4,1.3,1.2,1.2,1.1,1,1,0.9,0.9,0.9,0.8,0.8,0.7,0.7
Estonia,21.2,20.9,20.7,20.4,20.1,19.9,19.6,19.4,19.1,18.9,18.6,18.4,18.2,18,17.8,17.6,17.4,17.2,17,16.9,16.7,16.5,16.4,16.2,16.1,15.9,15.7,15.5,15.4,15.2,15,14.8,14.6,14.4,14.2,14,13.8,13.6,13.4,13.1
Eswatini,16.5,16.1,15.7,15.3,14.9,14.5,14.1,13.8,13.4,13.1,12.7,12.4,12,11.7,11.4,11.1,10.7,10.4,10.1,9.8,9.5,9.2,9,8.7,8.5,8.3,8,7.7,7.4,7.1,6.7,6.4,6.1,5.8,5.5,5.2,4.9,4.6,4.4,4.1
Ethiopia,4.5,4.3,4,3.8,3.6,3.4,3.3,3.1,2.9,2.8,2.7,2.5,2.4,2.3,2.2,2,1.9,1.8,1.7,1.7,1.6,1.5,1.4,1.3,1.3,1.2,1.1,1.1,1,1,0.9,0.9,0.8,0.8,0.7,0.7,0.7,0.6,0.6,0.6
Fiji,30.2,29.5,28.9,28.3,27.7,27.1,26.5,26,25.4,24.8,24.3,23.7,23.2,22.6,22.1,21.5,21,20.4,19.9,19.3,18.7,18.1,17.5,16.9,16.4,15.8,15.3,14.8,14.3,13.9,13.4,13,12.6,12.3,11.9,11.5,11.2,10.8,10.5,10.1
Finland,22.2,21.8,21.4,21.1,20.7,20.3,20,19.6,19.3,18.9,18.5,18.2,17.8,17.5,17.1,16.7,16.4,16,15.6,15.2,14.8,14.4,14,13.6,13.2,12.8,12.4,12,11.5,11.1,10.7,10.3,9.9,9.6,9.2,8.8,8.5,8.2,7.8,7.5
France,21.6,21.2,20.8,20.4,20.1,19.7,19.3,19,18.6,18.3,17.9,17.6,17.2,16.9,16.5,16.2,15.8,15.5,15.1,14.8,14.5,14.1,13.8,13.5,13.2,12.9,12.6,12.3,12,11.8,11.5,11.2,11,10.7,10.5,10.3,10,9.8,9.5,9.3
Gabon,15,14.6,14.3,13.9,13.5,13.2,12.8,12.5,12.1,11.8,11.4,11.1,10.7,10.3,10,9.6,9.3,8.9,8.6,8.2,7.9,7.5,7.2,6.8,6.5,6.1,5.8,5.5,5.2,4.9,4.6,4.3,4,3.7,3.4,3.2,2.9,2.6,2.4,2.2
Gambia,10.3,9.9,9.5,9.1,8.7,8.4,8,7.6,7.3,6.9,6.6,6.3,5.9,5.6,5.3,5,4.8,4.5,4.2,4,3.8,3.5,3.3,3.1,2.9,2.7,2.6,2.4,2.2,2.1,2,1.8,1.7,1.6,1.5,1.4,1.3,1.2,1.2,1.1
Georgia,21.7,21.1,20.5,19.9,19.3,18.7,18.2,17.6,17.1,16.6,16.1,15.7,15.3,14.9,14.5,14.1,13.7,13.4,13.1,12.8,12.5,12.2,11.9,11.6,11.3,11,10.7,10.4,10.1,9.8,9.5,9.2,8.9,8.6,8.3,8,7.8,7.5,7.2,7
Germany,22.3,21.9,21.5,21.1,20.7,20.3,19.9,19.5,19.2,18.8,18.4,18,17.7,17.3,17,16.6,16.3,15.9,15.6,15.2,14.9,14.5,14.2,13.8,13.5,13.2,12.8,12.5,12.2,11.9,11.6,11.3,11.1,10.8,10.6,10.3,10.1,9.8,9.6,9.4
Ghana,10.9,10.5,10.1,9.8,9.4,9.1,8.7,8.4,8,7.7,7.4,7,6.7,6.4,6.1,5.8,5.5,5.2,4.9,4.7,4.4,4.2,4,3.8,3.6,3.4,3.2,3,2.9,2.7,2.6,2.5,2.3,2.2,2.1,2,1.9,1.8,1.8,1.7
Greece,24.9,24.4,24,23.6,23.2,22.8,22.4,22,21.6,21.2,20.8,20.4,20,19.6,19.3,18.9,18.5,18.2,17.8,17.4,17.1,16.7,16.4,16,15.6,15.3,14.9,14.6,14.2,13.9,13.6,13.2,12.9,12.5,12.2,11.8,11.5,11.2,10.8,10.5
Grenada,21.3,20.7,20.2,19.6,19.1,18.6,18.1,17.6,17.1,16.7,16.2,15.7,15.3,14.8,14.4,13.9,13.5,13,12.6,12.1,11.7,11.3,10.9,10.6,10.2,9.8,9.5,9.2,9,8.7,8.5,8.2,7.9,7.7,7.4,7.2,6.9,6.7,6.5,6.3
Guatemala,21.2,20.6,20,19.5,18.9,18.4,17.8,17.3,16.8,16.3,15.8,15.3,14.8,14.3,13.9,13.4,12.9,12.5,12.1,11.6,11.2,10.8,10.4,10,9.6,9.3,8.9,8.6,8.2,7.9,7.6,7.3,7.1,6.8,6.6,6.3,6.1,5.9,5.7,5.5
Guinea,7.7,7.4,7,6.7,6.4,6.2,5.9,5.6,5.4,5.2,4.9,4.7,4.5,4.3,4.1,3.9,3.7,3.5,3.4,3.2,3.1,2.9,2.8,2.6,2.5,2.4,2.3,2.2,2,1.9,1.8,1.7,1.6,1.5,1.4,1.3,1.2,1.2,1.1,1
Guinea-Bissau,9.5,9.1,8.7,8.3,7.9,7.6,7.2,6.9,6.6,6.2,5.9,5.6,5.3,5.1,4.8,4.5,4.3,4.1,3.8,3.6,3.4,3.2,3,2.8,2.6,2.5,2.3,2.1,2,1.8,1.7,1.6,1.5,1.4,1.3,1.2,1.2,1.1,1,1
Guyana,20.2,19.6,19,18.4,17.9,17.4,16.8,16.3,15.8,15.3,14.8,14.3,13.8,13.3,12.8,12.4,11.9,11.5,11.1,10.7,10.4,10,9.7,9.4,9.2,8.9,8.7,8.4,8.1,7.9,7.6,7.3,7.1,6.8,6.6,6.4,6.2,5.9,5.7,5.5
Haiti,22.7,21.8,21,20.2,19.4,18.6,17.7,16.9,16.2,15.4,14.7,13.9,13.3,12.6,12,11.5,10.9,10.5,10,9.5,9.1,8.6,8.2,7.8,7.4,7,6.6,6.2,5.9,5.6,5.3,5,4.8,4.5,4.3,4.1,3.9,3.8,3.6,3.5
Honduras,21.4,20.8,20.1,19.5,19,18.4,17.8,17.2,16.7,16.1,15.6,15,14.5,14,13.5,13.1,12.6,12.1,11.7,11.3,10.8,10.4,10,9.7,9.3,8.9,8.5,8.2,7.8,7.5,7.2,6.9,6.6,6.3,6,5.7,5.5,5.2,5,4.7
Hungary,26.4,25.9,25.4,25,24.5,24,23.5,23.1,22.6,22.2,21.7,21.3,20.9,20.5,20.2,19.9,19.6,19.3,19,18.7,18.5,18.2,18,17.7,17.4,17.2,16.9,16.6,16.3,16.1,15.8,15.5,15.2,14.9,14.6,14.4,14.1,13.8,13.5,13.2
Iceland,21.9,21.5,21.1,20.7,20.3,20,19.6,19.2,18.9,18.5,18.2,17.8,17.5,17.1,16.8,16.4,16,15.7,15.3,15,14.6,14.3,13.9,13.6,13.3,12.9,12.6,12.3,12,11.6,11.3,11,10.7,10.5,10.2,9.9,9.7,9.4,9.1,8.9
India,3.9,3.7,3.5,3.3,3.1,3,2.8,2.7,2.5,2.4,2.3,2.1,2,1.9,1.8,1.7,1.6,1.5,1.5,1.4,1.3,1.2,1.2,1.1,1,1,0.9,0.9,0.8,0.8,0.7,0.7,0.6,0.6,0.5,0.5,0.5,0.4,0.4,0.4
Indonesia,6.9,6.5,6.1,5.8,5.5,5.2,4.9,4.6,4.3,4.1,3.8,3.6,3.4,3.2,3,2.8,2.6,2.4,2.2,2.1,1.9,1.8,1.6,1.5,1.4,1.3,1.2,1.1,1.1,1,0.9,0.8,0.8,0.7,0.7,0.6,0.6,0.5,0.5,0.5
Iran (Islamic Republic of),25.8,25.2,24.6,24,23.3,22.7,22.1,21.5,20.9,20.3,19.7,19.1,18.6,18,17.6,17.1,16.6,16.1,15.6,15.1,14.6,14.1,13.6,13.2,12.7,12.3,11.9,11.5,11.1,10.7,10.4,10,9.6,9.2,8.8,8.5,8.1,7.8,7.4,7.1
Iraq,30.4,29.8,29.2,28.6,28,27.5,26.9,26.4,25.9,25.4,24.9,24.4,23.9,23.5,23,22.6,22.2,21.8,21.4,21.1,20.7,20.3,20,19.6,19.2,18.9,18.4,18,17.6,17.1,16.7,16.2,15.7,15.2,14.7,14.2,13.7,13.3,12.8,12.3
Ireland,25.3,24.7,24,23.4,22.8,22.2,21.6,21,20.4,19.8,19.3,18.7,18.1,17.6,17,16.5,16,15.4,14.9,14.4,13.9,13.5,13,12.5,12.1,11.7,11.3,10.9,10.5,10.1,9.8,9.4,9.1,8.7,8.4,8.1,7.8,7.5,7.2,6.9
Israel,26.1,25.8,25.5,25.1,24.8,24.5,24.2,23.9,23.6,23.3,23,22.7,22.4,22.1,21.7,21.4,21.1,20.8,20.4,20.1,19.8,19.5,19.1,18.8,18.4,18.1,17.8,17.5,17.1,16.8,16.5,16.2,15.9,15.5,15.2,14.9,14.6,14.2,13.9,13.6
Italy,19.9,19.6,19.3,19,18.7,18.3,18.1,17.8,17.5,17.2,16.9,16.5,16.2,15.9,15.6,15.3,15,14.7,14.4,14.1,13.8,13.5,13.2,12.9,12.7,12.4,12.1,11.9,11.6,11.3,11.1,10.8,10.6,10.3,10.1,9.8,9.6,9.3,9.1,8.9
Jamaica,24.7,24.1,23.5,22.9,22.3,21.7,21.1,20.6,20,19.5,18.9,18.4,17.9,17.4,16.9,16.4,15.9,15.4,15,14.6,14.1,13.7,13.3,12.9,12.6,12.2,11.8,11.5,11.1,10.7,10.4,10,9.7,9.3,9,8.7,8.4,8.1,7.8,7.5
Japan,4.3,4.1,3.9,3.8,3.6,3.5,3.3,3.2,3,2.9,2.7,2.6,2.5,2.4,2.2,2.2,2.1,2,1.9,1.9,1.8,1.8,1.7,1.7,1.6,1.6,1.5,1.5,1.5,1.4,1.4,1.4,1.3,1.3,1.3,1.2,1.2,1.2,1.2,1.1
Jordan,35.5,34.9,34.3,33.7,33.1,32.5,31.9,31.4,30.8,30.3,29.7,29.2,28.6,28.1,27.5,26.9,26.4,25.8,25.2,24.6,24,23.3,22.7,22,21.4,20.7,20.1,19.4,18.7,18,17.3,16.7,16.1,15.5,15,14.5,14.1,13.7,13.4,13
Kazakhstan,21,20.5,20,19.5,19,18.5,18,17.6,17.1,16.7,16.3,15.9,15.5,15.1,14.7,14.4,14,13.6,13.3,12.9,12.6,12.3,12,11.7,11.4,11.1,10.8,10.5,10.2,9.9,9.6,9.3,9,8.7,8.5,8.2,7.9,7.7,7.4,7.2
Kenya,7.1,6.8,6.5,6.2,5.9,5.6,5.4,5.1,4.9,4.6,4.4,4.2,4,3.8,3.6,3.4,3.2,3.1,2.9,2.8,2.6,2.5,2.4,2.2,2.1,2,1.9,1.8,1.7,1.6,1.6,1.5,1.4,1.3,1.3,1.2,1.1,1.1,1,0.9
Kiribati,46,45.3,44.7,44.1,43.5,42.8,42.2,41.6,40.9,40.3,39.6,38.9,38.2,37.4,36.6,35.8,34.9,33.9,33,32.1,31.2,30.4,29.7,28.9,28.2,27.4,26.7,26,25.3,24.6,23.9,23.2,22.6,21.9,21.2,20.5,19.8,19,18.2,17.5
Kuwait,37.9,37.4,36.8,36.2,35.6,35.1,34.6,34,33.5,33,32.5,32,31.5,31,30.5,30.1,29.6,29.1,28.7,28.2,27.8,27.4,27.2,27,26.9,26.7,26.4,26,25.5,24.9,24.3,23.6,23,22.4,21.9,21.3,20.8,20.3,19.8,19.4
Kyrgyzstan,16.6,16,15.5,14.9,14.4,13.9,13.4,13,12.5,12.1,11.7,11.3,10.9,10.6,10.2,9.9,9.6,9.4,9.1,8.8,8.6,8.3,8.1,7.9,7.7,7.4,7.2,7,6.8,6.6,6.4,6.2,6,5.9,5.7,5.5,5.3,5.2,5,4.8
Lao People's Democratic Republic,5.3,5,4.7,4.4,4.1,3.8,3.5,3.3,3.1,2.9,2.7,2.5,2.3,2.1,2,1.8,1.7,1.6,1.5,1.4,1.3,1.2,1.1,1,1,0.9,0.8,0.8,0.7,0.7,0.7,0.6,0.6,0.5,0.5,0.5,0.4,0.4,0.4,0.4
Latvia,23.6,23.3,23,22.7,22.4,22.1,21.8,21.5,21.3,21,20.7,20.5,20.2,20,19.7,19.5,19.3,19.1,18.9,18.7,18.5,18.3,18.1,17.9,17.7,17.5,17.3,17.1,16.8,16.6,16.4,16.2,15.9,15.7,15.4,15.1,14.8,14.5,14.3,14
Lebanon,32,31.4,30.8,30.3,29.7,29.2,28.7,28.2,27.7,27.2,26.7,26.3,25.9,25.6,25.3,24.9,24.6,24.2,23.7,23.3,22.8,22.3,21.8,21.4,20.9,20.4,19.9,19.3,18.8,18.2,17.6,17,16.5,15.9,15.3,14.7,14.1,13.5,12.9,12.3
Lesotho,16.6,16.2,15.7,15.3,14.9,14.5,14.1,13.6,13.2,12.8,12.3,11.9,11.5,11.2,10.8,10.4,10,9.6,9.2,8.8,8.4,8.1,7.7,7.4,7.1,6.8,6.5,6.2,6,5.7,5.5,5.3,5.1,4.9,4.8,4.6,4.4,4.3,4.1,3.9
Liberia,9.9,9.6,9.2,8.9,8.6,8.3,8,7.7,7.4,7.1,6.8,6.6,6.3,6.1,5.9,5.7,5.6,5.5,5.4,5.3,5.2,5.1,5,4.9,4.7,4.4,4.1,3.8,3.4,3.1,2.9,2.7,2.5,2.3,2.1,2,1.9,1.7,1.6,1.5
Libya,32.5,31.9,31.3,30.6,30,29.4,28.8,28.2,27.6,27.1,26.5,26,25.5,25,24.5,24,23.5,23.1,22.6,22.2,21.7,21.3,20.9,20.5,20.1,19.7,19.2,18.8,18.3,17.8,17.3,16.8,16.2,15.6,15,14.4,13.8,13.2,12.5,11.8
Lithuania,26.3,26,25.6,25.3,25,24.7,24.4,24.1,23.8,23.5,23.2,22.9,22.6,22.4,22.1,21.9,21.6,21.4,21.2,20.9,20.7,20.5,20.2,20,19.7,19.4,19.1,18.7,18.4,18,17.6,17.3,16.9,16.4,16,15.6,15.1,14.7,14.2,13.8
Luxembourg,22.6,22.2,21.7,21.3,20.9,20.4,20,19.6,19.2,18.7,18.3,17.9,17.5,17.1,16.6,16.2,15.8,15.5,15.1,14.7,14.3,13.9,13.5,13.2,12.8,12.5,12.2,11.9,11.6,11.3,11,10.8,10.5,10.2,9.9,9.6,9.3,9,8.7,8.4
Madagascar,5.3,5.1,4.8,4.5,4.3,4.1,3.9,3.7,3.5,3.3,3.1,3,2.8,2.7,2.5,2.4,2.3,2.2,2.1,2,1.9,1.8,1.7,1.6,1.5,1.4,1.3,1.2,1.2,1.1,1,1,0.9,0.9,0.8,0.8,0.7,0.7,0.6,0.6
Malawi,5.8,5.5,5.3,5,4.8,4.6,4.4,4.2,4,3.8,3.6,3.4,3.3,3.1,3,2.8,2.7,2.5,2.4,2.2,2.1,2,1.9,1.8,1.7,1.6,1.5,1.5,1.4,1.3,1.3,1.2,1.1,1.1,1,0.9,0.9,0.8,0.8,0.8
Malaysia,15.6,14.9,14.3,13.7,13.1,12.6,12,11.5,10.9,10.4,9.9,9.4,8.9,8.4,7.9,7.5,7,6.6,6.2,5.8,5.5,5.1,4.8,4.5,4.3,4,3.8,3.6,3.4,3.2,3,2.8,2.6,2.5,2.3,2.2,2,1.9,1.8,1.7
Maldives,8.6,8.1,7.6,7.2,6.7,6.3,5.9,5.5,5.2,4.8,4.5,4.2,3.9,3.6,3.4,3.2,3,2.8,2.6,2.5,2.4,2.2,2.1,2,1.9,1.8,1.7,1.6,1.5,1.4,1.3,1.2,1.1,1,1,0.9,0.8,0.7,0.7,0.6
Mali,8.6,8.2,7.9,7.5,7.2,6.8,6.5,6.2,5.9,5.6,5.3,5,4.8,4.5,4.3,4,3.8,3.6,3.4,3.2,3.1,2.9,2.8,2.6,2.5,2.3,2.2,2.1,2,1.8,1.7,1.6,1.5,1.4,1.4,1.3,1.2,1.1,1.1,1
Malta,28.9,28.5,28.2,27.8,27.5,27.1,26.8,26.4,26.1,25.7,25.3,25,24.6,24.2,23.9,23.5,23.1,22.7,22.4,22,21.6,21.3,20.9,20.6,20.3,19.9,19.6,19.3,19,18.7,18.4,18.1,17.8,17.6,17.3,17.1,16.8,16.6,16.3,16.1
Marshall Islands,52.9,52.4,51.8,51.3,50.7,50.1,49.6,49,48.4,47.9,47.3,46.7,46.1,45.5,45,44.4,43.7,43.1,42.5,41.8,41.1,40.5,39.8,39.1,38.4,37.7,36.9,36.2,35.5,34.8,34.1,33.4,32.8,32.2,31.7,31.1,30.6,30,29.4,28.7
Mauritania,12.7,12.3,11.8,11.4,11,10.6,10.3,9.9,9.5,9.1,8.8,8.4,8.1,7.7,7.4,7,6.7,6.4,6.1,5.8,5.5,5.2,5,4.7,4.4,4.2,3.9,3.6,3.4,3.1,2.9,2.7,2.5,2.3,2.1,1.9,1.8,1.6,1.5,1.4
Mauritius,10.8,10.5,10.2,9.9,9.6,9.3,9.1,8.8,8.6,8.3,8.1,7.9,7.7,7.5,7.2,7,6.8,6.6,6.4,6.2,6.1,5.9,5.7,5.5,5.3,5.1,4.9,4.8,4.6,4.4,4.3,4.1,4,3.9,3.8,3.6,3.5,3.4,3.3,3.2
Mexico,28.9,28.3,27.8,27.3,26.8,26.3,25.8,25.3,24.8,24.3,23.8,23.3,22.8,22.3,21.8,21.3,20.8,20.3,19.9,19.4,18.9,18.4,17.9,17.4,16.9,16.4,15.9,15.4,15,14.5,14.1,13.6,13.2,12.8,12.3,11.9,11.5,11.1,10.7,10.3
Micronesia (Federated States of),45.8,45.1,44.4,43.7,42.9,42.2,41.5,40.8,40.1,39.3,38.6,37.9,37.3,36.6,36,35.4,34.7,34.2,33.5,32.9,32.3,31.6,30.9,30.3,29.6,29,28.3,27.7,27,26.4,25.8,25.1,24.5,23.9,23.3,22.6,22,21.4,20.7,20.1
Mongolia,20.6,19.9,19.2,18.6,17.9,17.3,16.7,16.1,15.5,14.9,14.3,13.8,13.3,12.8,12.3,11.9,11.6,11.3,11,10.7,10.4,10.1,9.9,9.6,9.3,9,8.8,8.5,8.2,7.9,7.6,7.3,7,6.8,6.5,6.3,6,5.7,5.5,5.3
Montenegro,23.3,22.8,22.4,22,21.6,21.2,20.8,20.4,20,19.5,19.1,18.6,18.1,17.6,17.1,16.6,16.2,15.6,15.1,14.7,14.2,13.7,13.2,12.8,12.3,11.9,11.4,11,10.6,10.1,9.7,9.3,8.9,8.6,8.2,7.9,7.5,7.2,6.9,6.6
Morocco,26.1,25.4,24.7,24.1,23.4,22.8,22.1,21.5,20.9,20.4,19.8,19.2,18.7,18.2,17.7,17.2,16.7,16.3,15.8,15.3,14.8,14.3,13.9,13.4,12.9,12.5,12,11.6,11.1,10.7,10.3,9.9,9.5,9.1,8.8,8.4,8.1,7.7,7.4,7.1
Mozambique,7.2,6.9,6.7,6.4,6.1,5.9,5.7,5.4,5.2,5,4.8,4.6,4.4,4.2,4,3.8,3.7,3.5,3.3,3.2,3,2.8,2.7,2.5,2.4,2.2,2.1,1.9,1.8,1.6,1.5,1.4,1.3,1.2,1.1,1,1,0.9,0.8,0.8
Myanmar,5.8,5.4,5.1,4.8,4.6,4.3,4,3.8,3.6,3.4,3.2,3,2.8,2.6,2.5,2.3,2.2,2.1,1.9,1.8,1.7,1.6,1.5,1.5,1.4,1.3,1.2,1.2,1.1,1,1,0.9,0.9,0.8,0.8,0.8,0.7,0.7,0.6,0.6
Namibia,17.2,16.7,16.1,15.6,15.1,14.6,14,13.5,13,12.5,12,11.6,11.1,10.7,10.2,9.8,9.5,9.1,8.8,8.5,8.2,7.9,7.6,7.3,7,6.8,6.5,6.3,6,5.8,5.6,5.4,5.2,4.9,4.7,4.5,4.3,4.1,3.9,3.8
Nauru,61,60.7,60.3,60,59.6,59.3,58.9,58.5,58.2,57.8,57.4,57,56.7,56.3,55.9,55.5,55.1,54.7,54.3,53.8,53.4,53,52.5,52.1,51.7,51.2,50.8,50.4,49.9,49.5,49.1,48.7,48.3,47.9,47.5,47.1,46.7,46.3,45.8,45.4
Nepal,4.1,3.9,3.7,3.5,3.3,3.1,2.9,2.7,2.6,2.4,2.3,2.1,2,1.9,1.8,1.7,1.6,1.5,1.4,1.3,1.2,1.1,1,1,0.9,0.9,0.8,0.8,0.7,0.7,0.6,0.6,0.5,0.5,0.5,0.4,0.4,0.4,0.4,0.3
Netherlands,20.4,20,19.5,19.1,18.6,18.2,17.7,17.3,16.8,16.3,15.8,15.4,14.9,14.4,13.9,13.5,13,12.6,12.2,11.7,11.3,10.9,10.5,10.1,9.8,9.4,9.1,8.8,8.5,8.2,7.9,7.7,7.4,7.2,6.9,6.7,6.5,6.2,6,5.8
New Zealand,30.8,30.2,29.6,29,28.4,27.8,27.2,26.6,26.1,25.5,24.9,24.4,23.8,23.2,22.7,22.1,21.5,21,20.4,19.9,19.4,18.8,18.3,17.8,17.3,16.9,16.4,15.9,15.5,15.1,14.7,14.3,13.9,13.6,13.2,12.9,12.5,12.2,11.9,11.5
Nicaragua,23.7,23.1,22.5,22,21.5,20.9,20.4,19.9,19.4,18.9,18.4,17.9,17.4,16.9,16.5,16,15.6,15.1,14.7,14.3,13.8,13.4,13,12.6,12.3,11.9,11.5,11.1,10.8,10.5,10.1,9.8,9.5,9.2,8.9,8.6,8.3,8.1,7.8,7.5
Niger,5.5,5.2,5,4.8,4.5,4.3,4.1,3.9,3.7,3.6,3.4,3.2,3.1,2.9,2.8,2.7,2.5,2.4,2.3,2.2,2.1,2,1.9,1.8,1.7,1.6,1.6,1.5,1.4,1.3,1.2,1.2,1.1,1,1,0.9,0.9,0.8,0.8,0.7
Nigeria,8.9,8.5,8.1,7.7,7.4,7,6.7,6.4,6,5.7,5.4,5.2,4.9,4.7,4.4,4.2,4,3.8,3.6,3.4,3.2,3,2.9,2.7,2.5,2.4,2.2,2.1,2,1.8,1.7,1.6,1.5,1.4,1.3,1.3,1.2,1.1,1.1,1
Niue,50,49.2,48.4,47.6,46.8,46,45.2,44.4,43.6,42.8,42.1,41.3,40.5,39.7,39,38.2,37.5,36.7,36,35.3,34.6,33.9,33.2,32.5,31.8,31.2,30.5,29.7,29,28.2,27.4,26.6,25.8,24.9,24.1,23.3,22.5,21.7,21,20.2
Norway,23.1,22.6,22.2,21.7,21.3,20.8,20.4,19.9,19.5,19,18.6,18.2,17.7,17.3,16.8,16.4,16,15.5,15.1,14.6,14.2,13.8,13.4,13,12.6,12.3,11.9,11.6,11.3,11,10.7,10.4,10.1,9.8,9.5,9.2,8.9,8.6,8.3,8
Oman,27,26.3,25.6,24.9,24.3,23.7,23.1,22.4,21.8,21.1,20.5,20,19.6,19.2,18.8,18.5,18,17.5,16.8,16.2,15.5,14.9,14.3,13.8,13.3,12.9,12.4,11.8,11.3,10.7,10.1,9.6,9,8.5,8,7.5,7.1,6.6,6.2,5.8
Pakistan,8.6,8.2,7.8,7.5,7.1,6.8,6.5,6.2,5.9,5.6,5.3,5.1,4.8,4.6,4.3,4.1,3.9,3.7,3.5,3.4,3.2,3,2.9,2.7,2.6,2.4,2.3,2.2,2.1,2,1.9,1.7,1.7,1.6,1.5,1.4,1.3,1.2,1.2,1.1
Palau,55.3,54.8,54.2,53.7,53.1,52.4,51.8,51.1,50.4,49.7,48.9,48.2,47.5,46.8,46.2,45.6,45,44.5,44,43.4,42.8,42.2,41.6,40.9,40.2,39.5,38.8,38,37.3,36.6,35.8,35.1,34.3,33.5,32.8,32.1,31.5,30.8,30.2,29.6
Panama,22.7,22.2,21.6,21.1,20.6,20.1,19.6,19.1,18.6,18.2,17.7,17.2,16.7,16.2,15.7,15.2,14.7,14.2,13.7,13.2,12.7,12.2,11.8,11.3,10.9,10.5,10.2,9.8,9.5,9.2,8.8,8.5,8.2,7.9,7.7,7.4,7.1,6.9,6.7,6.4
Papua New Guinea,21.3,20.7,20.1,19.6,19,18.5,17.9,17.4,16.9,16.4,15.9,15.5,15,14.6,14.1,13.7,13.3,12.9,12.5,12.2,11.8,11.4,11,10.7,10.3,9.9,9.6,9.2,8.8,8.5,8.1,7.8,7.5,7.2,6.9,6.6,6.3,6,5.8,5.5
Paraguay,20.3,19.8,19.2,18.7,18.2,17.7,17.2,16.7,16.2,15.7,15.2,14.7,14.2,13.8,13.3,12.8,12.3,11.9,11.4,11,10.5,10.1,9.7,9.3,8.9,8.5,8.1,7.8,7.4,7.1,6.8,6.5,6.2,5.9,5.6,5.4,5.2,4.9,4.7,4.5
Peru,19.7,19.3,18.9,18.5,18.1,17.7,17.3,16.9,16.5,16.1,15.7,15.3,15,14.6,14.2,13.9,13.5,13.2,12.9,12.5,12.2,11.9,11.6,11.3,11,10.7,10.4,10.1,9.8,9.5,9.2,9,8.7,8.4,8.1,7.9,7.6,7.3,7.1,6.8
Philippines,6.4,6.2,5.9,5.7,5.4,5.2,5,4.8,4.6,4.4,4.2,4.1,3.9,3.7,3.6,3.4,3.3,3.1,3,2.9,2.7,2.6,2.5,2.4,2.2,2.1,1.9,1.8,1.7,1.5,1.4,1.3,1.2,1.1,1.1,1,0.9,0.9,0.8,0.8
Poland,23.1,22.7,22.3,21.9,21.5,21.2,20.8,20.5,20.1,19.8,19.4,19.1,18.8,18.4,18.1,17.8,17.5,17.2,17,16.7,16.4,16.2,15.9,15.7,15.4,15.1,14.9,14.6,14.3,14,13.8,13.5,13.2,12.9,12.6,12.4,12.1,11.8,11.5,11.2
Portugal,20.8,20.4,19.9,19.5,19,18.6,18.1,17.7,17.2,16.8,16.3,15.9,15.4,15,14.6,14.1,13.7,13.3,12.8,12.4,12,11.6,11.2,10.8,10.4,10,9.6,9.3,8.9,8.6,8.3,8,7.7,7.4,7.1,6.8,6.6,6.3,6.1,5.8
Qatar,35.1,34.5,33.8,33.1,32.4,31.8,31.1,30.5,30,29.5,29.1,28.7,28.3,27.9,27.4,26.8,26.2,25.7,25.2,24.7,24.1,23.6,23,22.4,21.9,21.3,20.8,20.3,19.9,19.5,19.1,18.8,18.5,18.2,18,17.8,17.6,17.3,16.9,16.5
Republic of Korea,4.7,4.5,4.4,4.3,4.1,4,3.9,3.8,3.7,3.6,3.5,3.4,3.3,3.2,3.1,3,2.9,2.8,2.7,2.6,2.5,2.4,2.2,2.1,2,1.9,1.8,1.6,1.5,1.4,1.3,1.2,1.1,1.1,1,0.9,0.8,0.8,0.7,0.6
Republic of Moldova,18.9,18.5,18.2,17.8,17.5,17.2,16.9,16.6,16.3,16,15.7,15.5,15.2,15,14.7,14.5,14.2,14,13.8,13.6,13.4,13.2,12.9,12.7,12.5,12.2,11.9,11.6,11.3,11,10.7,10.4,10.1,9.8,9.5,9.2,8.9,8.6,8.3,8.1
Romania,22.5,22.1,21.6,21.1,20.7,20.2,19.8,19.4,19,18.6,18.2,17.8,17.5,17.1,16.8,16.5,16.2,15.9,15.6,15.3,15,14.7,14.4,14.1,13.7,13.4,13,12.6,12.3,11.9,11.5,11.2,10.9,10.5,10.2,9.9,9.6,9.3,9,8.8
Russian Federation,23.1,22.8,22.5,22.2,21.9,21.7,21.4,21.2,20.9,20.7,20.4,20.2,19.9,19.7,19.5,19.3,19,18.8,18.7,18.5,18.3,18.1,18,17.8,17.6,17.5,17.3,17.1,16.9,16.7,16.5,16.3,16.1,15.9,15.7,15.4,15.2,15,14.7,14.4
Rwanda,5.8,5.6,5.3,5,4.7,4.5,4.2,4,3.8,3.6,3.3,3.2,3,2.8,2.6,2.4,2.3,2.1,2,1.9,1.7,1.6,1.5,1.4,1.3,1.3,1.2,1.1,1.1,1,1,0.9,0.9,0.8,0.8,0.7,0.7,0.7,0.6,0.6
Saint Kitts and Nevis,22.9,22.3,21.6,21,20.4,19.8,19.3,18.7,18.2,17.7,17.2,16.7,16.2,15.7,15.3,14.8,14.4,14,13.6,13.2,12.8,12.4,12,11.7,11.3,11,10.7,10.3,10,9.7,9.4,9.1,8.8,8.6,8.3,8,7.7,7.4,7.2,6.9
Saint Lucia,19.7,19.1,18.5,18,17.4,17,16.5,16.2,15.8,15.5,15.1,14.8,14.4,14.1,13.7,13.3,12.9,12.5,12.1,11.8,11.4,11,10.6,10.2,9.9,9.5,9.2,8.8,8.5,8.2,7.9,7.6,7.3,7.1,6.8,6.5,6.2,6,5.8,5.5
Saint Vincent and the Grenadines,23.7,23.1,22.4,21.8,21.2,20.6,20,19.4,18.8,18.3,17.7,17.2,16.6,16.1,15.6,15.1,14.6,14.1,13.7,13.2,12.8,12.3,11.9,11.5,11.1,10.7,10.3,9.9,9.5,9.1,8.8,8.4,8.1,7.8,7.5,7.2,6.9,6.7,6.4,6.2
Samoa,47.3,46.7,46,45.4,44.7,44.1,43.4,42.8,42.2,41.5,40.8,40.2,39.5,38.8,38.1,37.4,36.7,36,35.3,34.7,34,33.3,32.6,31.9,31.2,30.5,29.8,29.1,28.5,27.8,27.1,26.4,25.8,25.1,24.5,23.9,23.3,22.7,22.1,21.5
Sao Tome and Principe,12.4,12,11.6,11.2,10.7,10.3,10,9.6,9.2,8.8,8.4,8,7.7,7.3,6.9,6.6,6.3,5.9,5.6,5.3,5,4.7,4.4,4.2,3.9,3.7,3.5,3.3,3.1,2.9,2.7,2.5,2.4,2.2,2.1,2,1.9,1.8,1.7,1.6
Saudi Arabia,35.4,34.7,34.1,33.4,32.8,32.1,31.5,30.8,30.2,29.6,29,28.4,27.9,27.5,27.1,26.7,26.2,25.6,25,24.2,23.5,22.9,22.2,21.7,21.1,20.6,20,19.5,18.9,18.3,17.7,17.1,16.5,15.8,15.2,14.6,14,13.3,12.7,12.1
Senegal,8.8,8.5,8.2,7.9,7.6,7.3,7.1,6.8,6.5,6.3,6,5.8,5.6,5.3,5.1,4.9,4.7,4.5,4.3,4.1,3.9,3.8,3.6,3.5,3.3,3.2,3,2.9,2.8,2.6,2.5,2.4,2.3,2.2,2.1,2,1.8,1.8,1.7,1.6
Serbia,21.5,21.1,20.7,20.3,20,19.6,19.2,18.8,18.4,18,17.7,17.3,16.9,16.6,16.2,15.8,15.5,15.2,14.8,14.5,14.2,13.9,13.6,13.2,12.9,12.6,12.3,12,11.7,11.4,11.1,10.8,10.5,10.2,9.9,9.6,9.3,9,8.8,8.5
Seychelles,14,13.5,13.2,12.8,12.4,12,11.7,11.4,11,10.7,10.4,10,9.8,9.5,9.2,8.9,8.6,8.4,8.1,7.9,7.6,7.4,7.2,7,6.7,6.5,6.3,6.2,6,5.8,5.6,5.4,5.2,5,4.9,4.7,4.4,4.2,4,3.8
Sierra Leone,8.7,8.3,8,7.7,7.4,7.1,6.8,6.5,6.3,6,5.8,5.5,5.3,5.1,4.9,4.6,4.4,4.2,4,3.9,3.7,3.5,3.4,3.2,3.1,2.9,2.8,2.6,2.5,2.4,2.3,2.2,2,1.9,1.8,1.7,1.6,1.6,1.5,1.4
Singapore,6.1,6,5.8,5.7,5.6,5.5,5.4,5.3,5.2,5.1,5,4.9,4.8,4.7,4.6,4.5,4.4,4.3,4.3,4.2,4.1,4,4,3.9,3.8,3.8,3.7,3.6,3.6,3.5,3.5,3.4,3.4,3.3,3.3,3.2,3.2,3.2,3.1,3.1
Slovakia,20.5,20.1,19.8,19.4,19.1,18.8,18.4,18.1,17.8,17.5,17.2,16.9,16.6,16.3,16,15.8,15.5,15.2,15,14.7,14.5,14.2,13.9,13.7,13.4,13.1,12.8,12.5,12.2,11.9,11.6,11.3,11,10.6,10.3,10,9.6,9.3,8.9,8.6
Slovenia,20.2,19.8,19.5,19.1,18.8,18.4,18.1,17.8,17.5,17.2,16.8,16.5,16.2,15.9,15.7,15.4,15.1,14.8,14.5,14.3,14,13.7,13.5,13.2,13,12.7,12.5,12.2,12,11.7,11.4,11.2,10.9,10.6,10.2,9.9,9.5,9.2,8.8,8.5
Solomon Islands,22.5,21.9,21.2,20.6,19.9,19.3,18.7,18.1,17.6,17,16.5,15.9,15.4,14.9,14.4,14,13.5,13.1,12.6,12.2,11.7,11.3,10.9,10.5,10.1,9.7,9.3,8.9,8.5,8.2,7.8,7.5,7.1,6.8,6.5,6.2,5.9,5.7,5.4,5.2
Somalia,8.3,7.9,7.6,7.3,7,6.7,6.4,6.2,5.9,5.6,5.4,5.2,4.9,4.7,4.5,4.3,4.1,3.9,3.8,3.6,3.4,3.3,3.1,3,2.8,2.7,2.6,2.5,2.3,2.2,2.1,2,1.9,1.8,1.8,1.7,1.6,1.5,1.4,1.4
South Africa,28.3,27.8,27.2,26.7,26.1,25.6,25.1,24.5,24,23.4,22.9,22.3,21.8,21.3,20.8,20.2,19.7,19.2,18.7,18.2,17.6,17.1,16.6,16.2,15.7,15.3,14.9,14.4,14,13.6,13.2,12.9,12.5,12.2,11.9,11.6,11.3,11,10.8,10.5
Spain,23.8,23.4,23.1,22.7,22.4,22,21.7,21.3,21,20.7,20.3,20,19.7,19.3,19,18.6,18.3,18,17.6,17.3,17,16.6,16.3,15.9,15.6,15.3,14.9,14.6,14.2,13.9,13.5,13.2,12.9,12.5,12.2,11.8,11.5,11.1,10.8,10.4
Sri Lanka,5.2,4.9,4.6,4.4,4.1,3.9,3.7,3.5,3.3,3.1,3,2.8,2.7,2.5,2.4,2.2,2.1,2,1.9,1.8,1.7,1.6,1.5,1.4,1.4,1.3,1.2,1.2,1.1,1,1,0.9,0.9,0.8,0.8,0.8,0.7,0.7,0.6,0.6
Sudan (former),8.6,8.6,5.8,5.7,6.4,6.1,6.5,5.1,6.1,5.8,4.3,4.8,5.9,4.4,3.7,5,5.8,5.5,3.7,2.7,3.6,2.7,2.9,3.1,3.2,2.8,2.7,1.6,2,1.9,1.9,1.8,1.9,1.1,0.9,0.8,1.3,1.3,1.2,1.1
Suriname,26.4,25.9,25.4,24.9,24.4,24,23.5,23,22.5,22.1,21.6,21.2,20.7,20.3,19.8,19.4,18.9,18.5,18.1,17.6,17.2,16.8,16.4,16,15.7,15.3,14.9,14.5,14.2,13.8,13.4,13,12.5,12,11.5,10.9,10.3,9.6,9,8.5
Sweden,20.6,20.2,19.8,19.4,19,18.6,18.2,17.8,17.4,17.1,16.7,16.3,16,15.6,15.3,14.9,14.6,14.2,13.9,13.5,13.2,12.9,12.5,12.2,11.9,11.6,11.3,11.1,10.8,10.6,10.3,10.1,9.9,9.7,9.4,9.2,9,8.8,8.6,8.4
Switzerland,19.5,19.1,18.7,18.4,18,17.6,17.3,16.9,16.5,16.2,15.9,15.5,15.2,14.8,14.5,14.2,13.9,13.5,13.2,12.9,12.5,12.2,11.8,11.3,10.9,10.4,9.9,9.3,8.8,8.3,7.8,7.4,7,6.7,6.4,6.1,5.9,5.7,5.5,5.4
Syrian Arab Republic,27.8,27.1,26.4,25.8,25.1,24.4,23.8,23.1,22.5,21.9,21.3,20.7,20.2,19.7,19.2,18.7,18.2,17.7,17.2,16.7,16.3,15.8,15.4,14.9,14.5,14.1,13.7,13.3,12.9,12.6,12.2,11.8,11.5,11.1,10.8,10.4,10.1,9.7,9.4,9.1
Tajikistan,14.2,13.7,13.2,12.7,12.2,11.8,11.3,10.9,10.5,10.1,9.7,9.4,9.1,8.8,8.5,8.2,8,7.8,7.5,7.4,7.2,7,6.8,6.6,6.5,6.3,6.1,6,5.8,5.6,5.5,5.3,5.2,5,4.9,4.8,4.7,4.5,4.4,4.3
Thailand,10,9.4,8.9,8.4,7.9,7.4,7,6.5,6.1,5.7,5.4,5,4.7,4.4,4.2,3.9,3.7,3.5,3.3,3.2,3,2.8,2.7,2.6,2.4,2.3,2.2,2,1.9,1.8,1.7,1.6,1.5,1.4,1.3,1.2,1.2,1.1,1,1
Republic of North Macedonia,22.4,22,21.6,21.2,20.8,20.5,20.1,19.8,19.4,19.1,18.8,18.5,18.2,17.9,17.7,17.4,17.1,16.8,16.5,16.2,15.9,15.6,15.3,14.9,14.6,14.3,13.9,13.6,13.3,13,12.7,12.3,12,11.7,11.4,11.1,10.8,10.5,10.2,9.9
Timor-Leste,3.8,3.6,3.3,3.1,2.9,2.8,2.6,2.4,2.3,2.1,2,1.9,1.8,1.7,1.6,1.5,1.4,1.3,1.2,1.1,1,1,0.9,0.9,0.8,0.7,0.7,0.6,0.6,0.6,0.5,0.5,0.5,0.4,0.4,0.4,0.3,0.3,0.3,0.3
Togo,8.4,8.1,7.8,7.4,7.1,6.8,6.5,6.3,6,5.7,5.5,5.2,5,4.7,4.5,4.3,4.1,3.9,3.7,3.5,3.3,3.2,3,2.9,2.7,2.6,2.4,2.3,2.2,2.1,2,1.9,1.8,1.7,1.6,1.5,1.4,1.4,1.3,1.2
Tonga,48.2,47.5,46.8,46.1,45.4,44.7,44.1,43.4,42.7,42,41.3,40.6,39.9,39.1,38.4,37.7,37,36.3,35.6,34.9,34.2,33.6,32.9,32.2,31.5,30.7,30,29.3,28.7,28,27.2,26.5,25.8,25,24.3,23.6,22.9,22.2,21.6,21
Trinidad and Tobago,18.6,18,17.4,16.9,16.3,15.8,15.3,14.8,14.3,13.8,13.3,12.9,12.4,11.9,11.5,11,10.6,10.1,9.7,9.3,8.9,8.5,8.1,7.8,7.5,7.2,6.9,6.6,6.4,6.1,5.9,5.7,5.5,5.3,5.1,4.9,4.7,4.5,4.3,4.1
Tunisia,26.9,26.3,25.7,25.1,24.6,24,23.4,22.9,22.3,21.8,21.3,20.7,20.2,19.7,19.2,18.7,18.2,17.7,17.2,16.7,16.2,15.7,15.2,14.7,14.2,13.7,13.3,12.8,12.4,12,11.5,11.1,10.7,10.4,10,9.6,9.2,8.9,8.5,8.2
Turkey,32.1,31.5,30.8,30.2,29.5,28.9,28.2,27.6,26.9,26.3,25.7,25.1,24.5,23.9,23.3,22.7,22.2,21.6,21.1,20.5,20,19.4,18.8,18.2,17.6,16.9,16.3,15.6,14.9,14.2,13.6,13,12.3,11.8,11.3,10.8,10.4,10,9.6,9.3
Turkmenistan,18.6,18,17.4,16.9,16.3,15.8,15.3,14.8,14.3,13.8,13.4,12.9,12.5,12.1,11.7,11.3,11,10.6,10.3,10,9.7,9.4,9.1,8.9,8.6,8.4,8.2,8,7.8,7.6,7.4,7.2,7.1,6.9,6.7,6.6,6.4,6.2,6.1,5.9
Tuvalu,51.6,50.9,50.1,49.4,48.6,47.8,47,46.2,45.5,44.7,43.9,43.1,42.3,41.5,40.8,40,39.3,38.5,37.8,37,36.2,35.4,34.5,33.6,32.7,31.7,30.7,29.7,28.8,27.8,26.8,25.9,25,24.2,23.3,22.5,21.7,20.9,20.1,19.4
Uganda,5.3,5,4.8,4.5,4.3,4.1,3.9,3.7,3.5,3.4,3.2,3.1,2.9,2.8,2.6,2.5,2.4,2.3,2.2,2.1,2,1.9,1.8,1.7,1.6,1.5,1.4,1.3,1.3,1.2,1.1,1.1,1,0.9,0.9,0.8,0.8,0.8,0.7,0.7
Ukraine,24.1,23.7,23.4,23,22.7,22.4,22,21.7,21.4,21.1,20.8,20.5,20.2,19.9,19.6,19.3,19.1,18.8,18.6,18.4,18.1,17.9,17.7,17.4,17.2,16.9,16.6,16.3,16.1,15.8,15.5,15.2,14.9,14.6,14.3,14,13.7,13.4,13.1,12.8
United Arab Emirates,31.7,31,30.3,29.7,29,28.3,27.7,27,26.3,25.7,25,24.5,23.9,23.4,22.8,22.3,21.8,21.3,20.9,20.5,20.1,19.8,19.5,19.2,18.9,18.6,18.3,18,17.7,17.4,17.1,16.8,16.5,16.1,15.6,15.2,14.9,14.5,14.3,14
United Kingdom of Great Britain and Northern Ireland,27.8,27.2,26.6,26,25.4,24.8,24.2,23.6,23.1,22.5,21.9,21.4,20.8,20.3,19.7,19.2,18.6,18.1,17.6,17.1,16.6,16.2,15.7,15.2,14.8,14.4,14,13.6,13.3,12.9,12.6,12.3,11.9,11.6,11.3,11,10.7,10.4,10.1,9.9
United Republic of Tanzania,8.4,8,7.6,7.3,6.9,6.6,6.3,6,5.7,5.4,5.1,4.9,4.7,4.4,4.2,4,3.8,3.6,3.4,3.3,3.1,2.9,2.8,2.7,2.5,2.4,2.3,2.1,2,1.9,1.8,1.7,1.6,1.5,1.4,1.3,1.2,1.2,1.1,1
United States of America,36.2,35.6,34.9,34.3,33.6,33,32.3,31.7,31,30.3,29.7,29,28.3,27.6,26.9,26.2,25.5,24.8,24.1,23.3,22.6,21.9,21.2,20.6,19.9,19.3,18.7,18.1,17.5,17,16.5,16,15.5,15,14.6,14.1,13.7,13.3,13,12.6
Uruguay,27.9,27.5,27,26.5,26,25.5,25.1,24.6,24.1,23.7,23.2,22.8,22.3,21.9,21.4,21,20.6,20.1,19.7,19.3,18.9,18.5,18.1,17.7,17.3,16.9,16.5,16.1,15.7,15.3,14.9,14.6,14.2,13.9,13.5,13.2,12.9,12.5,12.2,11.9
Uzbekistan,16.6,16,15.4,14.9,14.4,13.9,13.5,13,12.6,12.2,11.8,11.4,11,10.7,10.4,10.1,9.8,9.5,9.2,8.9,8.7,8.5,8.2,8,7.8,7.6,7.4,7.2,7,6.8,6.6,6.4,6.2,6,5.8,5.6,5.4,5.2,5,4.8
Vanuatu,25.2,24.5,23.9,23.2,22.6,22,21.3,20.7,20.1,19.5,19,18.4,17.8,17.3,16.7,16.2,15.6,15.1,14.6,14.1,13.6,13.1,12.6,12.2,11.7,11.3,10.8,10.4,9.9,9.5,9.1,8.7,8.3,7.9,7.6,7.2,6.9,6.6,6.3,6.1
Venezuela (Bolivarian Republic of),25.6,25.2,24.8,24.4,24,23.7,23.3,22.9,22.5,22.2,21.8,21.4,21,20.6,20.3,19.9,19.4,19,18.6,18.2,17.8,17.4,17,16.6,16.2,15.8,15.3,14.9,14.5,14.1,13.7,13.3,12.9,12.6,12.2,11.8,11.4,11,10.7,10.3
Viet Nam,2.1,2,1.8,1.7,1.6,1.5,1.4,1.3,1.2,1.1,1,0.9,0.9,0.8,0.7,0.7,0.6,0.6,0.6,0.5,0.5,0.5,0.4,0.4,0.4,0.3,0.3,0.3,0.3,0.3,0.3,0.2,0.2,0.2,0.2,0.2,0.2,0.2,0.2,0.2
Yemen,17.1,16.5,15.9,15.2,14.6,14.1,13.5,13,12.4,11.9,11.4,11,10.5,10.1,9.6,9.2,8.8,8.4,8,7.7,7.3,7,6.7,6.5,6.2,6,5.8,5.6,5.3,5.1,4.8,4.6,4.3,4.1,3.9,3.8,3.6,3.4,3.3,3.1
Zambia,8.1,7.7,7.4,7.1,6.8,6.5,6.3,6,5.7,5.5,5.3,5.1,4.9,4.7,4.5,4.4,4.2,4.1,4,3.9,3.8,3.7,3.6,3.5,3.4,3.3,3.2,3.1,3,2.9,2.8,2.7,2.6,2.5,2.3,2.2,2.1,2,1.9,1.7
Zimbabwe,15.5,15.2,14.9,14.6,14.3,14.1,13.8,13.5,13.2,12.9,12.5,12.2,11.9,11.5,11.2,10.9,10.5,10.2,9.9,9.5,9.2,8.9,8.5,8.2,7.9,7.6,7.3,7,6.7,6.4,6.1,5.8,5.6,5.3,5.1,4.9,4.7,4.4,4.2,4
World,13.1,12.8,12.5,12.1,11.8,11.5,11.2,10.9,10.7,10.4,10.1,9.9,9.6,9.4,9.1,8.9,8.7,8.5,8.3,8.1,7.9,7.7,7.5,7.3,7.1,7,6.8,6.6,6.5,6.3,6.1,6,5.8,5.7,5.6,5.4,5.3,5.2,5,4.9
