FAO2Name,FAO2,FoAgName,FoAg,Type,FAO2Fish
Barley and products,2513,cereals,3905,Vegetal,2513
Maize and products,2514,cereals,3905,Vegetal,2514
Millet and products,2517,cereals,3905,Vegetal,2517
Oats,2516,cereals,3905,Vegetal,2516
Rice (Milled Equivalent),2805,cereals,3905,Vegetal,2805
Sorghum and products,2518,cereals,3905,Vegetal,2518
Wheat and products,2511,cereals,3905,Vegetal,2511
Cereals Other,2520,cereals,3905,Vegetal,2520
Maize Germ Oil,2582,cereals,3905,Vegetal,2582
Ricebran Oil,2581,cereals,3905,Vegetal,2581
Rye and products,2515,cereals,3905,Vegetal,2515
Cassava and products,2532,starchyRoots,3906,Vegetal,2532
Potatoes and products,2531,starchyRoots,3906,Vegetal,2531
Roots Other,2534,starchyRoots,3906,Vegetal,2534
Sweet potatoes,2533,starchyRoots,3906,Vegetal,2533
Yams,2535,starchyRoots,3906,Vegetal,2535
Coconut Oil,2578,oilcropspulses,3908,Vegetal,2578
Coconuts - Incl Copra,2560,oilcropspulses,3908,Vegetal,2560
Cottonseed,2559,oilcropspulses,3908,Vegetal,2559
Groundnut Oil,2572,oilcropspulses,3908,Vegetal,2572
Groundnuts (Shelled Eq),2556,oilcropspulses,3908,Vegetal,2556
Oilcrops Oil Other,2586,oilcropspulses,3908,Vegetal,2586
Oilcrops Other,2570,oilcropspulses,3908,Vegetal,2570
Olive Oil,2580,oilcropspulses,3908,Vegetal,2580
Olives (including preserved),2563,oilcropspulses,3908,Vegetal,2563
Palm kernels,2562,oilcropspulses,3908,Vegetal,2562
Palm Oil,2577,oilcropspulses,3908,Vegetal,2577
Palmkernel Oil,2576,oilcropspulses,3908,Vegetal,2576
Rape and Mustard Oil,2574,oilcropspulses,3908,Vegetal,2574
Rape and Mustardseed,2558,oilcropspulses,3908,Vegetal,2558
Sesame seed,2561,oilcropspulses,3908,Vegetal,2561
Sesameseed Oil,2579,oilcropspulses,3908,Vegetal,2579
Soyabean Oil,2571,oilcropspulses,3908,Vegetal,2571
Soyabeans,2555,oilcropspulses,3908,Vegetal,2555
Sunflower seed,2557,oilcropspulses,3908,Vegetal,2557
Sunflowerseed Oil,2573,oilcropspulses,3908,Vegetal,2573
Beans,2546,oilcropspulses,3908,Vegetal,2546
Peas,2547,oilcropspulses,3908,Vegetal,2547
Pulses Other and products,2549,oilcropspulses,3908,Vegetal,2549
Cottonseed Oil,2575,oilcropspulses,3908,Vegetal,2575
Nuts and products,2551,oilcropspulses,3908,Vegetal,2551
Honey,2745,sugar,3909,Vegetal,2745
Sugar (Raw Equivalent),2542,sugar,3909,Vegetal,2542
Sugar Beet,2537,sugar,3909,Vegetal,2537
Sugar Cane,2536,sugar,3909,Vegetal,2536
Sugar Non-Centrifugal,2541,sugar,3909,Vegetal,2541
Sweeteners Other,2543,sugar,3909,Vegetal,2543
Apples and products,2617,fruitveg,3918,Vegetal,2617
Bananas,2615,fruitveg,3918,Vegetal,2615
Citrus Other,2614,fruitveg,3918,Vegetal,2614
Dates,2619,fruitveg,3918,Vegetal,2619
Fruits Other,2625,fruitveg,3918,Vegetal,2625
Grapefruit and products,2613,fruitveg,3918,Vegetal,2613
Grapes and products (excl wine),2620,fruitveg,3918,Vegetal,2620
Lemons Limes and products,2612,fruitveg,3918,Vegetal,2612
Onions,2602,fruitveg,3918,Vegetal,2602
Oranges Mandarines,2611,fruitveg,3918,Vegetal,2611
Pineapples and products,2618,fruitveg,3918,Vegetal,2618
Plantains,2616,fruitveg,3918,Vegetal,2616
Tomatoes and products,2601,fruitveg,3918,Vegetal,2601
Vegetables Other,2605,fruitveg,3918,Vegetal,2605
Pepper,2640,fruitveg,3918,Vegetal,2640
Spices Other,2645,fruitveg,3918,Vegetal,2645
Milk - Excluding Butter,2848,ruminants,3943,Animal,2848
Animal fats,2737,ruminants,3943,Animal,2737
Bovine Meat,2731,ruminants,3943,Animal,2731
Meat Other,2735,ruminants,3943,Animal,2735
Mutton & Goat Meat,2732,ruminants,3943,Animal,2732
Butter Ghee,2740,ruminants,3943,Animal,2740
Cream,2743,ruminants,3943,Animal,2743
Offals Edible,2736,ruminants,3943,Animal,2736
Eggs,2744,monogastrics,3944,Animal,2744
Pigmeat,2733,monogastrics,3944,Animal,2733
Poultry Meat,2734,monogastrics,3944,Animal,2734
Beer,2656,nonfood,5000,Vegetal,2656
Beverages Alcoholic,2658,nonfood,5000,Vegetal,2658
Beverages Fermented,2657,nonfood,5000,Vegetal,2657
Cocoa Beans and products,2633,nonfood,5000,Vegetal,2633
Coffee and products,2630,nonfood,5000,Vegetal,2630
Tea (including mate),2635,nonfood,5000,Vegetal,2635
Wine,2655,nonfood,5000,Vegetal,2655
Alcohol Non-Food,2659,nonfood,5000,Vegetal,2659
Aquatic Animals Others,5000,nonfood,5000,Animal,2769
Aquatic Plants,5000,nonfood,5000,Vegetal,2775
Cephalopods,2766,nonfood,5000,Animal,2766
Cloves,2642,nonfood,5000,Vegetal,2642
Crustaceans,2765,nonfood,5000,Animal,2765
Demersal Fish,5000,nonfood,5000,Animal,2762
Fish Body Oil,2781,nonfood,5000,Animal,2781
Fish Liver Oil,2782,nonfood,5000,Animal,2782
Freshwater Fish,5000,nonfood,5000,Animal,2761
Infant food,2680,nonfood,5000,Vegetal,2680
Marine Fish Other,5000,nonfood,5000,Animal,2764
Meat Aquatic Mammals,5000,nonfood,5000,Animal,2768
Miscellaneous,2899,nonfood,5000,Vegetal,2899
Molluscs Other,2767,nonfood,5000,Animal,2767
Pelagic Fish,5000,nonfood,5000,Animal,2763
Pimento,2641,nonfood,5000,Vegetal,2641
