Country,Year,fert
World,1961,11784.4
World,1962,13263.4
World,1963,14712.8
World,1964,15992
World,1965,18659.4
World,1966,21455.5
World,1967,23728
World,1968,26189.4
World,1969,28142.6
World,1970,31423.1
World,1971,33176.6
World,1972,36013.2
World,1973,38911.5
World,1974,38341.8
World,1975,42819.5
World,1976,46259.9
World,1977,49702.8
World,1978,53597.7
World,1979,57215.2
World,1980,60492.7
World,1981,60136.1
World,1982,61075.3
World,1983,66924.1
World,1984,70687.2
World,1985,70050.1
World,1986,72272.7
World,1987,75590.2
World,1988,79328.1
World,1989,78681.4
World,1990,76777.1
World,1991,75417
World,1992,73519.4
World,1993,72197
World,1994,72215.4
World,1995,78224.6
World,1996,82364
World,1997,81208.6
World,1998,82832.2
World,1999,84917.6
World,2000,82069.7
World,2001,82788.7
World,2002,86059.3
World,2003,87506.5
World,2004,90409.9
World,2005,92927.1
World,2006,96920.4
World,2007,100124.3
World,2008,97619
World,2009,101552.8
World,2010,104079.6
World,2011,106781.2
World,2012,107422.8
World,2013,109115.2
World,2014,109837
World,2015,106247.1
World,2016,106947.9
World,2017,106046.1
World,2018,105489.4
World,2019,107717.7
