"iter","Val"
"1",87610.450039591
"2",86089.569339736
"3",84595.0904915114
"4",83126.5551698359
"5",81683.5130059605
"6",80265.5214493487
"7",78872.1456319555
"8",77502.9582348632
"9",76157.5393572318
"10",74835.4763875231
"11",73536.363876963
"12",72259.8034151981
"13",71005.4035081114
"14",69772.7794577601
"15",68561.5532443966
"16",67371.3534105371
"17",66201.8149470445
"18",65052.5791811876
"19",63923.2936666428
"20",62813.6120754079
"21",61723.1940915888
"22",60651.705307033
"23",59598.8171187739
"24",58564.2066282541
"25",57547.5565423
"26",56548.5550758147
"27",55566.8958561597
"28",54602.2778291973
"29",53654.4051669634
"30",52722.9871769433
"31",51807.7382129227
"32",50908.377587386
"33",50024.6294854348
"34",50000
"35",49156.222880202
"36",48302.8914497337
"37",47464.3734953129
"38",46640.4118612029
"39",45830.7538557832
"40",45035.1511740532
"41",44253.3598214839
"42",43485.1400391884
"43",42730.2562303938
"44",41988.4768881888
"45",41259.5745245245
"46",40543.3256004496
"47",39839.5104575552
"48",39147.9132506104
"49",38468.3218813668
"50",37800.5279335132
"51",37144.3266087577
"52",36499.5166640212
"53",35865.9003497202
"54",35243.2833491208
"55",34631.4747187465
"56",34030.2868298195
"57",33439.5353107186
"58",32859.0389904371
"59",32288.6198430209
"60",31728.1029329718
"61",31177.3163615987
"62",30636.0912142995
"63",30104.261508759
"64",29581.6641440455
"65",29068.1388505909
"66",28563.5281410399
"67",28067.6772619514
"68",27580.4341463394
"69",27101.649367037
"70",26631.1760908704
"71",26168.870033628
"72",25714.5894158116
"73",25268.1949191559
"74",24829.5496439022
"75",24398.5190668143
"76",23974.9709999228
"77",23558.7755499864
"78",23149.8050786557
"79",22747.9341633297
"80",22353.0395586913
"81",21965.0001589103
"82",21583.696960503
"83",21209.0130258364
"84",20840.8334472657
"85",20479.0453118947
"86",20123.5376669478
"87",19774.201485743
"88",19430.9296342559
"89",19093.6168382639
"90",18762.1596510606
"91",18436.4564217312
"92",18116.4072639782
"93",17801.9140254885
"94",17492.8802578317
"95",17189.211186882
"96",16890.8136837526
"97",16597.5962362351
"98",16309.4689207349
"99",16026.3433746931
"100",15748.1327694879
"101",15474.7517838059
"102",15206.116577476
"103",14942.1447657575
"104",14682.755394074
"105",14427.8689131868
"106",14177.4071547985
"107",13931.2933075808
"108",13689.4518936177
"109",13451.8087452583
"110",13218.2909823709
"111",12988.8269899925
"112",12763.3463963658
"113",12541.7800513576
"114",12324.0600052522
"115",12110.1194879124
"116",11899.8928883027
"117",11693.3157343675
"118",11490.3246732592
"119",11290.8574519091
"120",11094.8528979357
"121",10902.2509008843
"122",10712.9923937925
"123",10527.0193350758
"124",10344.2746907271
"125",10164.7024168258
"126",10000
"127",9988.24744235034
"128",9814.855652289
"129",9644.47387104392
"130",9477.04984612341
"131",9312.53223211712
"132",9150.87057494947
"133",8992.01529640654
"134",8835.91767893141
"135",8682.52985068352
"136",8531.80477085741
"137",8383.69621525631
"138",8238.15876211609
"139",8095.14777817547
"140",7954.61940498784
"141",7816.53054547085
"142",7680.83885068945
"143",7547.50270686838
"144",7416.48122263
"145",7287.73421645395
"146",7161.22220435415
"147",7036.90638777002
"148",6914.74864166773
"149",6794.71150284801
"150",6676.75815845708
"151",6560.85243469689
"152",6446.9587857313
"153",6335.04228278504
"154",6225.06860343175
"155",6117.00402106795
"156",6010.81539456994
"157",5906.47015812999
"158",5803.93631126915
"159",5703.18240902338
"160",5604.17755230007
"161",5506.89137840184
"162",5411.29405171508
"163",5317.35625455991
"164",5225.04917819906
"165",5134.3445140029
"166",5045.21444476773
"167",5000
"168",4957.63163618486
"169",4871.56922845775
"170",4787.00082806464
"171",4703.90049966428
"172",4622.24275814208
"173",4542.00256079433
"174",4463.15529964817
"175",4385.67679391487
"176",4309.54328257402
"177",4234.73141708657
"178",4161.21825423437
"179",4088.98124908385
"180",4017.9982480721
"181",3948.24748221275
"182",3879.70756041992
"183",3812.35746294802
"184",3746.17653494543
"185",3681.14448012008
"186",3617.24135451506
"187",3554.44756039218
"188",3492.74384022178
"189",3432.11127077681
"190",3372.53125732955
"191",3313.98552794896
"192",3256.45612789705
"193",3199.92541412255
"194",3144.37604985019
"195",3089.79099926386
"196",3036.15352228203
"197",2983.44716942403
"198",2931.65577676524
"199",2880.76346098002
"200",2830.75461447059
"201",2781.61390058055
"202",2733.3262488914
"203",2685.87685060082
"204",2639.25115398107
"205",2593.43485991632
"206",2548.41391751738
"207",2504.17451981263
"208",2460.70309951367
"209",2417.98632485457
"210",2376.01109550325
"211",2334.76453854391
"212",2294.23400452916
"213",2254.40706360074
"214",2215.2715016775
"215",2176.81531670964
"216",2139.02671499791
"217",2101.89410757671
"218",2065.40610666007
"219",2029.55152214918
"220",1994.31935820067
"221",1959.69880985439
"222",1925.6792597198
"223",1892.25027471978
"224",1859.40160289107
"225",1827.12317024019
"226",1795.40507765397
"227",1764.2375978637
"228",1733.61117246197
"229",1703.51640897133
"230",1673.94407796379
"231",1644.88511023036
"232",1616.33059399973
"233",1588.27177220521
"234",1560.70003979909
"235",1533.60694111371
"236",1506.98416726824
"237",1480.82355362056
"238",1455.1170772633
"239",1429.85685456339
"240",1405.03513874436
"241",1380.64431751049
"242",1356.67691071236
"243",1333.1255680528
"244",1309.9830668327
"245",1287.242309736
"246",1264.89632265308
"247",1242.93825254191
"248",1221.36136532642
"249",1200.15904383128
"250",1179.32478575254
"251",1158.85220166353
"252",1138.73501305535
"253",1118.96705041137
"254",1099.54225131519
"255",1080.45465859144
"256",1061.69841847879
"257",1043.26777883476
"258",1025.15708737166
"259",1007.36078992315
"260",1000
"261",989.873428740865
"262",972.689640820693
"263",955.804156258013
"264",939.211796631541
"265",922.90747341522
"266",906.886186417667
"267",891.143022248731
"268",875.673152812654
"269",860.471833827396
"270",845.534403369666
"271",830.856280445207
"272",816.432963583905
"273",802.260029459278
"274",788.333131531938
"275",774.647998716604
"276",761.200434072239
"277",747.986313514948
"278",735.001584553205
"279",722.242265045034
"280",709.704441976781
"281",697.384270263064
"282",685.277971567575
"283",673.381833144341
"284",661.692206699102
"285",650.205507270457
"286",638.918212130436
"287",627.826859704146
"288",616.928048508187
"289",606.218436107483
"290",595.694738090232
"291",585.353727060645
"292",575.192231649168
"293",565.207135539899
"294",555.395376514869
"295",545.753945514933
"296",536.279885716949
"297",526.970291626989
"298",517.822308189281
"299",508.833129910622
"300",500
