"iter","i","Val"
"1","3001",0.542037128532094
"1","3002",0.216003966574461
"1","3003",0.132820259222615
"1","3005",0.00408296478822451
"1","3006",0.238190609519814
"1","3008",0.0946644892181019
"1","3010",0.0717393359097063
"1","5000",0.00779826448759617
"2","3001",0.542419140047297
"2","3002",0.215777888961658
"2","3003",0.13268442313974
"2","3005",0.00415791169161493
"2","3006",0.238003617030536
"2","3008",0.0945506457052527
"2","3010",0.0716420082850829
"2","5000",0.00794140943384954
"3","3001",0.542807281119085
"3","3002",0.215548183825952
"3","3003",0.132546407502262
"3","3005",0.0042340611537423
"3","3006",0.237813624157764
"3","3008",0.0944349755190544
"3","3010",0.0715431189923979
"3","5000",0.00808685120889743
"4","3001",0.54320165460236
"4","3002",0.215314790296952
"4","3003",0.13240617573692
"4","3005",0.00431143335372719
"4","3006",0.237620580554605
"4","3008",0.0943174480076473
"4","3010",0.0714426418266211
"4","5000",0.00823462835388029
"5","3001",0.543602367405002
"5","3002",0.215077645105679
"5","3003",0.13226368982929
"5","3005",0.00439004926584429
"5","3006",0.237424433890251
"5","3008",0.0941980313113412
"5","3010",0.0713405495501183
"5","5000",0.00838478092864431
"6","3001",0.544009333470596
"6","3002",0.214836799181041
"6","3003",0.132118980379409
"6","3005",0.00446989200667118
"6","3006",0.237225226288833
"6","3008",0.0940767510758672
"6","3010",0.0712368640880569
"6","5000",0.0085372766866725
"7","3001",0.544422647088566
"7","3002",0.214592196721766
"7","3003",0.131972013859737
"7","3005",0.00455098007486605
"7","3006",0.237022911596209
"7","3008",0.0939535792019691
"7","3010",0.0711315614176904
"7","5000",0.00869215095950374
"8","3001",0.544842549914824
"8","3002",0.214343694713864
"8","3003",0.131822704341994
"8","3005",0.00463336088094254
"8","3006",0.236817371523168
"8","3008",0.0938284436736039
"8","3010",0.0710245799707289
"8","5000",0.00884949429891695
"9","3001",0.545268809643802
"9","3002",0.214091430637713
"9","3003",0.131671134429655
"9","3005",0.00471698884883251
"9","3006",0.23660871978198
"9","3008",0.0937014137203123
"9","3010",0.0709159789332128
"9","5000",0.00900921965683506
"10","3001",0.545701673003693
"10","3002",0.213835258477504
"10","3003",0.131517216390832
"10","3005",0.00480191238418138
"10","3006",0.236396835600581
"10","3008",0.0935724158144572
"10","3010",0.0708056954445532
"10","5000",0.00917141948569035
"11","3001",0.546141148008725
"11","3002",0.213575173490349
"11","3003",0.131360947375817
"11","3005",0.00488813305930204
"11","3006",0.236181715056052
"11","3008",0.0934414475677128
"11","3010",0.0706937274629115
"11","5000",0.00933609678852412
"12","3001",0.546587226555889
"12","3002",0.213311180471677
"12","3003",0.131202330265888
"12","3005",0.00497564928446379
"12","3006",0.23596336211477
"12","3008",0.0933085113948624
"12","3010",0.0705800770527453
"12","5000",0.0095032485290279
"13","3001",0.547040081440814
"13","3002",0.213043177159589
"13","3003",0.131041303618179
"13","3005",0.00506449496046998
"13","3006",0.235741692194246
"13","3008",0.0931735558009626
"13","3010",0.0704647001897587
"13","5000",0.00967293945608995
"14","3001",0.547499694797998
"14","3002",0.212771174127037
"14","3003",0.130877873785328
"14","3005",0.00515466658228501
"14","3006",0.235516714039543
"14","3008",0.0930365861101236
"14","3010",0.0703476014256646
"14","5000",0.00984516287526247
"15","3001",0.547966083351034
"15","3002",0.212495161476861
"15","3003",0.130712034820739
"15","3005",0.00524616743091313
"15","3006",0.235288419464556
"15","3008",0.0928975973385363
"15","3010",0.0702287764996818
"15","5000",0.0100199250531043
"16","3001",0.548439233946121
"16","3002",0.212215146993588
"16","3003",0.130543791401657
"16","3005",0.00533899492570801
"16","3006",0.235056814907997
"16","3008",0.0927565934061738
"16","3010",0.070108228763092
"16","5000",0.0101972210607062
"17","3001",0.548919324309865
"17","3002",0.211931025497126
"17","3003",0.130373080331854
"17","3005",0.00543318393488256
"17","3006",0.23482181337369
"17","3008",0.0926135213486085
"17","3010",0.0699859129353007
"17","5000",0.0103771174946618
"18","3001",0.549406189900233
"18","3002",0.211642894364827
"18","3003",0.130199960119373
"18","3005",0.00552870217690745
"18","3006",0.234583495404038
"18","3008",0.0924684302011245
"18","3010",0.0698618709377807
"18","5000",0.0105595526988175
"19","3001",0.549900176955805
"19","3002",0.211350548689801
"19","3003",0.13002430764831
"19","3005",0.00562561758038792
"19","3006",0.2343416915172
"19","3008",0.0923212167809257
"19","3010",0.0697360145570168
"19","5000",0.0107446564135109
"20","3001",0.550400941379434
"20","3002",0.211054192111621
"20","3003",0.129846245273115
"20","3005",0.00572386263684701
"20","3006",0.234096570146795
"20","3008",0.0921719836326379
"20","3010",0.0696084314609368
"20","5000",0.0109322997008291
"21","3001",0.550908659209794
"21","3002",0.210753720449125
"21","3003",0.129665710397758
"21","3005",0.00582347188334164
"21","3006",0.233848045122883
"21","3008",0.0920206782948559
"21","3010",0.0694790767989923
"21","5000",0.0111225485248737
"22","3001",0.551423524783121
"22","3002",0.210449018692502
"22","3003",0.129482633919943
"22","3005",0.00592448344673048
"22","3006",0.233596021318969
"22","3008",0.0918672428533051
"22","3010",0.069347901058843
"22","5000",0.0113154757060935
"23","3001",0.551945369518192
"23","3002",0.210140186609531
"23","3003",0.129297075783971
"23","3005",0.00602686425303521
"23","3006",0.233340581254614
"23","3008",0.0917117275469909
"23","3010",0.0692149471910525
"23","5000",0.0115110180747958
"24","3001",0.55247417618795
"24","3002",0.209827234395329
"24","3003",0.129109042115457
"24","3005",0.00613061092247666
"24","3006",0.233081733362364
"24","3008",0.0915541375097602
"24","3010",0.0690802195846733
"24","5000",0.0117091691757666
"25","3001",0.553010188422893
"25","3002",0.209510017867327
"25","3003",0.128918446283996
"25","3005",0.00623577125296317
"25","3006",0.232819358386461
"25","3008",0.0913944001371219
"25","3010",0.0689436561683364
"25","5000",0.0119100203006898
"26","3001",0.55355315918513
"26","3002",0.209188683224618
"26","3003",0.128725376131598
"26","3005",0.00634229677808933
"26","3006",0.232553577250564
"26","3008",0.0912325890490067
"26","3010",0.068805319881535
"26","5000",0.0121134788810846
"27","3001",0.55410309942861
"27","3002",0.208863223984562
"27","3003",0.128529827763245
"27","3005",0.00645018964691228
"27","3006",0.232284384592776
"27","3008",0.0910687009810209
"27","3010",0.0686652079334583
"27","5000",0.0123195490215456
"28","3001",0.55466005766782
"28","3002",0.20853361143588
"28","3003",0.128331783928103
"28","3005",0.00655945937749732
"28","3006",0.232011756665529
"28","3008",0.0909027214753289
"28","3010",0.0685233079637466
"28","5000",0.0125282489011155
"29","3001",0.555224236801794
"29","3002",0.208199725501225
"29","3003",0.128131172479105
"29","3005",0.00667014577664004
"29","3006",0.231735594150886
"29","3008",0.090734590065851
"29","3010",0.0683795682784581
"29","5000",0.0127396545488409
"30","3001",0.555795422942404
"30","3002",0.207861692761382
"30","3003",0.12792806947083
"30","3005",0.00678220688159275
"30","3006",0.231456001745883
"30","3008",0.0905643704935343
"30","3010",0.0682340433712994
"30","5000",0.0129536858179113
"31","3001",0.556373618442906
"31","3002",0.207519511823675
"31","3003",0.127722474066508
"31","3005",0.00689564315404081
"31","3006",0.231172978298615
"31","3008",0.0903920620570839
"31","3010",0.068086732642716
"31","5000",0.0131703435901234
"32","3001",0.556958848849211
"32","3002",0.207173167569818
"32","3003",0.127514377182492
"32","3005",0.00701045960584131
"32","3006",0.230886511304502
"32","3008",0.0902176571435446
"32","3010",0.0679376295842051
"32","5000",0.0133896374378807
"33","3001",0.557551117905578
"33","3002",0.206822657783929
"33","3003",0.127303777487395
"33","3005",0.00712665697158068
"33","3006",0.230596598930751
"33","3008",0.0900411546370877
"33","3010",0.0677867332418172
"33","5000",0.0136115687642078
"34","3001",0.558150448947843
"34","3002",0.206467968655664
"34","3003",0.127090666683436
"34","3005",0.00724423982952071
"34","3006",0.2303032297546
"34","3008",0.0898625475833845
"34","3010",0.0676340376701253
"34","5000",0.0138361463133624
"35","3001",0.558756568607546
"35","3002",0.206109261966767
"35","3003",0.126875141975276
"35","3005",0.00736315454745715
"35","3006",0.230006537588374
"35","3008",0.0896819174491569
"35","3010",0.0674796125170375
"35","5000",0.0140632676504385
"36","3001",0.559369791145465
"36","3002",0.205746351735079
"36","3003",0.126657091617717
"36","3005",0.00748346278026482
"36","3006",0.229706368603189
"36","3008",0.0894991705813356
"36","3010",0.0673233777162371
"36","5000",0.0142930505332533
"37","3001",0.559989528637867
"37","3002",0.205379585898785
"37","3003",0.126436724665339
"37","3005",0.00760504918308787
"37","3006",0.229403010584407
"37","3008",0.0893144821874741
"37","3010",0.067165483056979
"37","5000",0.0145252746587329
"38","3001",0.560616424238933
"38","3002",0.205008583833859
"38","3003",0.126213812424656
"38","3005",0.00772803993645308
"38","3006",0.229096148711672
"38","3008",0.0891276606007552
"38","3010",0.0670057646785781
"38","5000",0.0147601810255566
"39","3001",0.561249850162452
"39","3002",0.204633717069434
"39","3003",0.125988578124594
"39","3005",0.00785231187487828
"39","3006",0.228786090282806
"39","3008",0.0889388929081769
"39","3010",0.0668443825263194
"39","5000",0.0149975343936338
"40","3001",0.561890179532691
"40","3002",0.204254764787446
"40","3003",0.125760889089207
"40","3005",0.00797793820167605
"40","3006",0.228472652655577
"40","3008",0.0887480679147213
"40","3010",0.0666812415368418
"40","5000",0.0152374745777372
"41","3001",0.562537096371304
"41","3002",0.203871913986527
"41","3003",0.12553085767443
"41","3005",0.00810485692500146
"41","3006",0.228155990499609
"41","3008",0.0885552797853114
"41","3010",0.0665164222140586
"41","5000",0.015479883176453
"42","3001",0.563191009569611
"42","3002",0.203484922681368
"42","3003",0.12529833848623
"42","3005",0.00823314826531153
"42","3006",0.2278359036649
"42","3008",0.0883604066659653
"42","3010",0.0663498203819977
"42","5000",0.0157249134069589
"43","3001",0.563850835349705
"43","3002",0.203094432260809
"43","3003",0.125063716895568
"43","3005",0.00836259959603649
"43","3006",0.227512922654642
"43","3008",0.0881637715340778
"43","3010",0.0661817121619933
"43","5000",0.0159721591628312
"44","3001",0.564517749655045
"44","3002",0.202699746791666
"44","3003",0.124826574759151
"44","3005",0.00849344162572114
"44","3006",0.227186471851124
"44","3008",0.087965023945935
"44","3010",0.0660117979510782
"44","5000",0.0162220610861879
"45","3001",0.565190682246397
"45","3002",0.202301499650478
"45","3003",0.124587292633848
"45","3005",0.00862546438395016
"45","3006",0.226857075130433
"45","3008",0.0877644828442629
"45","3010",0.0658403504212486
"45","5000",0.0164742181437312
"46","3001",0.565870016823875
"46","3002",0.201899463760305
"46","3003",0.12434573408314
"46","3005",0.00875874314891347
"46","3006",0.226524544673522
"46","3008",0.087562033882328
"46","3010",0.0656672718146642
"46","5000",0.0167287741131488
"47","3001",0.566367401616182
"47","3002",0.201605107276234
"47","3003",0.124168873441039
"47","3005",0.00885632515493532
"47","3006",0.226281077613651
"47","3008",0.0874138079002814
"47","3010",0.0655405497698237
"47","5000",0.0169151510063278
"48","3001",0.567247382646404
"48","3002",0.201084327135564
"48","3003",0.123855968799706
"48","3005",0.00902896878119474
"48","3006",0.225850331846022
"48","3008",0.0871515641517704
"48","3010",0.0653163511266499
"48","5000",0.0172448919493679
"49","3001",0.567945118578369
"49","3002",0.200671401169754
"49","3003",0.123607867074738
"49","3005",0.00916585771098848
"49","3006",0.225508794029529
"49","3008",0.0869436313896028
"49","3010",0.0651385842841072
"49","5000",0.0175063431583115
"50","3001",0.56864869152115
"50","3002",0.200255020812076
"50","3003",0.12335768981892
"50","3005",0.00930389180491564
"50","3006",0.225164399029053
"50","3008",0.0867339591358505
"50","3010",0.0649593303073419
"50","5000",0.0177699815751438
"51","3001",0.569358621984939
"51","3002",0.199834878020242
"51","3003",0.123105251948654
"51","3005",0.00944317318195819
"51","3006",0.224816892057782
"51","3008",0.0865223922729156
"51","3010",0.0647784565824968
"51","5000",0.0180360022421618
"52","3001",0.570073611455552
"52","3002",0.199411741265818
"52","3003",0.12285101519107
"52","3005",0.00958344708639981
"52","3006",0.224466908731109
"52","3008",0.0863093177718983
"52","3010",0.0645962939407016
"52","5000",0.0183039185883175
"53","3001",0.570794711452361
"53","3002",0.198984988250834
"53","3003",0.12259460564573
"53","3005",0.00972491981600326
"53","3006",0.224113934336212
"53","3008",0.086094422268791
"53","3010",0.0644125744793442
"53","5000",0.0185741246323206
"54","3001",0.571521556594128
"54","3002",0.198554835210967
"54","3003",0.122336153235305
"54","3005",0.00986751968656198
"54","3006",0.223758147725154
"54","3008",0.0858778146511063
"54","3010",0.0642273912890422
"54","5000",0.0188464834608172
"55","3001",0.572253742609658
"55","3002",0.198121521397296
"55","3003",0.122075801710999
"55","3005",0.0100111673840419
"55","3006",0.223399746786412
"55","3008",0.08565961539598
"55","3010",0.0640408473686681
"55","5000",0.0191208435878537
"56","3001",0.572991402718015
"56","3002",0.197684967969661
"56","3003",0.121813503702628
"56","3005",0.0101558890447141
"56","3006",0.223038666310002
"56","3008",0.0854397848027071
"56","3010",0.0638529087771108
"56","5000",0.0193972549324385
"57","3001",0.573734129663873
"57","3002",0.197245415945175
"57","3003",0.121549404022498
"57","3005",0.0103016047690873
"57","3006",0.222675105645118
"57","3008",0.0852184442377261
"57","3010",0.0636636792735294
"57","5000",0.0196755648904233
"58","3001",0.574481487549883
"58","3002",0.196803123291537
"58","3003",0.121283657667476
"58","3005",0.0104482290383876
"58","3006",0.222309278161061
"58","3008",0.0849957236031037
"58","3010",0.063473269914402
"58","5000",0.0199556101251023
"59","3001",0.575234816424182
"59","3002",0.196357296957044
"59","3003",0.121015788141744
"59","3005",0.0105960247568839
"59","3006",0.221940527911802
"59","3008",0.0847712235501791
"59","3010",0.0632813392867171
"59","5000",0.0202378927708632
"60","3001",0.575992540802256
"60","3002",0.195908869326617
"60","3003",0.120746355657852
"60","3005",0.010744682830005
"60","3006",0.221569626088154
"60","3008",0.0845454135901686
"60","3010",0.0630882887871841
"60","5000",0.0205218224720838
"61","3001",0.576754822648354
"61","3002",0.19545774454846
"61","3003",0.12047530262437
"61","3005",0.0108942350335439
"61","3006",0.221196493409527
"61","3008",0.0843182454559963
"61","3010",0.06289407715109
"61","5000",0.0208074599189857
"62","3001",0.577521867706741
"62","3002",0.195003800861394
"62","3003",0.120202555882522
"62","3005",0.0110447217325026
"62","3006",0.220821029165259
"62","3008",0.0840896578336726
"62","3010",0.0626986519595944
"62","5000",0.0210948822067629
"63","3001",0.578293941010995
"63","3002",0.194546881416329
"63","3003",0.119928021191371
"63","3005",0.0111961949238631
"63","3006",0.220443103622906
"63","3008",0.0838595717403604
"63","3010",0.0625019456883233
"63","5000",0.0213841886471261
"64","3001",0.579070631178959
"64","3002",0.194087229672668
"64","3003",0.119651844830646
"64","3005",0.0113485738984911
"64","3006",0.22006291815172
"64","3008",0.0836281097723369
"64","3010",0.0623040631478553
"64","5000",0.0216752250895478
"65","3001",0.579850767717629
"65","3002",0.193625538337972
"65","3003",0.119374443005561
"65","3005",0.0115016290171674
"65","3006",0.219681045701446
"65","3008",0.0833956207490228
"65","3010",0.0621053025525093
"65","5000",0.0219675529342699
"66","3001",0.580636104180332
"66","3002",0.193160769644701
"66","3003",0.119095192185658
"66","3005",0.0116557043098138
"66","3006",0.219296627917588
"66","3008",0.0831615820927922
"66","3010",0.0619052171377948
"66","5000",0.0222618292617381
"67","3001",0.581424726095289
"67","3002",0.192694056593281
"67","3003",0.11881477312096
"67","3005",0.0118104241758903
"67","3006",0.218910601923321
"67","3008",0.082926564336689
"67","3010",0.0617042946664708
"67","5000",0.0225573366931589
"68","3001",0.582218550104289
"68","3002",0.192224264899055
"68","3003",0.118532504289829
"68","3005",0.0119661646416718
"68","3006",0.218522029533262
"68","3008",0.0826899963009829
"68","3010",0.0615020468229102
"68","5000",0.0228547934204586
"69","3001",0.583015564428656
"69","3002",0.191752585149486
"69","3003",0.118249101042783
"69","3005",0.0121225310159614
"69","3006",0.218131895501765
"69","3008",0.0824524775172128
"69","3010",0.0612989861614001
"69","5000",0.0231534456026165
"70","3001",0.583962606000803
"70","3002",0.191192118018691
"70","3003",0.117912350938766
"70","3005",0.0123083312612151
"70","3006",0.217668323975833
"70","3008",0.0821702490107496
"70","3010",0.061057702056161
"70","5000",0.0235083150490853
"71","3001",0.584621458877689
"71","3002",0.190802203370395
"71","3003",0.117678075294118
"71","3005",0.012437591717896
"71","3006",0.217345819196227
"71","3008",0.0819739038144126
"71","3010",0.0608898417092037
"71","5000",0.0237551962448017
"72","3001",0.585430347961473
"72","3002",0.190323496038792
"72","3003",0.117390449606805
"72","3005",0.0125962878032319
"72","3006",0.216949872536747
"72","3008",0.0817328462254695
"72","3010",0.060683755635943
"72","5000",0.0240582980619334
"73","3001",0.586243271816911
"73","3002",0.189842400895545
"73","3003",0.117101389230864
"73","3005",0.012755775471097
"73","3006",0.216551950879223
"73","3008",0.0814905862314667
"73","3010",0.0604766415969655
"73","5000",0.0243629117632588
"74","3001",0.587058968814368
"74","3002",0.189359664583635
"74","3003",0.116811342777974
"74","3005",0.0129158072021611
"74","3006",0.21615267178427
"74","3008",0.0812474998115147
"74","3010",0.0602688210260781
"74","5000",0.0246685645988757
"75","3001",0.587878791451899
"75","3002",0.188874486683391
"75","3003",0.116519829325362
"75","3005",0.0130766483432447
"75","3006",0.215751373211693
"75","3008",0.0810031839067434
"75","3010",0.06005994933832
"75","5000",0.0249757633683274
"76","3001",0.588702399643189
"76","3002",0.18838706846074
"76","3003",0.116226969801299
"76","3005",0.0132382321727569
"76","3006",0.21534822163183
"76","3008",0.0807577398665078
"76","3010",0.0598501131797525
"76","5000",0.0252843806366147
"77","3001",0.589528489599722
"77","3002",0.187898181508642
"77","3003",0.115933227808369
"77","3005",0.0134003029002092
"77","3006",0.214943855241831
"77","3008",0.0805115562337155
"77","3010",0.0596396447252821
"77","5000",0.025593927856325
"78","3001",0.590359533696789
"78","3002",0.187406362654701
"78","3003",0.115637724216594
"78","3005",0.0135633455813257
"78","3006",0.21453706382789
"78","3008",0.0802638962141152
"78","3010",0.0594279140713464
"78","5000",0.0259053314603385
"79","3001",0.591193294115008
"79","3002",0.186912936259161
"79","3003",0.115341254752297
"79","3005",0.0137269211779459
"79","3006",0.214128942790014
"79","3008",0.0800154267017907
"79","3010",0.0592154913621322
"79","5000",0.0262177529070871
"80","3001",0.592030385568981
"80","3002",0.186417538528776
"80","3003",0.115043600834573
"80","3005",0.0138911502910305
"80","3006",0.213719191228862
"80","3008",0.0797659645052239
"80","3010",0.0590022199826961
"80","5000",0.0265314225385497
"81","3001",0.592871503331375
"81","3002",0.185919757995361
"81","3003",0.114744515237586
"81","3005",0.0140561693262411
"81","3006",0.213307468812371
"81","3008",0.0795153024257316
"81","3010",0.0587879227937778
"81","5000",0.0268466008829163
"82","3001",0.593715288707896
"82","3002",0.185420398745571
"82","3003",0.114444481087377
"82","3005",0.0142217117211159
"82","3006",0.21289444061376
"82","3008",0.0792638453687289
"82","3010",0.058572945958995
"82","5000",0.0271627788188287
"83","3001",0.594563553392053
"83","3002",0.184918388604024
"83","3003",0.114142854179937
"83","3005",0.0143881329121088
"83","3006",0.212479219819241
"83","3008",0.079011053430195
"83","3010",0.0583568279010952
"83","5000",0.0274806352126547
"84","3001",0.595416058724837
"84","3002",0.184413868811117
"84","3003",0.113839719377904
"84","3005",0.0145553860766686
"84","3006",0.212061923251057
"84","3008",0.0787569977330644
"84","3010",0.0581396294248277
"84","5000",0.0278000806355951
"85","3001",0.596271441160272
"85","3002",0.183907646324776
"85","3003",0.113535561532484
"85","3005",0.0147232037004813
"85","3006",0.211643218357299
"85","3008",0.0785020846286055
"85","3010",0.0579216979299059
"85","5000",0.0281206041482997
"86","3001",0.597130379105673
"86","3002",0.18339931965787
"86","3003",0.113230139414844
"86","3005",0.014891718880392
"86","3006",0.211222773061399
"86","3008",0.0782461119441903
"86","3010",0.0577028605739679
"86","5000",0.0284424599592802
"87","3001",0.597992821048458
"87","3002",0.182888919295978
"87","3003",0.112923471341885
"87","3005",0.0150609215101386
"87","3006",0.210800612578477
"87","3008",0.0779890950311189
"87","3010",0.0574831304812182
"87","5000",0.0287656287660664
"88","3001",0.598859531537416
"88","3002",0.182375992772726
"88","3003",0.112615285454493
"88","3005",0.0152309615866764
"88","3006",0.210376362666198
"88","3008",0.0777308060456839
"88","3010",0.0572623128624569
"88","5000",0.0290903970555596
"89","3001",0.599730388525282
"89","3002",0.181860612316706
"89","3003",0.112305625150371
"89","3005",0.015401815165532
"89","3006",0.209950083066012
"89","3008",0.0774712813592742
"89","3010",0.0570404388124803
"89","5000",0.0294167190949784
"90","3001",0.600606369579623
"90","3002",0.181342199395249
"90","3003",0.111994142824945
"90","3005",0.015573674035851
"90","3006",0.20952129526409
"90","3008",0.0772102296463103
"90","3010",0.0568172592698715
"90","5000",0.029744961192278
"91","3001",0.601486018384219
"91","3002",0.180821615868485
"91","3003",0.111681356316773
"91","3005",0.015746252482709
"91","3006",0.209090712119037
"91","3008",0.0769480849045853
"91","3010",0.0565931452700389
"91","5000",0.0300745776458263
"92","3001",0.602369054071393
"92","3002",0.180299027956258
"92","3003",0.111367365497096
"92","3005",0.0159194954026293
"92","3006",0.208658471114001
"92","3008",0.0766849308356676
"92","3010",0.0563681683715161
"92","5000",0.0304054632106585
"93","3001",0.603257986573667
"93","3002",0.179772950259488
"93","3003",0.111051277881294
"93","3005",0.0160938952196957
"93","3006",0.20822334365112
"93","3008",0.0764200194528495
"93","3010",0.0561416891020337
"93","5000",0.0307385583928639
"94","3001",0.604151280542249
"94","3002",0.179244291410444
"94","3003",0.110733639410412
"94","3005",0.01626915071357
"94","3006",0.207786081275
"94","3008",0.0761538083064751
"94","3010",0.0559140986326564
"94","5000",0.0310732878762232
"95","3001",0.605048689316063
"95","3002",0.178713197385215
"95","3003",0.110414537792473
"95","3005",0.0164452134917746
"95","3006",0.207346804724849
"95","3008",0.0758863709041799
"95","3010",0.0556854598068734
"95","5000",0.0314095592334536
"96","3001",0.605953072639464
"96","3002",0.178177975763151
"96","3003",0.110092956156372
"96","3005",0.0166226446080354
"96","3006",0.206904114171882
"96","3008",0.0756168550115933
"96","3010",0.0554550440285191
"96","5000",0.0317484440499285
"97","3001",0.606861187487409
"97","3002",0.177640545793624
"97","3003",0.10977004766059
"97","3005",0.0168008078127235
"97","3006",0.206459597058626
"97","3008",0.0753462270848261
"97","3010",0.0552236775447397
"97","5000",0.0320887271197515
"98","3001",0.607774350305904
"98","3002",0.177100128392864
"98","3003",0.10944534420178
"98","3005",0.0169799613796026
"98","3006",0.206012608992163
"98","3008",0.0750740948089037
"98","3010",0.0549910249557951
"98","5000",0.0324309017332697
"99","3001",0.608694030214533
"99","3002",0.176555854123603
"99","3003",0.109118323388754
"99","3005",0.0171603935354909
"99","3006",0.205562430846713
"99","3008",0.0748000203704939
"99","3010",0.0547567119642787
"99","5000",0.0327755183897107
"100","3001",0.609620043850355
"100","3002",0.176007831501565
"100","3003",0.108789050421911
"100","3005",0.0173420683063817
"100","3006",0.205109152377407
"100","3008",0.0745240584137132
"100","3010",0.0545207852867921
"100","5000",0.0331225083804684
"101","3001",0.610552307265276
"101","3002",0.175456110207935
"101","3003",0.108457555151609
"101","3005",0.017524969222485
"101","3006",0.204652814676363
"101","3008",0.0742462339559893
"101","3010",0.054283266311351
"101","5000",0.0334718402490435
"102","3001",0.611490667793158
"102","3002",0.17490078059181
"102","3003",0.108123891863044
"102","3005",0.0177090663322049
"102","3006",0.204193492472799
"102","3008",0.0739665924934632
"102","3010",0.0540441939337273
"102","5000",0.0338234567893425
"103","3001",0.612434942996895
"103","3002",0.174341950620999
"103","3003",0.107788125427408
"103","3005",0.0178943238431752
"103","3006",0.203731275068653
"103","3008",0.0736851883943414
"103","3010",0.0538036146346406
"103","5000",0.0341772896396835
"104","3001",0.613386789707202
"104","3002",0.173778639769213
"104","3003",0.107449666706976
"104","3005",0.0180810668092925
"104","3006",0.203265351454602
"104","3008",0.0734015279053693
"104","3010",0.0535611062922658
"104","5000",0.0345339596372257
"105","3001",0.614346129304357
"105","3002",0.173210894564261
"105","3003",0.107108543657439
"105","3005",0.0182692798061399
"105","3006",0.202795760114559
"105","3008",0.0731156344560647
"105","3010",0.053316688937075
"105","5000",0.0348934373220817
"106","3001",0.615312828615792
"106","3002",0.172638793818785
"106","3003",0.106764803632446
"106","3005",0.0184589367065694
"106","3006",0.202322566235748
"106","3008",0.0728275477332751
"106","3010",0.0530703964983322
"106","5000",0.0352556727926673
"107","3001",0.616286729274772
"107","3002",0.172062431255544
"107","3003",0.106418502944219
"107","3005",0.0186500064405843
"107","3006",0.201845847337794
"107","3008",0.0725373149319797
"107","3010",0.0528222693241883
"107","5000",0.0356206067067976
"108","3001",0.617267635572936
"108","3002",0.171481922696384
"108","3003",0.106069711182956
"108","3005",0.0188424506121286
"108","3006",0.201365699218841
"108","3008",0.0722449943753607
"108","3010",0.0525723572765689
"108","5000",0.03598816572987
"109","3001",0.618257469585119
"109","3002",0.170896130641328
"109","3003",0.105717744895134
"109","3005",0.0190366463133871
"109","3006",0.200881181034062
"109","3008",0.0719500132645828
"109","3010",0.0523201706556339
"109","5000",0.0363590700896469
"110","3001",0.619253914525462
"110","3002",0.17030642618364
"110","3003",0.105363427886064
"110","3005",0.019232139013753
"110","3006",0.200393426837109
"110","3008",0.0716530620265831
"110","3010",0.0520662997243865
"110","5000",0.03673245165474
"111","3001",0.620261216758993
"111","3002",0.16971029628895
"111","3003",0.105005250228509
"111","3005",0.0194297618082945
"111","3006",0.199900358056174
"111","3008",0.0713528751992171
"111","3010",0.051809662608054
"111","5000",0.0371099015962769
"112","3001",0.621277044666558
"112","3002",0.169109120828991
"112","3003",0.104644041002223
"112","3005",0.0196290572562581
"112","3006",0.199403116005725
"112","3008",0.0710501476299027
"112","3010",0.0515508533488172
"112","5000",0.0374905462246304
"113","3001",0.622301184548869
"113","3002",0.168503026272793
"113","3003",0.104279876194637
"113","3005",0.0198299834319444
"113","3006",0.198901805290363
"113","3008",0.0707449430033109
"113","3010",0.051289926392271
"113","5000",0.0378743054637505
"114","3001",0.623335859036747
"114","3002",0.167890697248826
"114","3003",0.103911965480193
"114","3005",0.020032976393668
"114","3006",0.198395337944793
"114","3008",0.0704365989517109
"114","3010",0.0510263154639193
"114","5000",0.0382620121638442
"115","3001",0.624378405409236
"115","3002",0.167273709577646
"115","3003",0.103541255672194
"115","3005",0.0202375137417568
"115","3006",0.197885017355958
"115","3008",0.0701259089943956
"115","3010",0.0507606989629605
"115","5000",0.038652668566904
"116","3001",0.625431100551119
"116","3002",0.166650715779774
"116","3003",0.103166937153394
"116","3005",0.0204440421786194
"116","3006",0.197369729001552
"116","3008",0.0698121945953735
"116","3010",0.0504924967922541
"116","5000",0.0390471278528399
"117","3001",0.626493752891233
"117","3002",0.16602182922863
"117","3003",0.102789078042884
"117","3005",0.0206525241198768
"117","3006",0.196849566654586
"117","3008",0.0694955128448986
"117","3010",0.050221757759665
"117","5000",0.0394453182373129
"118","3001",0.62756612114176
"118","3002",0.165387192720365
"118","3003",0.102407764138056
"118","3005",0.0208629122272315
"118","3006",0.196324648424089
"118","3008",0.0691759356493181
"118","3010",0.0499485433397019
"118","5000",0.0398471493064733
"119","3001",0.628650799884714
"119","3002",0.164745270759621
"119","3003",0.102022072854529
"119","3005",0.0210757155321651
"119","3006",0.19579370427675
"119","3008",0.068852689795472
"119","3010",0.0496721924933791
"119","5000",0.0402535932857339
"120","3001",0.629744721498715
"120","3002",0.164097878790413
"120","3003",0.101633094980552
"120","3005",0.0212903321975232
"120","3006",0.195258235795992
"120","3008",0.0685266894673055
"120","3010",0.0493934867790804
"120","5000",0.0406635006953533
"121","3001",0.630847480541198
"121","3002",0.163445256757044
"121","3003",0.101240974683847
"121","3005",0.021506682679461
"121","3006",0.194718441443669
"121","3008",0.0681980554910342
"121","3010",0.0491125294941149
"121","5000",0.0410767196104504
"122","3001",0.631961843645342
"122","3002",0.162785767342837
"122","3003",0.100844728201887
"122","3005",0.0217253097642069
"122","3006",0.194172966968393
"122","3008",0.067865963380413
"122","3010",0.0488286157648735
"122","5000",0.0414942867263652
"123","3001",0.63309057775547
"123","3002",0.162117773046979
"123","3003",0.100443371661506
"123","3005",0.0219467562990327
"123","3006",0.193620457966473
"123","3008",0.0675295885564724
"123","3010",0.0485410406384749
"123","5000",0.0419172388550276
"124","3001",0.634227262681692
"124","3002",0.161445073391594
"124","3003",0.100039187961025
"124","3005",0.0221697627058049
"124","3006",0.193064057084769
"124","3008",0.0671908443043908
"124","3010",0.0482514398295678
"124","5000",0.0423431702633644
"125","3001",0.63537442439496
"125","3002",0.160766173485927
"125","3003",0.0996312789128594
"125","3005",0.0223948245551888
"125","3006",0.192502527874699
"125","3008",0.0668489778578382
"125","3010",0.0479591697796661
"125","5000",0.0427730274672828
"126","3001",0.636535412796893
"126","3002",0.160079090830153
"126","3003",0.0992184533552366
"126","3005",0.0226225990649464
"126","3006",0.191934230578252
"126","3008",0.0665029909103426
"126","3010",0.0476633770119651
"126","5000",0.0432080657207952
"127","3001",0.637706208477677
"127","3002",0.159386204144652
"127","3003",0.0988021405144039
"127","3005",0.0228522976663907
"127","3006",0.191361132673937
"127","3008",0.0661540812889704
"127","3010",0.0473650855783424
"127","5000",0.0436467788960007
"128","3001",0.638890213245832
"128","3002",0.158685500210661
"128","3003",0.0983811307714746
"128","3005",0.0230845877609069
"128","3006",0.190781568995607
"128","3008",0.0658012352184393
"128","3010",0.0470634287773264
"128","5000",0.0440904416971372
"129","3001",0.640083115734789
"129","3002",0.15797953053101
"129","3003",0.0979569571670065
"129","3005",0.0233186235007631
"129","3006",0.190197649932961
"129","3008",0.065445737532048
"129","3010",0.0467595050445667
"129","5000",0.0445374385961094
"130","3001",0.641288261403089
"130","3002",0.157266315235326
"130","3003",0.0975284301191008
"130","3005",0.023555061232033
"130","3006",0.18960773790285
"130","3008",0.0650865912474091
"130","3010",0.0464524620352514
"130","5000",0.0449890231820475
"131","3001",0.642509268158031
"131","3002",0.156543713215783
"131","3003",0.0970942631682243
"131","3005",0.0237946107525575
"131","3006",0.189010061959988
"131","3008",0.0647227181894952
"131","3010",0.0461413779909796
"131","5000",0.0454465511343616
"132","3001",0.643737715454815
"132","3002",0.155816707821288
"132","3003",0.0966574505011375
"132","3005",0.024035620034237
"132","3006",0.18840874391372
"132","3008",0.0643566277706194
"132","3010",0.0458283982701783
"132","5000",0.0459068671595995
"133","3001",0.644977071682351
"133","3002",0.155083246430247
"133","3003",0.0962167588242231
"133","3005",0.0242787695408747
"133","3006",0.187802086007172
"133","3008",0.063987286373831
"133","3010",0.0455126392082443
"133","5000",0.0463712709105841
"134","3001",0.646230983298963
"134","3002",0.154341171038096
"134","3003",0.0957708915257419
"134","3005",0.0245247746717422
"134","3006",0.187188303319491
"134","3008",0.0636136073155916
"134","3010",0.0451931717726414
"134","5000",0.0468411287651862
"135","3001",0.647494840779092
"135","3002",0.153593209600652
"135","3003",0.0953214876659605
"135","3005",0.0247727310832452
"135","3006",0.186569652187528
"135","3008",0.0632369642837651
"135","3010",0.0448711703629764
"135","5000",0.0473147134710529
"136","3001",0.648772447997908
"136","3002",0.152837110952742
"136","3003",0.0948671946586807
"136","3005",0.0250233850582929
"136","3006",0.18594427063577
"136","3008",0.0628562236829108
"136","3010",0.0445456658405717
"136","5000",0.0477934503923034
"137","3001",0.650058551779829
"137","3002",0.152075983967658
"137","3003",0.0944098804339665
"137","3005",0.0252757059754843
"137","3006",0.185314730064134
"137","3008",0.0624729510154764
"137","3010",0.0442179965920489
"137","5000",0.0482753710921063
"138","3001",0.651357399880256
"138","3002",0.151307314788188
"138","3003",0.0939480345701888
"138","3005",0.0255305272026662
"138","3006",0.184678951220229
"138","3008",0.0620858804049696
"138","3010",0.0438870803883993
"138","5000",0.0487620672625826
"139","3001",0.65266851047528
"139","3002",0.150531388561757
"139","3003",0.0934818283948343
"139","3005",0.0257877542107245
"139","3006",0.18403716995415
"139","3008",0.0616951554400634
"139","3010",0.0435530399871182
"139","5000",0.0492533583577145
"140","3001",0.65399110552688
"140","3002",0.14974866573778
"140","3003",0.0930115385635346
"140","3005",0.0260472343562492
"140","3006",0.183389767111135
"140","3008",0.0613010079844006
"140","3010",0.0432160736141474
"140","5000",0.0497489528360007
"141","3001",0.655324630685308
"141","3002",0.148959474385077
"141","3003",0.092537362192594
"141","3005",0.0263088588812702
"141","3006",0.18273701404227
"141","3008",0.060903603240128
"141","3010",0.0428763225048736
"141","5000",0.0502486429749996
"142","3001",0.65666836718664
"142","3002",0.148164239874157
"142","3003",0.0920595548608955
"142","3005",0.0265724867713719
"142","3006",0.182079262578454
"142","3008",0.060503155406575
"142","3010",0.042533969783582
"142","5000",0.0507521594440246
"143","3001",0.658021527118236
"143","3002",0.147363428498316
"143","3003",0.0915783967352982
"143","3005",0.0268379634458416
"143","3006",0.181416898398497
"143","3008",0.0600998992901254
"143","3010",0.0421892161920364
"143","5000",0.0512592070014204
"144","3001",0.659383252830545
"144","3002",0.146557547821739
"144","3003",0.0910941927797913
"144","3005",0.0271051206422694
"144","3006",0.180750341317031
"144","3008",0.0596940904795086
"144","3010",0.0418422802393403
"144","5000",0.0517694642741544
"145","3001",0.660758786062099
"145","3002",0.14574349573968
"145","3003",0.0906050791311111
"145","3005",0.027374986738219
"145","3006",0.180077025532512
"145","3008",0.0592841668806408
"145","3010",0.0414918264527662
"145","5000",0.0522848954134382
"146","3001",0.662147638392086
"146","3002",0.144921561303663
"146","3003",0.0901112294624767
"146","3005",0.0276474659103295
"146","3006",0.179397190124181
"146","3008",0.0588702740481417
"146","3010",0.0411379792705454
"146","5000",0.0528053174013052
"147","3001",0.663542750082432
"147","3002",0.144095922525784
"147","3003",0.0896151540834681
"147","3005",0.0279211731074012
"147","3006",0.17871429079414
"147","3008",0.0584545158593821
"147","3010",0.0407825373492887
"147","5000",0.0533280848572185
"148","3001",0.664949648801057
"148","3002",0.143263308085892
"148","3003",0.0891148874597287
"148","3005",0.0281971928035325
"148","3006",0.178025621780015
"148","3008",0.0580352450102656
"148","3010",0.0404240923681292
"148","5000",0.0538552690740468
"149","3001",0.666360889314382
"149","3002",0.142428124135548
"149","3003",0.0886130769757624
"149","3005",0.0284740643170958
"149","3006",0.177334827481792
"149","3008",0.0576146802599421
"149","3010",0.0400645411989417
"149","5000",0.0543840802208082
"150","3001",0.667789214618104
"150","3002",0.141582829263216
"150","3003",0.0881051914628713
"150","3005",0.0287542876985596
"150","3006",0.176635670274708
"150","3008",0.0571890240595501
"150","3010",0.03970063722362
"150","5000",0.0549192932725018
"151","3001",0.669219956914352
"151","3002",0.140736103994475
"151","3003",0.0875964465130685
"151","3005",0.029034985270193
"151","3006",0.175935329963369
"151","3008",0.0567626475695632
"151","3010",0.0393361174549734
"151","5000",0.0554554120043942
"152","3001",0.670666577772972
"152","3002",0.139879981659589
"152","3003",0.0870820554462544
"152","3005",0.0293187980596481
"152","3006",0.175227217185008
"152","3008",0.0563315390983463
"152","3010",0.0389675521989612
"152","5000",0.0559974806510589
"153","3001",0.672113558766965
"153","3002",0.139023646193575
"153","3003",0.0865675363221009
"153","3005",0.0296026815041223
"153","3006",0.174518928122406
"153","3008",0.055900323302941
"153","3010",0.0385988951888555
"153","5000",0.0565396842453795
"154","3001",0.67357476805206
"154","3002",0.138158890305771
"154","3003",0.0860479578862449
"154","3005",0.0298893563994199
"154","3006",0.173803674391292
"154","3008",0.0554648673247755
"154","3010",0.0382266131420157
"154","5000",0.0570872193752273
"155","3001",0.675041972260861
"155","3002",0.137290586571929
"155","3003",0.0855262477686964
"155","3005",0.0301772074398071
"155","3006",0.173085486178724
"155","3008",0.0550276247952974
"155","3010",0.0378528037284321
"155","5000",0.0576370008850859
"156","3001",0.676514004329238
"156","3002",0.136419425670373
"156","3003",0.0850028209554269
"156","3005",0.0304660056587763
"156","3006",0.172364934756031
"156","3008",0.0545889435120859
"156","3010",0.0374777642888261
"156","5000",0.0581885914600434
"157","3001",0.677998153311028
"157","3002",0.13554109387802
"157","3003",0.0844750855965008
"157","3005",0.030757181097025
"157","3006",0.171638452172337
"157","3008",0.0541466512592231
"157","3010",0.0370996377422786
"157","5000",0.0587447224083936
"158","3001",0.67948526808688
"158","3002",0.134661006903911
"158","3003",0.083946295657197
"158","3005",0.0310489383949094
"158","3006",0.17091051784912
"158","3008",0.053703475168044
"158","3010",0.0367207555805739
"158","5000",0.0593019646803942
"159","3001",0.680982817584092
"159","3002",0.133774744574345
"159","3003",0.0834137953279733
"159","3005",0.0313427428825315
"159","3006",0.170177475788455
"159","3008",0.0532571894184179
"159","3010",0.0363392148952302
"159","5000",0.0598631169853878
"160","3001",0.68248102253091
"160","3002",0.132888094344215
"160","3003",0.0828810619332433
"160","3005",0.0316366759629223
"160","3006",0.169444112888892
"160","3008",0.0528107083378061
"160","3010",0.0359575072166133
"160","5000",0.0604245148963253
"161","3001",0.683987939556889
"161","3002",0.131996288232702
"161","3003",0.0823452306876379
"161","3005",0.0319323182675881
"161","3006",0.168706485475554
"161","3008",0.0523616309645268
"161","3010",0.0355735799034136
"161","5000",0.0609891773426329
"162","3001",0.685502709450059
"162","3002",0.131099834728643
"162","3003",0.0818066071107122
"162","3005",0.0322295012275883
"162","3006",0.167965014127869
"162","3008",0.0519102133529265
"162","3010",0.0351876518628017
"162","5000",0.0615567823658191
"163","3001",0.687014755728486
"163","3002",0.13020499308259
"163","3003",0.0812689519997704
"163","3005",0.0325261498411544
"163","3006",0.16722487597429
"163","3008",0.0514596074076178
"163","3010",0.0348024177357049
"163","5000",0.0621233668132624
"164","3001",0.688542458976409
"164","3002",0.129300885510913
"164","3003",0.0807257295660611
"164","3005",0.032825870198198
"164","3006",0.166477073822156
"164","3008",0.0510043355181242
"164","3010",0.0344131945779397
"164","5000",0.0626958181415922
"165","3001",0.690065173916368
"165","3002",0.12839973006165
"165","3003",0.0801842808804904
"165","3005",0.0331246118982634
"165","3006",0.16573171341873
"165","3008",0.0505505501976977
"165","3010",0.0340252423247041
"165","5000",0.0632664002826147
"166","3001",0.691591663478236
"166","3002",0.127496340759541
"166","3003",0.0796414900106294
"166","3005",0.0334240941420359
"166","3006",0.164984505359097
"166","3008",0.0500956399996152
"166","3010",0.0336363283858395
"166","5000",0.0638383968261587
"167","3001",0.693131565511483
"167","3002",0.126585013844584
"167","3003",0.0790939299191575
"167","3005",0.0337262077808231
"167","3006",0.16423073197012
"167","3008",0.049636732741766
"167","3010",0.0332439972620793
"167","5000",0.0644154192064074
"168","3001",0.694662826009623
"168","3002",0.125678801062449
"168","3003",0.078549442594428
"168","3005",0.0340266260353847
"168","3006",0.163481188564002
"168","3008",0.049180400753703
"168","3010",0.0328538677999228
"168","5000",0.0649892034851085
"169","3001",0.696205639764989
"169","3002",0.124765750965966
"169","3003",0.0780008471495405
"169","3005",0.034329310925424
"169","3006",0.162725989903415
"169","3008",0.0487206257715541
"169","3010",0.0324607948372752
"169","5000",0.0655673169275102
"170","3001",0.69774834348468
"170","3002",0.123852765989516
"170","3003",0.077452290831262
"170","3005",0.0346319742275456
"170","3006",0.161970845104674
"170","3008",0.0482608835812123
"170","3010",0.0320677499091515
"170","5000",0.0661453891380373
"171","3001",0.699289831209637
"171","3002",0.122940500648931
"171","3003",0.0769041668977543
"171","3005",0.0349343989634559
"171","3006",0.161216295528519
"171","3008",0.0478015037702925
"171","3010",0.0316750147881261
"171","5000",0.066723005698685
"172","3001",0.700840540833516
"172","3002",0.12202277771136
"172","3003",0.0763527638310887
"172","3005",0.035238632945266
"172","3006",0.160457231884681
"172","3008",0.0473393757349695
"172","3010",0.0312799301423327
"172","5000",0.0673040778311492
"173","3001",0.702387875532101
"173","3002",0.121107052082831
"173","3003",0.0758025608241429
"173","3005",0.0355422047999153
"173","3006",0.159699820247803
"173","3008",0.0468782534634409
"173","3010",0.0308857053487927
"173","5000",0.0678838853328875
"174","3001",0.703930507162659
"174","3002",0.120194109769334
"174","3003",0.0752540301393989
"174","3005",0.0358448539588579
"174","3006",0.158944710736286
"174","3008",0.0464185327564306
"174","3010",0.0304926787872986
"174","5000",0.0684619305306295
"175","3001",0.705479611981018
"175","3002",0.119277336569105
"175","3003",0.0747031977112794
"175","3005",0.0361487730936033
"175","3006",0.158186432635729
"175","3008",0.045956882970298
"175","3010",0.0300980030085238
"175","5000",0.069042401320488
"176","3001",0.707021819768446
"176","3002",0.11836464508952
"176","3003",0.0741548177371507
"176","3005",0.0364513390986909
"176","3006",0.157431530593042
"176","3008",0.0454972885730687
"176","3010",0.0297050844323741
"176","5000",0.0696202876984049
"177","3001",0.708568720727163
"177","3002",0.117449176151877
"177","3003",0.0736047689599134
"177","3005",0.0367548258578427
"177","3006",0.156674331269391
"177","3008",0.0450362955606547
"177","3010",0.0293109701456366
"177","5000",0.0701999326718747
"178","3001",0.710119614709564
"178","3002",0.116531344109389
"178","3003",0.0730533003388378
"178","3005",0.0370590960089822
"178","3006",0.155915177383093
"178","3008",0.0445741125845225
"178","3010",0.0289158385295915
"178","5000",0.0707810738860019
"179","3001",0.711660003707715
"179","3002",0.115619729004526
"179","3003",0.0725055670918399
"179","3005",0.0373613051854956
"179","3006",0.155161165627534
"179","3008",0.0441150602059296
"179","3010",0.0285233833385313
"179","5000",0.0713582787386685
"180","3001",0.713202275268324
"180","3002",0.114706999783439
"180","3003",0.0719571644411723
"180","3005",0.0376638837022543
"180","3006",0.154406232368233
"180","3008",0.0436554468036112
"180","3010",0.0281304485144627
"180","5000",0.0719361890132693
"181","3001",0.714745813271845
"181","3002",0.113793521070834
"181","3003",0.0714083114673138
"181","3005",0.0379667106826609
"181","3006",0.153650679192246
"181","3008",0.0431954559877744
"181","3010",0.0277371910302764
"181","5000",0.072514573841373
"182","3001",0.716289516132432
"182","3002",0.112879944794439
"182","3003",0.0708593998733953
"182","3005",0.0382695700064028
"182","3006",0.152895045319652
"182","3008",0.042735416042771
"182","3010",0.0273438915443549
"182","5000",0.0730930204436766
"183","3001",0.717832608435935
"183","3002",0.111966729850836
"183","3003",0.0703107053820491
"183","3005",0.0385723095448478
"183","3006",0.152139710311319
"183","3008",0.0422755580503015
"183","3010",0.0269507476141386
"183","5000",0.0736712382618797
"184","3001",0.719359237615555
"184","3002",0.111063257921773
"184","3003",0.0697678648667512
"184","3005",0.0388718191802505
"184","3006",0.151392433909581
"184","3008",0.0418206062446372
"184","3010",0.026561798103927
"184","5000",0.0742432871221075
"185","3001",0.720882902706331
"185","3002",0.110161540165302
"185","3003",0.0692260783254877
"185","3005",0.0391707472905646
"185","3006",0.150646608412671
"185","3008",0.041366537769116
"185","3010",0.026173603774423
"185","5000",0.0748142252976532
"186","3001",0.722418136397138
"186","3002",0.109252976014484
"186","3003",0.0686801782084553
"186","3005",0.0394719450464634
"186","3006",0.149895120151077
"186","3008",0.0409090217271899
"186","3010",0.0257824620354397
"186","5000",0.0753894983860578
"187","3001",0.723933254819376
"187","3002",0.108356316248005
"187","3003",0.0681414307011727
"187","3005",0.0397691963844401
"187","3006",0.149153478200372
"187","3008",0.0404575002502035
"187","3010",0.0253964451977498
"187","5000",0.0759572340078589
"188","3001",0.725458493504507
"188","3002",0.10745366722522
"188","3003",0.067599084619464
"188","3005",0.0400684332184953
"188","3006",0.148406882437871
"188","3008",0.0400029628267526
"188","3010",0.0250078499531042
"188","5000",0.0765287618307594
"189","3001",0.726961053248774
"189","3002",0.106564439789503
"189","3003",0.0670648027409751
"189","3005",0.0403632206673295
"189","3006",0.147671387889437
"189","3008",0.0395551839699757
"189","3010",0.0246250327736622
"189","5000",0.0770917915439381
"190","3001",0.728472200690839
"190","3002",0.105670130082334
"190","3003",0.0665274672392745
"190","3005",0.0406596929380386
"190","3006",0.146931689711204
"190","3008",0.0391048458875058
"190","3010",0.0242400276491072
"190","5000",0.0776580391850874
"191","3001",0.729974836421755
"191","3002",0.104780857677081
"191","3003",0.0659931583413677
"191","3005",0.0409544952947062
"191","3006",0.146196157967733
"191","3008",0.0386570443858957
"191","3010",0.0238571911100393
"191","5000",0.078221097371504
"192","3001",0.731467886577915
"192","3002",0.103897258095217
"192","3003",0.0654622578928795
"192","3005",0.041247417055851
"192","3006",0.14546531830922
"192","3008",0.0382120994879727
"192","3010",0.0234767967518598
"192","5000",0.0787805637117888
"193","3001",0.732950240288089
"193","3002",0.103019988759635
"193","3003",0.0649351608986474
"193","3005",0.0415382402794596
"193","3006",0.14473971450089
"193","3008",0.0377703422452317
"193","3010",0.0230991275986499
"193","5000",0.0793360219472788
"194","3001",0.73443841385155
"194","3002",0.102139275186155
"194","3003",0.0644059944744585
"194","3005",0.041830205301063
"194","3006",0.14401126190709
"194","3008",0.0373268506240333
"194","3010",0.0227199756825559
"194","5000",0.0798936609614963
"195","3001",0.735914152257894
"195","3002",0.101265920842762
"195","3003",0.0638812497573794
"195","3005",0.042119730667101
"195","3006",0.143288896252798
"195","3008",0.0368870648125101
"195","3010",0.0223439919544768
"195","5000",0.080446640352047
"196","3001",0.737376401547803
"196","3002",0.100400549471402
"196","3003",0.0633613015154454
"196","3005",0.042406609601118
"196","3006",0.142573133445173
"196","3008",0.0364512989017987
"196","3010",0.0219714449386658
"196","5000",0.0809945651859413
"197","3001",0.738842263134564
"197","3002",0.0995330403125242
"197","3003",0.0628400688089471
"197","3005",0.0426941972322615
"197","3006",0.141855602438546
"197","3008",0.0360144564880328
"197","3010",0.0215979775938647
"197","5000",0.0815438435969348
"198","3001",0.740292648771408
"198","3002",0.098674689950368
"198","3003",0.0623243390580714
"198","3005",0.0429787486341891
"198","3006",0.141145646822407
"198","3008",0.0355822260726833
"198","3010",0.0212284531601651
"198","5000",0.0820873229575571
"199","3001",0.741745368972675
"199","3002",0.0978149579734423
"199","3003",0.061807779180161
"199","3005",0.0432637580547032
"199","3006",0.140434548450107
"199","3008",0.0351492999321942
"199","3010",0.0208583339338985
"199","5000",0.0826316771114394
"200","3001",0.743180793238071
"200","3002",0.0969654618761615
"200","3003",0.0612973694105187
"200","3005",0.0435453741826512
"200","3006",0.139731916341189
"200","3008",0.0347215281653797
"200","3010",0.0204926213087077
"200","5000",0.0831695502412898
"201","3001",0.744597685417447
"201","3002",0.0961269332225342
"201","3003",0.0607935493008015
"201","3005",0.0438233544975272
"201","3006",0.139038355584203
"201","3008",0.0342992791581919
"201","3010",0.0201316302268211
"201","5000",0.0837004791447181
"202","3001",0.746014557045139
"202","3002",0.0952884167315649
"202","3003",0.0602897364988747
"202","3005",0.044101330780365
"202","3006",0.138344804887151
"202","3008",0.0338770362756253
"202","3010",0.0197706443810241
"202","5000",0.0842314003471493
"203","3001",0.747431118456679
"203","3002",0.0944500838291117
"203","3003",0.0597860340039553
"203","3005",0.0443792462018438
"203","3006",0.137651406039162
"203","3008",0.0334548858407863
"203","3010",0.0194097375710676
"203","5000",0.0847622053073398
"204","3001",0.748826321963185
"204","3002",0.0936243907136607
"204","3003",0.0592899259768535
"204","3005",0.0446529714123433
"204","3006",0.136968461765627
"204","3008",0.0330391002898301
"204","3010",0.0190542722571948
"204","5000",0.0852850071680255
"205","3001",0.750219690040055
"205","3002",0.0927997838208342
"205","3003",0.0587944705938797
"205","3005",0.0449263365295939
"205","3006",0.136286415924581
"205","3008",0.0326238617165148
"205","3010",0.0186992745679866
"205","5000",0.085807121268091
"206","3001",0.751610636892269
"206","3002",0.0919766098290288
"206","3003",0.0582998761526836
"206","3005",0.0451992266263722
"206","3006",0.135605555259394
"206","3008",0.0322093446940148
"206","3010",0.0183448937503518
"206","5000",0.0863283281021202
"207","3001",0.752977546899017
"207","3002",0.0911676610436012
"207","3003",0.0578138287599479
"207","3005",0.0454674009303974
"207","3006",0.134936460494943
"207","3008",0.0318019909082676
"207","3010",0.0179966369603433
"207","5000",0.0868405280009773
"208","3001",0.754340549172201
"208","3002",0.0903610248876112
"208","3003",0.057329170883494
"208","3005",0.0457348085755178
"208","3006",0.134269278544105
"208","3008",0.0313958016688717
"208","3010",0.017649375769709
"208","5000",0.0873512636185531
"209","3001",0.755699132523034
"209","3002",0.0895570038868621
"209","3003",0.0568460842924037
"209","3005",0.0460013492715194
"209","3006",0.133604259630918
"209","3008",0.0309909293155468
"209","3010",0.0173032404174293
"209","5000",0.0878603434054088
"210","3001",0.75703082734998
"210","3002",0.088768895739654
"210","3003",0.056372558752784
"210","3005",0.046262614703499
"210","3006",0.132952402499024
"210","3008",0.0305940700296111
"210","3010",0.0169639556339295
"210","5000",0.0883593476941352
"211","3001",0.758356528665593
"211","3002",0.0879843346026284
"211","3003",0.0559011643926435
"211","3005",0.0465227042674828
"211","3006",0.132303479157236
"211","3008",0.0301989968740855
"211","3010",0.0166261978573337
"211","5000",0.0888561061320867
"212","3001",0.759675706694602
"212","3002",0.0872036340012271
"212","3003",0.0554320895900678
"212","3005",0.0467815140267709
"212","3006",0.131657748927572
"212","3008",0.0298058677276614
"212","3010",0.0162901020620258
"212","5000",0.0893504202052131
"213","3001",0.760987805126804
"213","3002",0.0864271231644842
"213","3003",0.0549655321584618
"213","3005",0.0470389348387713
"213","3006",0.131015484120747
"213","3008",0.0294148483767223
"213","3010",0.0159558099828704
"213","5000",0.0898420814564639
"214","3001",0.762292369447478
"214","3002",0.0856550710780181
"214","3003",0.0545016537146804
"214","3005",0.0472948775321642
"214","3006",0.130376907219165
"214","3008",0.0290260742715115
"214","3010",0.0156234374196186
"214","5000",0.0903309195729477
"215","3001",0.763588703036706
"215","3002",0.0848878900073267
"215","3003",0.0540407019636141
"215","3005",0.0475492054369712
"215","3006",0.129742359214356
"215","3008",0.0286397530122064
"215","3010",0.015293161854778
"215","5000",0.0908166735216424
"216","3001",0.764852665171932
"216","3002",0.0841398666341199
"216","3003",0.053591260890456
"216","3005",0.0477971823807753
"216","3006",0.129123656854312
"216","3008",0.0282630787920429
"216","3010",0.0149711337814352
"216","5000",0.0912902974432072
"217","3001",0.766106979932969
"217","3002",0.0833975526577233
"217","3003",0.0531452502414282
"217","3005",0.0480432666046154
"217","3006",0.128509676829701
"217","3008",0.0278892795924578
"217","3010",0.014651563634035
"217","5000",0.0917603063615462
"218","3001",0.767374985005057
"218","3002",0.0826471366406351
"218","3003",0.0526943715762478
"218","3005",0.048292036732882
"218","3006",0.12788899547479
"218","3008",0.0275114005339157
"218","3010",0.014328505514671
"218","5000",0.0922354452269197
"219","3001",0.76860823705643
"219","3002",0.0819172877521495
"219","3003",0.0522558504291371
"219","3005",0.0485339886601722
"219","3006",0.127285325528159
"219","3008",0.0271438782468394
"219","3010",0.0140143016544589
"219","5000",0.0926975616595016
"220","3001",0.769829969387596
"220","3002",0.0811942563305231
"220","3003",0.0518214254770535
"220","3005",0.0487736805316181
"220","3006",0.126687294419815
"220","3008",0.0267797889594588
"220","3010",0.0137030327502875
"220","5000",0.0931553614951634
"221","3001",0.771064432578767
"221","3002",0.0804636906793656
"221","3003",0.0513824736714955
"221","3005",0.0490158700726288
"221","3006",0.126083031627062
"221","3008",0.0264119057397831
"221","3010",0.0133885203199016
"221","5000",0.0936179317584138
"222","3001",0.772261680751223
"222","3002",0.0797551491878384
"222","3003",0.0509567548240164
"222","3005",0.0492507583928614
"222","3006",0.125496985376771
"222","3008",0.0260551129932807
"222","3010",0.0130834894083383
"222","5000",0.0940665570445058
"223","3001",0.773445693886924
"223","3002",0.0790544403018637
"223","3003",0.0505357421057456
"223","3005",0.0494830501290078
"223","3006",0.124917417602574
"223","3008",0.0257022644291314
"223","3010",0.0127818304754667
"223","5000",0.0945102229810765
"224","3001",0.77464146529446
"224","3002",0.0783467727721798
"224","3003",0.0501105483679927
"224","3005",0.0497176487224823
"224","3006",0.124332094220411
"224","3008",0.0253459117743527
"224","3010",0.0124771758091633
"224","5000",0.094958294903129
"225","3001",0.775797492008508
"225","3002",0.077662626484835
"225","3003",0.0496994870929109
"225","3005",0.0499444497978596
"225","3006",0.123766225642293
"225","3008",0.0250014034628563
"225","3010",0.0121826471638166
"225","5000",0.0953914739442424
"226","3001",0.776964511418313
"226","3002",0.0769719746281128
"226","3003",0.0492845170227469
"226","3005",0.0501734075320656
"226","3006",0.123194976201395
"226","3008",0.0246536192105808
"226","3010",0.0118853178359676
"226","5000",0.0958287720989972
"227","3001",0.77809027885902
"227","3002",0.0763057360320544
"227","3003",0.0488842153740055
"227","3005",0.050394272035519
"227","3006",0.122643919367479
"227","3008",0.0243181284858228
"227","3010",0.0115984985477473
"227","5000",0.0962506125760002
"228","3001",0.7792262954036
"228","3002",0.0756334319305205
"228","3003",0.0484802693374175
"228","3005",0.0506171473123844
"228","3006",0.122087845654831
"228","3008",0.0239795834186113
"228","3010",0.0113090680268943
"228","5000",0.0966762935325825
"229","3001",0.780346075910658
"229","3002",0.0749707364519168
"229","3003",0.0480820965292554
"229","3005",0.0508368372383187
"229","3006",0.121539719391283
"229","3008",0.0236458768640437
"229","3010",0.0110237740697378
"229","5000",0.0970958906235583
"230","3001",0.781449001036059
"230","3002",0.0743180161292865
"230","3003",0.0476899171766004
"230","3005",0.0510532203040921
"230","3006",0.120999843742305
"230","3008",0.0233171933932884
"230","3010",0.0107427744707183
"230","5000",0.0975091717721992
"231","3001",0.782561792677627
"231","3002",0.0736594567197887
"231","3003",0.0472942294770647
"231","3005",0.051271539083331
"231","3006",0.120455138489127
"231","3008",0.022985569595304
"231","3010",0.0104592611134909
"231","5000",0.0979261500395661
"232","3001",0.783629564996519
"232","3002",0.0730275401223405
"232","3003",0.0469145497987601
"232","3005",0.0514810255140857
"232","3006",0.11993246994133
"232","3008",0.0226673620364524
"232","3010",0.0101872176297196
"232","5000",0.0983262589502037
"233","3001",0.784706214650935
"233","3002",0.0723903698434112
"233","3003",0.0465317135075372
"233","3005",0.0516922535907892
"233","3006",0.119405455987696
"233","3008",0.0223465089367716
"233","3010",0.00991291240789836
"233","5000",0.0987296943200336
"234","3001",0.785764307435165
"234","3002",0.0717641816756114
"234","3003",0.0461554756890205
"234","3005",0.0518998409920111
"234","3006",0.118887525517705
"234","3008",0.0220311859826633
"234","3010",0.00964333504380855
"234","5000",0.0991261761764752
"235","3001",0.786803006388435
"235","3002",0.0711494709393339
"235","3003",0.0457861339506602
"235","3005",0.0521036235142765
"235","3006",0.118379088218949
"235","3008",0.02172164259738
"235","3010",0.00937869877553536
"235","5000",0.0995153908988649
"236","3001",0.787850213350801
"236","3002",0.0705297250920464
"236","3003",0.0454137669248865
"236","3005",0.0523090752242769
"236","3006",0.117866486297567
"236","3008",0.0214095637344886
"236","3010",0.00911189486497218
"236","5000",0.0999077936887769
"237","3001",0.788877379579876
"237","3002",0.0699218395184968
"237","3003",0.0450485260055256
"237","3005",0.0525105951394437
"237","3006",0.117363694202475
"237","3008",0.0211034572242284
"237","3010",0.00885019686585239
"237","5000",0.100292686941474
"238","3001",0.789883932262354
"238","3002",0.0693261532143946
"238","3003",0.0446906148741748
"238","3005",0.0527080708794382
"238","3006",0.116870992322567
"238","3008",0.0208034937710841
"238","3010",0.00859375071764665
"238","5000",0.100669856015967
"239","3001",0.79086926790716
"239","3002",0.0687430233308107
"239","3003",0.0443402481208674
"239","3005",0.0529013840452448
"239","3006",0.116388676063331
"239","3008",0.0205098532218438
"239","3010",0.00834271017580618
"239","5000",0.101039074775884
"240","3001",0.791862125453747
"240","3002",0.0681554419227811
"240","3003",0.0439872067212913
"240","3005",0.0530961729342264
"240","3006",0.115902677875457
"240","3008",0.0202139710655105
"240","3010",0.00808975322882115
"240","5000",0.101411112095409
"241","3001",0.792833033286039
"241","3002",0.0675808505394291
"241","3003",0.0436419702257336
"241","3005",0.0532866555050703
"241","3006",0.115427423949343
"241","3008",0.0199246301585427
"241","3010",0.00784238855711715
"241","5000",0.101774924556393
"242","3001",0.793781538221845
"242","3002",0.067019517377769
"242","3003",0.0433046997772258
"242","3005",0.0534727428478864
"242","3006",0.114963136115126
"242","3008",0.0196419655540748
"242","3010",0.00760073162094695
"242","5000",0.102130342345266
"243","3001",0.794736911983349
"243","3002",0.066454119187557
"243","3003",0.0429649869039754
"243","3005",0.0536601777867707
"243","3006",0.114495486029341
"243","3008",0.0193572539661642
"243","3010",0.00735732466818699
"243","5000",0.102488333977193
"244","3001",0.795669052156756
"244","3002",0.0659024708292864
"244","3003",0.0426335354560291
"244","3005",0.0538430545241005
"244","3006",0.114039208654326
"244","3008",0.0190794662357284
"244","3010",0.00711983709180946
"244","5000",0.102837619665484
"245","3001",0.79657746758085
"245","3002",0.0653648629762773
"245","3003",0.0423105200810432
"245","3005",0.0540212766988739
"245","3006",0.113594544410735
"245","3008",0.0188087487340575
"245","3010",0.00688839402823739
"245","5000",0.103178015365307
"246","3001",0.797492171414848
"246","3002",0.0648235335896414
"246","3003",0.0419852686662129
"246","3005",0.0542007325978437
"246","3006",0.113146802025845
"246","3008",0.0185361572190511
"246","3010",0.00665534882448277
"246","5000",0.103520767418438
"247","3001",0.798382465155091
"247","3002",0.0642966503008454
"247","3003",0.041668697019888
"247","3005",0.0543753994764159
"247","3006",0.112711008244631
"247","3008",0.0182708401727753
"247","3010",0.00642852274331347
"247","5000",0.103854372675151
"248","3001",0.79927866810705
"248","3002",0.0637662698910852
"248","3003",0.0413500241694358
"248","3005",0.0545512256842281
"248","3006",0.1122723219375
"248","3008",0.0180037621182756
"248","3010",0.00620019113281629
"248","5000",0.10419019219442
"249","3001",0.800149780986889
"249","3002",0.0632507379960535
"249","3003",0.0410402728749582
"249","3005",0.0547221294665731
"249","3006",0.111845917079632
"249","3008",0.0177441611733239
"249","3010",0.00597825188753292
"249","5000",0.104516610120065
"250","3001",0.801026621716499
"250","3002",0.0627318163115752
"250","3003",0.0407284848652372
"250","3005",0.0548941569967275
"250","3006",0.111416708471499
"250","3008",0.0174828532679454
"250","3010",0.00575485331971547
"250","5000",0.104845174349461
"251","3001",0.801877633943242
"251","3002",0.0622281801513241
"251","3003",0.0404258809835241
"251","3005",0.0550611172285621
"251","3006",0.11100014277033
"251","3008",0.0172292425323671
"251","3010",0.0055380352520445
"251","5000",0.10516406028512
"252","3001",0.802702278208344
"252","3002",0.0617401487715172
"252","3003",0.0401326530511736
"252","3005",0.0552229043255697
"252","3006",0.110596484038159
"252","3008",0.0169834897310663
"252","3010",0.00532793512603328
"252","5000",0.105473065784453
"253","3001",0.803532034326911
"253","3002",0.0612490921540355
"253","3003",0.0398376074402374
"253","3005",0.0553856943179677
"253","3006",0.110190323082454
"253","3008",0.0167362135428195
"253","3010",0.00511653261898065
"253","5000",0.105783986765285
"254","3001",0.804366962688379
"254","3002",0.0607549745599036
"254","3003",0.0395407226773711
"254","3005",0.0555494990535702
"254","3006",0.109781630342923
"254","3008",0.016487395970929
"254","3010",0.00490381234506601
"254","5000",0.106096845856363
"255","3001",0.80517471252638
"255","3002",0.0602769414434917
"255","3003",0.0392535020843511
"255","3005",0.0557079716300844
"255","3006",0.109386241337851
"255","3008",0.0162466778894005
"255","3010",0.00469801652506079
"255","5000",0.106399520782498
"256","3001",0.805954846370692
"256","3002",0.0598152517033389
"256","3003",0.038976101217329
"256","3005",0.0558610262201542
"256","3006",0.10900437020645
"256","3008",0.0160141896690338
"256","3010",0.00449925661617428
"256","5000",0.106691847617607
"257","3001",0.806739371865547
"257","3002",0.0593509629476294
"257","3003",0.0386971387622833
"257","3005",0.0560149424088822
"257","3006",0.108620349386795
"257","3008",0.0157803926898862
"257","3010",0.00429937781715372
"257","5000",0.106985820064317
"258","3001",0.807495629967001
"258","3002",0.0589034030719819
"258","3003",0.0384282276586754
"258","3005",0.0561633128129467
"258","3006",0.10825016529731
"258","3008",0.0155550196959739
"258","3010",0.00410670089070628
"258","5000",0.107269200331608
"259","3001",0.808256185681034
"259","3002",0.058453299833232
"259","3003",0.0381577884051686
"259","3005",0.0563125263663454
"259","3006",0.107877877550626
"259","3008",0.0153283659675986
"259","3010",0.00391292903280484
"259","5000",0.107554190973186
"260","3001",0.809021093884326
"260","3002",0.0580006207549001
"260","3003",0.0378858014886508
"260","3005",0.0564625938353438
"260","3006",0.107503459284915
"260","3008",0.0151004151509229
"260","3010",0.00371804826215073
"260","5000",0.107840812552096
"261","3001",0.809756871568955
"261","3002",0.057565181361387
"261","3003",0.0376241728346198
"261","3005",0.0566069461829882
"261","3006",0.107143300244339
"261","3008",0.0148811455400325
"261","3010",0.00353058926825664
"261","5000",0.108116518526731
"262","3001",0.810496738886995
"262","3002",0.0571273216885833
"262","3003",0.037361089984155
"262","3005",0.0567521008764991
"262","3006",0.106781139351197
"262","3008",0.0146606571746926
"262","3010",0.00334208833114956
"262","5000",0.108393756943011
"263","3001",0.811206844060677
"263","3002",0.0567070755019725
"263","3003",0.0371085899903496
"263","3005",0.0568914165299049
"263","3006",0.106433546860415
"263","3008",0.0144490382463432
"263","3010",0.00316117009429849
"263","5000",0.108659843076218
"264","3001",0.811920782367702
"264","3002",0.0562845608349593
"264","3003",0.0368547270066926
"264","3005",0.0570314842063855
"264","3006",0.106084078072409
"264","3008",0.0142362770033054
"264","3010",0.00297927526446978
"264","5000",0.108927365536982
"265","3001",0.812604340657605
"265","3002",0.0558800253164125
"265","3003",0.0366116665835847
"265","3005",0.0571655916221998
"265","3006",0.105749480132008
"265","3008",0.0140325693299425
"265","3010",0.00280512055446672
"265","5000",0.109183504189288
"266","3001",0.813291483356326
"266","3002",0.0554733685147201
"266","3003",0.0363673316123709
"266","3005",0.0573004022637824
"266","3006",0.105413127643641
"266","3008",0.0138277934644571
"266","3010",0.00263005262069429
"266","5000",0.109440985968664
"267","3001",0.813982270247225
"267","3002",0.055064555049588
"267","3003",0.0361217008352165
"267","3005",0.0574359278600412
"267","3006",0.105074991343687
"267","3008",0.0136219315907689
"267","3010",0.0024540562317463
"267","5000",0.109699833276756
"268","3001",0.814641953144011
"268","3002",0.054674149188567
"268","3003",0.0358871300511616
"268","3005",0.0575653511584659
"268","3006",0.104752080274005
"268","3008",0.0134253390396339
"268","3010",0.00228598441507651
"268","5000",0.109947025492296
"269","3001",0.815305048312941
"269","3002",0.0542817239163243
"269","3003",0.035651345927552
"269","3005",0.0576954439111362
"269","3006",0.104427498916291
"269","3008",0.013227729594944
"269","3010",0.00211704323104695
"269","5000",0.110195496332938
"270","3001",0.815936456375466
"270","3002",0.053908051338929
"270","3003",0.0354268291407645
"270","3005",0.0578193199650737
"270","3006",0.104118428219038
"270","3008",0.0130395632465003
"270","3010",0.00195617518270804
"270","5000",0.110432093580867
"271","3001",0.816571053811016
"271","3002",0.0535324912638771
"271","3003",0.0352011782731411
"271","3005",0.0579438217426411
"271","3006",0.103807796341618
"271","3008",0.0128504464308207
"271","3010",0.0017944945565065
"271","5000",0.110669885930545
"272","3001",0.817208917558971
"272","3002",0.0531549981577987
"272","3003",0.0349743659664904
"272","3005",0.0580689643385884
"272","3006",0.103495565622637
"272","3008",0.0126603562191478
"272","3010",0.00163198175008243
"272","5000",0.110908902212213
"273","3001",0.817850156235898
"273","3002",0.0527755077405008
"273","3003",0.0347463535988121
"273","3005",0.0581947690624182
"273","3006",0.103181682894896
"273","3008",0.0124692602425844
"273","3010",0.00146860909046806
"273","5000",0.111149183125985
"274","3001",0.818458970565279
"274","3002",0.0524152063235294
"274","3003",0.0345298707169874
"274","3005",0.0583142124480517
"274","3006",0.10288367170301
"274","3008",0.0122878270680036
"274","3010",0.00131349739839273
"274","5000",0.111377314192692
"275","3001",0.819034891346182
"275","3002",0.0520743715839234
"275","3003",0.0343250841600094
"275","3005",0.0584272024428795
"275","3006",0.102601761718199
"275","3008",0.0121161965222958
"275","3010",0.00116676621531075
"275","5000",0.11159311959632
"276","3001",0.819650010739223
"276","3002",0.0517103387774935
"276","3003",0.0341063593165795
"276","3005",0.0585478828200125
"276","3006",0.102300664233094
"276","3008",0.0119328843713826
"276","3010",0.00101004814006447
"276","5000",0.111823613256725
"277","3001",0.820232144095173
"277","3002",0.0513658273839655
"277","3003",0.0338993636852015
"277","3005",0.058662091660983
"277","3006",0.102015713227721
"277","3008",0.0117594024119375
"277","3010",0.000861734137753472
"277","5000",0.112041746597301
"278","3001",0.820780936973727
"278","3002",0.0510410471640779
"278","3003",0.0337042232981557
"278","3005",0.0587697594280882
"278","3006",0.101747082198614
"278","3008",0.0115958562709577
"278","3010",0.00072191451150047
"278","5000",0.112247386804412
"279","3001",0.821369657954356
"279","3002",0.0506926371591143
"279","3003",0.0334948852318082
"279","3005",0.0588852606962521
"279","3006",0.101458906587992
"279","3008",0.0114204111289774
"279","3010",0.000571922136060671
"279","5000",0.11246798861817
"280","3001",0.821925228725031
"280","3002",0.0503638457259269
"280","3003",0.0332973347542831
"280","3005",0.058994258219152
"280","3006",0.101186957818793
"280","3008",0.0112548451037323
"280","3010",0.000430375660972515
"280","5000",0.112676168594279
"281","3001",0.822484843657621
"281","3002",0.0500326609238619
"281","3003",0.0330983462491303
"281","3005",0.0591040491668578
"281","3006",0.100913029455071
"281","3008",0.0110880738750298
"281","3010",0.000287798827748427
"281","5000",0.112885863973241
"282","3001",0.823011823749065
"282","3002",0.0497207896939974
"282","3003",0.0329109620773811
"282","3005",0.0592074374795928
"282","3006",0.100655075662638
"282","3008",0.0109310281776514
"282","3010",0.000153536590923191
"282","5000",0.113083330630303
"283","3001",0.82358589515213
"283","3002",0.0493810494316787
"283","3003",0.0327068331242484
"283","3005",0.0593200646446716
"283","3006",0.100374070937882
"283","3008",0.0107599487662977
"283","3010",7.276586182387E-6
"283","5000",0.113298443047136
"284","3001",0.823574842180164
"284","3002",0.0493875906730209
"284","3003",0.0327107633524122
"284","3005",0.0593178961602434
"284","3006",0.100379481305527
"284","3008",0.0107632426700309
"284","3010",1.00926256567702E-5
"284","5000",0.113294301347391
"285","3001",0.823574841305161
"285","3002",0.0493875911908551
"285","3003",0.0327107636635468
"285","3005",0.0593178959885764
"285","3006",0.100379481733836
"285","3008",0.0107632429307911
"285","3010",1.0092848587149E-5
"285","5000",0.113294301019515
"286","3001",0.823574840379017
"286","3002",0.049387591738955
"286","3003",0.0327107639928662
"286","3005",0.059317895806876
"286","3006",0.100379482187178
"286","3008",0.010763243206792
"286","3010",1.00930845470814E-5
"286","5000",0.113294300672476
"287","3001",0.823574839534082
"287","3002",0.0493875922389947
"287","3003",0.0327107642933092
"287","3005",0.059317895641108
"287","3006",0.10037948260077
"287","3008",0.0107632434585917
"287","3010",1.00932998168546E-5
"287","5000",0.113294300355867
"288","3001",0.823574838703688
"288","3002",0.0493875927304288
"288","3003",0.0327107645885816
"288","3005",0.0593178954781929
"288","3006",0.100379483007243
"288","3008",0.010763243706058
"288","3010",1.00935113818767E-5
"288","5000",0.113294300044707
"289","3001",0.823574837950114
"289","3002",0.0493875931764004
"289","3003",0.0327107648565384
"289","3005",0.059317895330349
"289","3006",0.100379483376113
"289","3008",0.0107632439306311
"289","3010",1.00937033750242E-5
"289","5000",0.113294299762333
"290","3001",0.823574837147804
"290","3002",0.0493875936512138
"290","3003",0.0327107651418245
"290","3005",0.0593178951729438
"290","3006",0.100379483768839
"290","3008",0.0107632441697279
"290","3010",1.00939077847723E-5
"290","5000",0.113294299461696
"291","3001",0.823574836420229
"291","3002",0.0493875940817989
"291","3003",0.0327107654005365
"291","3005",0.0593178950302007
"291","3006",0.100379484124983
"291","3008",0.0107632443865531
"291","3010",1.0094093153953E-5
"291","5000",0.113294299189064
"292","3001",0.823574835705188
"292","3002",0.0493875945049662
"292","3003",0.0327107656547916
"292","3005",0.0593178948899167
"292","3006",0.100379484474992
"292","3008",0.010763244599643
"292","3010",1.00942753297507E-5
"292","5000",0.113294298921128
"293","3001",0.823574835060775
"293","3002",0.0493875948863349
"293","3003",0.0327107658839326
"293","3005",0.0593178947634893
"293","3006",0.100379484790428
"293","3008",0.0107632447916848
"293","3010",1.00944395110353E-5
"293","5000",0.113294298679658
"294","3001",0.82357483436986
"294","3002",0.0493875952952245
"294","3003",0.0327107661296091
"294","3005",0.0593178946279384
"294","3006",0.100379485128627
"294","3008",0.010763244997585
"294","3010",1.00946155401803E-5
"294","5000",0.113294298420763
"295","3001",0.823574833747625
"295","3002",0.0493875956634681
"295","3003",0.0327107663508639
"295","3005",0.0593178945058622
"295","3006",0.100379485433207
"295","3008",0.0107632451830175
"295","3010",1.00947740710118E-5
"295","5000",0.113294298187603
"296","3001",0.823574833136043
"296","3002",0.0493875960254074
"296","3003",0.0327107665683309
"296","3005",0.0593178943858758
"296","3006",0.100379485732573
"296","3008",0.0107632453652755
"296","3010",1.00949298878578E-5
"296","5000",0.113294297958435
"297","3001",0.823574832535144
"297","3002",0.0493875963810247
"297","3003",0.0327107667819994
"297","3005",0.0593178942679852
"297","3006",0.10037948602671
"297","3008",0.01076324554435
"297","3010",1.00950829830113E-5
"297","5000",0.113294297733269
"298","3001",0.823574831998168
"298","3002",0.0493875966988117
"298","3003",0.032710766972938
"298","3005",0.0593178941626358
"298","3006",0.100379486289557
"298","3008",0.0107632457043746
"298","3010",1.00952197920141E-5
"298","5000",0.113294297532057
"299","3001",0.823574831470069
"299","3002",0.0493875970113448
"299","3003",0.0327107671607198
"299","3005",0.0593178940590281
"299","3006",0.100379486548058
"299","3008",0.0107632458617536
"299","3010",1.0095354339158E-5
"299","5000",0.113294297334171
"300","3001",0.823574830899444
"300","3002",0.0493875973490457
"300","3003",0.0327107673636235
"300","3005",0.059317893947077
"300","3006",0.100379486827376
"300","3008",0.0107632460318061
"300","3010",1.00954997212356E-5
"300","5000",0.11329429712035
